%!PS-Adobe-3.0
%%Creator: PCBNEW
%%CreationDate: Sat Jun 22 18:17:51 2019
%%Title: /home/ulicesah/Documents/KiCAD/Boards/Display7segx4/Display7segx4-NPTH-drl_map.ps
%%Pages: 1
%%PageOrder: Ascend
%%BoundingBox: 0 0 596 842
%%DocumentMedia: A4 595 842 0 () ()
%%Orientation: Landscape
%%EndComments
%%BeginProlog
/line { newpath moveto lineto stroke } bind def
/cir0 { newpath 0 360 arc stroke } bind def
/cir1 { newpath 0 360 arc gsave fill grestore stroke } bind def
/cir2 { newpath 0 360 arc gsave fill grestore stroke } bind def
/arc0 { newpath arc stroke } bind def
/arc1 { newpath 4 index 4 index moveto arc closepath gsave fill
    grestore stroke } bind def
/arc2 { newpath 4 index 4 index moveto arc closepath gsave fill
    grestore stroke } bind def
/poly0 { stroke } bind def
/poly1 { closepath gsave fill grestore stroke } bind def
/poly2 { closepath gsave fill grestore stroke } bind def
/rect0 { rectstroke } bind def
/rect1 { rectfill } bind def
/rect2 { rectfill } bind def
/linemode0 { 0 setlinecap 0 setlinejoin 0 setlinewidth } bind def
/linemode1 { 1 setlinecap 1 setlinejoin } bind def
/dashedline { [200] 100 setdash } bind def
/solidline { [] 0 setdash } bind def
/phantomshow { moveto
    /KicadFont findfont 0.000001 scalefont setfont
    show } bind def
/textshow { gsave
    findfont exch scalefont setfont concat 1 scale 0 0 moveto show
    } bind def
/reencodefont {
  findfont dup length dict begin
  { 1 index /FID ne
    { def }
    { pop pop } ifelse
  } forall
  /Encoding ISOLatin1Encoding def
  currentdict
  end } bind def
/KicadFont /Helvetica reencodefont definefont pop
/KicadFont-Bold /Helvetica-Bold reencodefont definefont pop
/KicadFont-Oblique /Helvetica-Oblique reencodefont definefont pop
/KicadFont-BoldOblique /Helvetica-BoldOblique reencodefont definefont pop
%%EndProlog
%%Page: 1 1
%%BeginPageSetup
gsave
0.0072 0.0072 scale
linemode1
82680 0 translate 90 rotate
150 setlinewidth
%%EndPageSetup
0 0 0 setrgbcolor
59.0551 setlinewidth
31465 42126 4500 180 270 arc0
0 0 0 setrgbcolor
85465 73626 4500 -0 90 arc0
0 0 0 setrgbcolor
85465 42126 4500 -90 -0 arc0
0 0 0 setrgbcolor
newpath
89965 73626 moveto
89965 42126 lineto
stroke
0 0 0 setrgbcolor
newpath
85465 78126 moveto
83965 78126 lineto
stroke
0 0 0 setrgbcolor
newpath
49465 78126 moveto
83965 78126 lineto
stroke
0 0 0 setrgbcolor
newpath
31465 37626 moveto
85465 37626 lineto
stroke
0 0 0 setrgbcolor
newpath
26965 69126 moveto
26965 42126 lineto
stroke
0 0 0 setrgbcolor
31465 73626 4500 90 180 arc0
0 0 0 setrgbcolor
newpath
26965 73626 moveto
26965 69126 lineto
stroke
0 0 0 setrgbcolor
newpath
31465 78126 moveto
49465 78126 lineto
stroke
78.7394 setlinewidth
118.11 setlinewidth
0 0 0 setrgbcolor
0 0 0 setrgbcolor
newpath
28063.1 35763 moveto
28063.1 36944.1 lineto
28344.4 36944.1 lineto
28513.1 36887.8 lineto
28625.6 36775.3 lineto
28681.8 36662.8 lineto
28738.1 36437.9 lineto
28738.1 36269.1 lineto
28681.8 36044.2 lineto
28625.6 35931.7 lineto
28513.1 35819.2 lineto
28344.4 35763 lineto
28063.1 35763 lineto
stroke
newpath
29244.2 35763 moveto
29244.2 36550.4 lineto
stroke
newpath
29244.2 36325.4 moveto
29300.5 36437.9 lineto
29356.7 36494.1 lineto
29469.2 36550.4 lineto
29581.7 36550.4 lineto
stroke
newpath
29975.4 35763 moveto
29975.4 36550.4 lineto
stroke
newpath
29975.4 36944.1 moveto
29919.2 36887.8 lineto
29975.4 36831.6 lineto
30031.6 36887.8 lineto
29975.4 36944.1 lineto
29975.4 36831.6 lineto
stroke
newpath
30706.6 35763 moveto
30594.1 35819.2 lineto
30537.8 35931.7 lineto
30537.8 36944.1 lineto
stroke
newpath
31325.2 35763 moveto
31212.7 35819.2 lineto
31156.5 35931.7 lineto
31156.5 36944.1 lineto
stroke
newpath
32675.1 35763 moveto
32675.1 36944.1 lineto
33068.8 36100.4 lineto
33462.5 36944.1 lineto
33462.5 35763 lineto
stroke
newpath
34531.1 35763 moveto
34531.1 36381.6 lineto
34474.8 36494.1 lineto
34362.4 36550.4 lineto
34137.4 36550.4 lineto
34024.9 36494.1 lineto
stroke
newpath
34531.1 35819.2 moveto
34418.6 35763 lineto
34137.4 35763 lineto
34024.9 35819.2 lineto
33968.7 35931.7 lineto
33968.7 36044.2 lineto
34024.9 36156.7 lineto
34137.4 36212.9 lineto
34418.6 36212.9 lineto
34531.1 36269.1 lineto
stroke
newpath
35093.5 36550.4 moveto
35093.5 35369.2 lineto
stroke
newpath
35093.5 36494.1 moveto
35206 36550.4 lineto
35431 36550.4 lineto
35543.5 36494.1 lineto
35599.7 36437.9 lineto
35655.9 36325.4 lineto
35655.9 35987.9 lineto
35599.7 35875.4 lineto
35543.5 35819.2 lineto
35431 35763 lineto
35206 35763 lineto
35093.5 35819.2 lineto
stroke
newpath
36162.1 35875.4 moveto
36218.4 35819.2 lineto
36162.1 35763 lineto
36105.9 35819.2 lineto
36162.1 35875.4 lineto
36162.1 35763 lineto
stroke
newpath
36162.1 36494.1 moveto
36218.4 36437.9 lineto
36162.1 36381.6 lineto
36105.9 36437.9 lineto
36162.1 36494.1 lineto
36162.1 36381.6 lineto
stroke
showpage
grestore
%%EOF
