EESchema Schematic File Version 4
EELAYER 30 0
EELAYER END
$Descr A4 11693 8268
encoding utf-8
Sheet 1 1
Title "7 segment display, 4 characters, common cathode"
Date "2021-03-13"
Rev "1.1"
Comp "hasecilu"
Comment1 "Simple board using NPN transistors"
Comment2 "Use the resistors according to your needs "
Comment3 "The separation between display rows is 15.2[mm]"
Comment4 ""
$EndDescr
$Comp
L Display_Character:CC56-12EWA U1
U 1 1 5CA2B2EA
P 5750 2950
F 0 "U1" H 5750 3617 50  0000 C CNN
F 1 "CC56-12EWA" H 5750 3526 50  0000 C CNN
F 2 "Display_7Segment:CA56-12EWA" H 5750 2350 50  0001 C CNN
F 3 "http://www.kingbrightusa.com/images/catalog/SPEC/CA56-12EWA.pdf" H 5320 2980 50  0001 C CNN
	1    5750 2950
	1    0    0    -1  
$EndComp
$Comp
L power:Earth #PWR01
U 1 1 5CA2BE0E
P 9400 5400
F 0 "#PWR01" H 9400 5150 50  0001 C CNN
F 1 "Earth" H 9400 5250 50  0001 C CNN
F 2 "" H 9400 5400 50  0001 C CNN
F 3 "~" H 9400 5400 50  0001 C CNN
	1    9400 5400
	1    0    0    -1  
$EndComp
Wire Wire Line
	6850 3350 7300 3350
Wire Wire Line
	6850 3150 8700 3150
Wire Wire Line
	9400 3050 6850 3050
$Comp
L Device:R R1
U 1 1 5CA2C2F3
P 4450 2650
F 0 "R1" V 4243 2650 50  0000 C CNN
F 1 "220" V 4334 2650 50  0000 C CNN
F 2 "Resistor_SMD:R_0603_1608Metric" V 4380 2650 50  0001 C CNN
F 3 "~" H 4450 2650 50  0001 C CNN
	1    4450 2650
	0    1    1    0   
$EndComp
$Comp
L Device:R R2
U 1 1 5CA2C578
P 4250 2750
F 0 "R2" V 4043 2750 50  0000 C CNN
F 1 "220" V 4134 2750 50  0000 C CNN
F 2 "Resistor_SMD:R_0603_1608Metric" V 4180 2750 50  0001 C CNN
F 3 "~" H 4250 2750 50  0001 C CNN
	1    4250 2750
	0    1    1    0   
$EndComp
$Comp
L Device:R R3
U 1 1 5CA2CCBB
P 4050 2850
F 0 "R3" V 3843 2850 50  0000 C CNN
F 1 "220" V 3934 2850 50  0000 C CNN
F 2 "Resistor_SMD:R_0603_1608Metric" V 3980 2850 50  0001 C CNN
F 3 "~" H 4050 2850 50  0001 C CNN
	1    4050 2850
	0    1    1    0   
$EndComp
$Comp
L Device:R R4
U 1 1 5CA2CCC2
P 3850 2950
F 0 "R4" V 3643 2950 50  0000 C CNN
F 1 "220" V 3734 2950 50  0000 C CNN
F 2 "Resistor_SMD:R_0603_1608Metric" V 3780 2950 50  0001 C CNN
F 3 "~" H 3850 2950 50  0001 C CNN
	1    3850 2950
	0    1    1    0   
$EndComp
$Comp
L Device:R R5
U 1 1 5CA2CE6D
P 3650 3050
F 0 "R5" V 3443 3050 50  0000 C CNN
F 1 "220" V 3534 3050 50  0000 C CNN
F 2 "Resistor_SMD:R_0603_1608Metric" V 3580 3050 50  0001 C CNN
F 3 "~" H 3650 3050 50  0001 C CNN
	1    3650 3050
	0    1    1    0   
$EndComp
$Comp
L Device:R R6
U 1 1 5CA2CE74
P 3450 3150
F 0 "R6" V 3243 3150 50  0000 C CNN
F 1 "220" V 3334 3150 50  0000 C CNN
F 2 "Resistor_SMD:R_0603_1608Metric" V 3380 3150 50  0001 C CNN
F 3 "~" H 3450 3150 50  0001 C CNN
	1    3450 3150
	0    1    1    0   
$EndComp
$Comp
L Device:R R7
U 1 1 5CA2CE7B
P 3250 3250
F 0 "R7" V 3043 3250 50  0000 C CNN
F 1 "220" V 3134 3250 50  0000 C CNN
F 2 "Resistor_SMD:R_0603_1608Metric" V 3180 3250 50  0001 C CNN
F 3 "~" H 3250 3250 50  0001 C CNN
	1    3250 3250
	0    1    1    0   
$EndComp
$Comp
L Device:R R8
U 1 1 5CA2CE82
P 3050 3350
F 0 "R8" V 2843 3350 50  0000 C CNN
F 1 "220" V 2934 3350 50  0000 C CNN
F 2 "Resistor_SMD:R_0603_1608Metric" V 2980 3350 50  0001 C CNN
F 3 "~" H 3050 3350 50  0001 C CNN
	1    3050 3350
	0    1    1    0   
$EndComp
Wire Wire Line
	4400 2750 4650 2750
Wire Wire Line
	4200 2850 4650 2850
Wire Wire Line
	4000 2950 4650 2950
Wire Wire Line
	4650 3050 3800 3050
Wire Wire Line
	3600 3150 4650 3150
Wire Wire Line
	4650 3250 3400 3250
Wire Wire Line
	3200 3350 4650 3350
$Comp
L Device:R R9
U 1 1 5CA2E0AE
P 6650 3700
F 0 "R9" V 6443 3700 50  0000 C CNN
F 1 "10k" V 6534 3700 50  0000 C CNN
F 2 "Resistor_SMD:R_0603_1608Metric" V 6580 3700 50  0001 C CNN
F 3 "~" H 6650 3700 50  0001 C CNN
	1    6650 3700
	0    1    1    0   
$EndComp
$Comp
L Device:R R11
U 1 1 5CA2E7DC
P 6650 4500
F 0 "R11" V 6443 4500 50  0000 C CNN
F 1 "10k" V 6534 4500 50  0000 C CNN
F 2 "Resistor_SMD:R_0603_1608Metric" V 6580 4500 50  0001 C CNN
F 3 "~" H 6650 4500 50  0001 C CNN
	1    6650 4500
	0    1    1    0   
$EndComp
$Comp
L Device:R R12
U 1 1 5CA2EB38
P 6650 4900
F 0 "R12" V 6443 4900 50  0000 C CNN
F 1 "10k" V 6534 4900 50  0000 C CNN
F 2 "Resistor_SMD:R_0603_1608Metric" V 6580 4900 50  0001 C CNN
F 3 "~" H 6650 4900 50  0001 C CNN
	1    6650 4900
	0    1    1    0   
$EndComp
Wire Wire Line
	4300 2650 2150 2650
Wire Wire Line
	4100 2750 2150 2750
Wire Wire Line
	2150 2850 3900 2850
Wire Wire Line
	3700 2950 2150 2950
Wire Wire Line
	2150 3050 3500 3050
Wire Wire Line
	2150 3150 3300 3150
Wire Wire Line
	3100 3250 2150 3250
Wire Wire Line
	2150 3350 2900 3350
Wire Wire Line
	2150 3450 4500 3450
Wire Wire Line
	4500 3450 4500 3700
Wire Wire Line
	4500 3700 6500 3700
Wire Wire Line
	6500 4100 4400 4100
Wire Wire Line
	4400 4100 4400 3550
Wire Wire Line
	4400 3550 2150 3550
Wire Wire Line
	2150 3650 4300 3650
Wire Wire Line
	4300 3650 4300 4500
Wire Wire Line
	4300 4500 6500 4500
Wire Wire Line
	6500 4900 4200 4900
Wire Wire Line
	4200 4900 4200 3750
Wire Wire Line
	4200 3750 2150 3750
$Comp
L Connector_Generic:Conn_01x13 J1
U 1 1 5CB646AE
P 1950 3250
F 0 "J1" H 1868 2425 50  0000 C CNN
F 1 "Conn_01x13" H 1868 2516 50  0000 C CNN
F 2 "Connector_PinHeader_2.54mm:PinHeader_1x13_P2.54mm_Vertical" H 1950 3250 50  0001 C CNN
F 3 "~" H 1950 3250 50  0001 C CNN
	1    1950 3250
	-1   0    0    1   
$EndComp
Wire Wire Line
	9400 5200 9400 5300
Wire Wire Line
	9400 5300 4100 5300
Wire Wire Line
	4100 5300 4100 3850
Wire Wire Line
	4100 3850 2150 3850
Connection ~ 9400 5300
Wire Wire Line
	9400 5300 9400 5400
Wire Wire Line
	4600 2650 4650 2650
$Comp
L Device:R R10
U 1 1 5CA2E485
P 6650 4100
F 0 "R10" V 6443 4100 50  0000 C CNN
F 1 "10k" V 6534 4100 50  0000 C CNN
F 2 "Resistor_SMD:R_0603_1608Metric" V 6580 4100 50  0001 C CNN
F 3 "~" H 6650 4100 50  0001 C CNN
	1    6650 4100
	0    1    1    0   
$EndComp
$Comp
L Transistor_BJT:MMBT3904 Q1
U 1 1 5DC92AB0
P 7200 4900
F 0 "Q1" H 7391 4946 50  0000 L CNN
F 1 "MMBT3904" H 7391 4855 50  0000 L CNN
F 2 "Package_TO_SOT_SMD:SOT-23" H 7400 4825 50  0001 L CIN
F 3 "https://www.fairchildsemi.com/datasheets/2N/2N3904.pdf" H 7200 4900 50  0001 L CNN
	1    7200 4900
	1    0    0    -1  
$EndComp
Wire Wire Line
	6850 3250 8000 3250
$Comp
L Transistor_BJT:MMBT3904 Q4
U 1 1 5DC9558F
P 9300 3700
F 0 "Q4" H 9491 3746 50  0000 L CNN
F 1 "MMBT3904" H 9491 3655 50  0000 L CNN
F 2 "Package_TO_SOT_SMD:SOT-23" H 9500 3625 50  0001 L CIN
F 3 "https://www.fairchildsemi.com/datasheets/2N/2N3904.pdf" H 9300 3700 50  0001 L CNN
	1    9300 3700
	1    0    0    -1  
$EndComp
$Comp
L Transistor_BJT:MMBT3904 Q3
U 1 1 5DC96353
P 8600 4100
F 0 "Q3" H 8791 4146 50  0000 L CNN
F 1 "MMBT3904" H 8791 4055 50  0000 L CNN
F 2 "Package_TO_SOT_SMD:SOT-23" H 8800 4025 50  0001 L CIN
F 3 "https://www.fairchildsemi.com/datasheets/2N/2N3904.pdf" H 8600 4100 50  0001 L CNN
	1    8600 4100
	1    0    0    -1  
$EndComp
$Comp
L Transistor_BJT:MMBT3904 Q2
U 1 1 5DC967AB
P 7900 4500
F 0 "Q2" H 8091 4546 50  0000 L CNN
F 1 "MMBT3904" H 8091 4455 50  0000 L CNN
F 2 "Package_TO_SOT_SMD:SOT-23" H 8100 4425 50  0001 L CIN
F 3 "https://www.fairchildsemi.com/datasheets/2N/2N3904.pdf" H 7900 4500 50  0001 L CNN
	1    7900 4500
	1    0    0    -1  
$EndComp
$Comp
L power:PWR_FLAG #FLG0101
U 1 1 5DC990A7
P 9750 5400
F 0 "#FLG0101" H 9750 5475 50  0001 C CNN
F 1 "PWR_FLAG" H 9750 5573 50  0000 C CNN
F 2 "" H 9750 5400 50  0001 C CNN
F 3 "~" H 9750 5400 50  0001 C CNN
	1    9750 5400
	-1   0    0    1   
$EndComp
Wire Wire Line
	9750 5400 9750 5300
Wire Wire Line
	9750 5300 9400 5300
Wire Wire Line
	6800 4900 7000 4900
Wire Wire Line
	7300 5100 7300 5200
Wire Wire Line
	7300 3350 7300 4700
Wire Wire Line
	8000 3250 8000 4300
Wire Wire Line
	8000 4700 8000 5200
Wire Wire Line
	7300 5200 8000 5200
Connection ~ 8000 5200
Wire Wire Line
	8000 5200 8700 5200
Wire Wire Line
	8400 4100 6800 4100
Wire Wire Line
	6800 4500 7700 4500
Wire Wire Line
	8700 4300 8700 5200
Connection ~ 8700 5200
Wire Wire Line
	8700 5200 9400 5200
Wire Wire Line
	9400 3900 9400 5200
Connection ~ 9400 5200
Wire Wire Line
	9400 3500 9400 3050
Wire Wire Line
	8700 3150 8700 3900
Wire Wire Line
	6800 3700 9100 3700
$Comp
L Mechanical:MountingHole H1
U 1 1 604DD43A
P 1950 4250
F 0 "H1" H 2050 4296 50  0000 L CNN
F 1 "MountingHole" H 2050 4205 50  0000 L CNN
F 2 "MountingHole:MountingHole_3.2mm_M3_Pad_Via" H 1950 4250 50  0001 C CNN
F 3 "~" H 1950 4250 50  0001 C CNN
	1    1950 4250
	1    0    0    -1  
$EndComp
Text Notes 2925 2350 0    50   ~ 0
330->29.687[mW]\n220->43.681[mW]
$Comp
L Mechanical:MountingHole H2
U 1 1 604EC98A
P 1950 4475
F 0 "H2" H 2050 4521 50  0000 L CNN
F 1 "MountingHole" H 2050 4430 50  0000 L CNN
F 2 "MountingHole:MountingHole_3.2mm_M3_Pad_Via" H 1950 4475 50  0001 C CNN
F 3 "~" H 1950 4475 50  0001 C CNN
	1    1950 4475
	1    0    0    -1  
$EndComp
Text Notes 6475 5125 0    50   ~ 0
2.025[mW]
Text Notes 7525 2850 0    50   ~ 0
You can use BC817-25L for replacement
$EndSCHEMATC
