%!PS-Adobe-3.0
%%Creator: PCBNEW
%%CreationDate: Mon Apr 26 13:43:38 2021
%%Title: ()
%%Pages: 1
%%PageOrder: Ascend
%%BoundingBox: 0 0 596 842
%%DocumentMedia: A4 595 842 0 () ()
%%Orientation: Landscape
%%EndComments
%%BeginProlog
/line { newpath moveto lineto stroke } bind def
/cir0 { newpath 0 360 arc stroke } bind def
/cir1 { newpath 0 360 arc gsave fill grestore stroke } bind def
/cir2 { newpath 0 360 arc gsave fill grestore stroke } bind def
/arc0 { newpath arc stroke } bind def
/arc1 { newpath 4 index 4 index moveto arc closepath gsave fill
    grestore stroke } bind def
/arc2 { newpath 4 index 4 index moveto arc closepath gsave fill
    grestore stroke } bind def
/poly0 { stroke } bind def
/poly1 { closepath gsave fill grestore stroke } bind def
/poly2 { closepath gsave fill grestore stroke } bind def
/rect0 { rectstroke } bind def
/rect1 { rectfill } bind def
/rect2 { rectfill } bind def
/linemode0 { 0 setlinecap 0 setlinejoin 0 setlinewidth } bind def
/linemode1 { 1 setlinecap 1 setlinejoin } bind def
/dashedline { [200] 100 setdash } bind def
/solidline { [] 0 setdash } bind def
/phantomshow { moveto
    /KicadFont findfont 0.000001 scalefont setfont
    show } bind def
/textshow { gsave
    findfont exch scalefont setfont concat 1 scale 0 0 moveto show
    } bind def
/reencodefont {
  findfont dup length dict begin
  { 1 index /FID ne
    { def }
    { pop pop } ifelse
  } forall
  /Encoding ISOLatin1Encoding def
  currentdict
  end } bind def
/KicadFont /Helvetica reencodefont definefont pop
/KicadFont-Bold /Helvetica-Bold reencodefont definefont pop
/KicadFont-Oblique /Helvetica-Oblique reencodefont definefont pop
/KicadFont-BoldOblique /Helvetica-BoldOblique reencodefont definefont pop
%%EndProlog
%%Page: 1 1
%%BeginPageSetup
gsave
0.0072 0.0072 scale
linemode1
82680 0 translate 90 rotate
236.22 setlinewidth
%%EndPageSetup
0 0 0 setrgbcolor
118.11 setlinewidth
newpath
38965 77376 moveto
77965 77376 lineto
stroke
newpath
77965 77376 moveto
77965 38376 lineto
stroke
newpath
77965 38376 moveto
38965 38376 lineto
stroke
newpath
38965 38376 moveto
38965 77376 lineto
stroke
236.22 setlinewidth
47.2441 setlinewidth
newpath
62283.9 53906.8 moveto
62756.3 53434.3 lineto
stroke
newpath
62756.3 53906.8 moveto
62283.9 53434.3 lineto
stroke
newpath
66436 50756.7 moveto
66908.5 50284.2 lineto
stroke
newpath
66908.5 50756.7 moveto
66436 50284.2 lineto
stroke
newpath
68174.1 52829.7 moveto
68646.6 52357.3 lineto
stroke
newpath
68646.6 52829.7 moveto
68174.1 52357.3 lineto
stroke
76.7717 setlinewidth
48025 72109.2 383.858 cir0
48025 43762.8 383.858 cir0
51025 72109.2 383.858 cir0
51025 43762.8 383.858 cir0
54025 72109.2 383.858 cir0
54025 43762.8 383.858 cir0
57025 72109.2 383.858 cir0
57025 43762.8 383.858 cir0
60025 72109.2 383.858 cir0
60025 43762.8 383.858 cir0
63025 72109.2 383.858 cir0
63025 43762.8 383.858 cir0
66025 72109.2 383.858 cir0
66025 43762.8 383.858 cir0
69025 72109.2 383.858 cir0
69025 43762.8 383.858 cir0
118.11 setlinewidth
newpath
42565 68666.6 moveto
42565 67485.4 lineto
stroke
newpath
41974.4 68076 moveto
43155.6 68076 lineto
stroke
newpath
42565 65666.6 moveto
42565 64485.4 lineto
stroke
newpath
41974.4 65076 moveto
43155.6 65076 lineto
stroke
newpath
42565 62666.6 moveto
42565 61485.4 lineto
stroke
newpath
41974.4 62076 moveto
43155.6 62076 lineto
stroke
newpath
42565 59666.6 moveto
42565 58485.4 lineto
stroke
newpath
41974.4 59076 moveto
43155.6 59076 lineto
stroke
newpath
42565 56666.6 moveto
42565 55485.4 lineto
stroke
newpath
41974.4 56076 moveto
43155.6 56076 lineto
stroke
newpath
42565 53666.6 moveto
42565 52485.4 lineto
stroke
newpath
41974.4 53076 moveto
43155.6 53076 lineto
stroke
newpath
42565 50666.6 moveto
42565 49485.4 lineto
stroke
newpath
41974.4 50076 moveto
43155.6 50076 lineto
stroke
newpath
42565 47666.6 moveto
42565 46485.4 lineto
stroke
newpath
41974.4 47076 moveto
43155.6 47076 lineto
stroke
newpath
42565 44666.6 moveto
42565 43485.4 lineto
stroke
newpath
41974.4 44076 moveto
43155.6 44076 lineto
stroke
newpath
75325 68666.6 moveto
75325 67485.4 lineto
stroke
newpath
74734.4 68076 moveto
75915.6 68076 lineto
stroke
newpath
75325 65666.6 moveto
75325 64485.4 lineto
stroke
newpath
74734.4 65076 moveto
75915.6 65076 lineto
stroke
newpath
75325 62666.6 moveto
75325 61485.4 lineto
stroke
newpath
74734.4 62076 moveto
75915.6 62076 lineto
stroke
newpath
75325 59666.6 moveto
75325 58485.4 lineto
stroke
newpath
74734.4 59076 moveto
75915.6 59076 lineto
stroke
newpath
75325 56666.6 moveto
75325 55485.4 lineto
stroke
newpath
74734.4 56076 moveto
75915.6 56076 lineto
stroke
newpath
75325 53666.6 moveto
75325 52485.4 lineto
stroke
newpath
74734.4 53076 moveto
75915.6 53076 lineto
stroke
newpath
75325 50666.6 moveto
75325 49485.4 lineto
stroke
newpath
74734.4 50076 moveto
75915.6 50076 lineto
stroke
newpath
75325 47666.6 moveto
75325 46485.4 lineto
stroke
newpath
74734.4 47076 moveto
75915.6 47076 lineto
stroke
236.22 setlinewidth
78.7406 setlinewidth
0 0 0 setrgbcolor
0 0 0 setrgbcolor
newpath
39920.2 37094.6 moveto
39920.2 37882 lineto
40107.7 37882 lineto
40220.2 37844.5 lineto
40295.1 37769.5 lineto
40332.6 37694.5 lineto
40370.1 37544.5 lineto
40370.1 37432.1 lineto
40332.6 37282.1 lineto
40295.1 37207.1 lineto
40220.2 37132.1 lineto
40107.7 37094.6 lineto
39920.2 37094.6 lineto
stroke
newpath
40707.6 37094.6 moveto
40707.6 37619.5 lineto
stroke
newpath
40707.6 37469.6 moveto
40745.1 37544.5 lineto
40782.6 37582 lineto
40857.6 37619.5 lineto
40932.6 37619.5 lineto
stroke
newpath
41195 37094.6 moveto
41195 37619.5 lineto
stroke
newpath
41195 37882 moveto
41157.5 37844.5 lineto
41195 37807 lineto
41232.5 37844.5 lineto
41195 37882 lineto
41195 37807 lineto
stroke
newpath
41682.5 37094.6 moveto
41607.5 37132.1 lineto
41570 37207.1 lineto
41570 37882 lineto
stroke
newpath
42094.9 37094.6 moveto
42019.9 37132.1 lineto
41982.4 37207.1 lineto
41982.4 37882 lineto
stroke
newpath
42994.8 37094.6 moveto
42994.8 37882 lineto
43257.3 37319.6 lineto
43519.7 37882 lineto
43519.7 37094.6 lineto
stroke
newpath
44232.2 37094.6 moveto
44232.2 37507 lineto
44194.7 37582 lineto
44119.7 37619.5 lineto
43969.7 37619.5 lineto
43894.7 37582 lineto
stroke
newpath
44232.2 37132.1 moveto
44157.2 37094.6 lineto
43969.7 37094.6 lineto
43894.7 37132.1 lineto
43857.2 37207.1 lineto
43857.2 37282.1 lineto
43894.7 37357.1 lineto
43969.7 37394.6 lineto
44157.2 37394.6 lineto
44232.2 37432.1 lineto
stroke
newpath
44607.1 37619.5 moveto
44607.1 36832.1 lineto
stroke
newpath
44607.1 37582 moveto
44682.1 37619.5 lineto
44832.1 37619.5 lineto
44907.1 37582 lineto
44944.6 37544.5 lineto
44982.1 37469.6 lineto
44982.1 37244.6 lineto
44944.6 37169.6 lineto
44907.1 37132.1 lineto
44832.1 37094.6 lineto
44682.1 37094.6 lineto
44607.1 37132.1 lineto
stroke
newpath
45319.5 37169.6 moveto
45357 37132.1 lineto
45319.5 37094.6 lineto
45282 37132.1 lineto
45319.5 37169.6 lineto
45319.5 37094.6 lineto
stroke
newpath
45319.5 37582 moveto
45357 37544.5 lineto
45319.5 37507 lineto
45282 37544.5 lineto
45319.5 37582 lineto
45319.5 37507 lineto
stroke
47.2441 setlinewidth
newpath
38433.5 36033.5 moveto
38905.9 35561 lineto
stroke
newpath
38905.9 36033.5 moveto
38433.5 35561 lineto
stroke
236.22 setlinewidth
78.7406 setlinewidth
0 0 0 setrgbcolor
0 0 0 setrgbcolor
newpath
40070.2 36228.5 moveto
40145.2 36228.5 lineto
40220.2 36191 lineto
40257.7 36153.5 lineto
40295.1 36078.5 lineto
40332.6 35928.5 lineto
40332.6 35741 lineto
40295.1 35591 lineto
40257.7 35516 lineto
40220.2 35478.5 lineto
40145.2 35441.1 lineto
40070.2 35441.1 lineto
39995.2 35478.5 lineto
39957.7 35516 lineto
39920.2 35591 lineto
39882.7 35741 lineto
39882.7 35928.5 lineto
39920.2 36078.5 lineto
39957.7 36153.5 lineto
39995.2 36191 lineto
40070.2 36228.5 lineto
stroke
newpath
40670.1 35516 moveto
40707.6 35478.5 lineto
40670.1 35441.1 lineto
40632.6 35478.5 lineto
40670.1 35516 lineto
40670.1 35441.1 lineto
stroke
newpath
41382.5 35966 moveto
41382.5 35441.1 lineto
stroke
newpath
41195 36265.9 moveto
41007.6 35703.5 lineto
41495 35703.5 lineto
stroke
newpath
41944.9 36228.5 moveto
42019.9 36228.5 lineto
42094.9 36191 lineto
42132.4 36153.5 lineto
42169.9 36078.5 lineto
42207.4 35928.5 lineto
42207.4 35741 lineto
42169.9 35591 lineto
42132.4 35516 lineto
42094.9 35478.5 lineto
42019.9 35441.1 lineto
41944.9 35441.1 lineto
41870 35478.5 lineto
41832.5 35516 lineto
41795 35591 lineto
41757.5 35741 lineto
41757.5 35928.5 lineto
41795 36078.5 lineto
41832.5 36153.5 lineto
41870 36191 lineto
41944.9 36228.5 lineto
stroke
newpath
42694.8 36228.5 moveto
42769.8 36228.5 lineto
42844.8 36191 lineto
42882.3 36153.5 lineto
42919.8 36078.5 lineto
42957.3 35928.5 lineto
42957.3 35741 lineto
42919.8 35591 lineto
42882.3 35516 lineto
42844.8 35478.5 lineto
42769.8 35441.1 lineto
42694.8 35441.1 lineto
42619.9 35478.5 lineto
42582.4 35516 lineto
42544.9 35591 lineto
42507.4 35741 lineto
42507.4 35928.5 lineto
42544.9 36078.5 lineto
42582.4 36153.5 lineto
42619.9 36191 lineto
42694.8 36228.5 lineto
stroke
newpath
43294.8 35441.1 moveto
43294.8 35966 lineto
stroke
newpath
43294.8 35891 moveto
43332.3 35928.5 lineto
43407.3 35966 lineto
43519.7 35966 lineto
43594.7 35928.5 lineto
43632.2 35853.5 lineto
43632.2 35441.1 lineto
stroke
newpath
43632.2 35853.5 moveto
43669.7 35928.5 lineto
43744.7 35966 lineto
43857.2 35966 lineto
43932.2 35928.5 lineto
43969.7 35853.5 lineto
43969.7 35441.1 lineto
stroke
newpath
44344.6 35441.1 moveto
44344.6 35966 lineto
stroke
newpath
44344.6 35891 moveto
44382.1 35928.5 lineto
44457.1 35966 lineto
44569.6 35966 lineto
44644.6 35928.5 lineto
44682.1 35853.5 lineto
44682.1 35441.1 lineto
stroke
newpath
44682.1 35853.5 moveto
44719.6 35928.5 lineto
44794.6 35966 lineto
44907.1 35966 lineto
44982.1 35928.5 lineto
45019.6 35853.5 lineto
45019.6 35441.1 lineto
stroke
newpath
46556.9 36265.9 moveto
45882 35253.6 lineto
stroke
newpath
47569.2 36228.5 moveto
47644.2 36228.5 lineto
47719.2 36191 lineto
47756.7 36153.5 lineto
47794.2 36078.5 lineto
47831.7 35928.5 lineto
47831.7 35741 lineto
47794.2 35591 lineto
47756.7 35516 lineto
47719.2 35478.5 lineto
47644.2 35441.1 lineto
47569.2 35441.1 lineto
47494.3 35478.5 lineto
47456.8 35516 lineto
47419.3 35591 lineto
47381.8 35741 lineto
47381.8 35928.5 lineto
47419.3 36078.5 lineto
47456.8 36153.5 lineto
47494.3 36191 lineto
47569.2 36228.5 lineto
stroke
newpath
48169.2 35516 moveto
48206.7 35478.5 lineto
48169.2 35441.1 lineto
48131.7 35478.5 lineto
48169.2 35516 lineto
48169.2 35441.1 lineto
stroke
newpath
48694.1 36228.5 moveto
48769.1 36228.5 lineto
48844.1 36191 lineto
48881.6 36153.5 lineto
48919.1 36078.5 lineto
48956.6 35928.5 lineto
48956.6 35741 lineto
48919.1 35591 lineto
48881.6 35516 lineto
48844.1 35478.5 lineto
48769.1 35441.1 lineto
48694.1 35441.1 lineto
48619.1 35478.5 lineto
48581.6 35516 lineto
48544.1 35591 lineto
48506.6 35741 lineto
48506.6 35928.5 lineto
48544.1 36078.5 lineto
48581.6 36153.5 lineto
48619.1 36191 lineto
48694.1 36228.5 lineto
stroke
newpath
49706.5 35441.1 moveto
49256.5 35441.1 lineto
stroke
newpath
49481.5 35441.1 moveto
49481.5 36228.5 lineto
49406.5 36116 lineto
49331.5 36041 lineto
49256.5 36003.5 lineto
stroke
newpath
50418.9 36228.5 moveto
50043.9 36228.5 lineto
50006.4 35853.5 lineto
50043.9 35891 lineto
50118.9 35928.5 lineto
50306.4 35928.5 lineto
50381.4 35891 lineto
50418.9 35853.5 lineto
50456.4 35778.5 lineto
50456.4 35591 lineto
50418.9 35516 lineto
50381.4 35478.5 lineto
50306.4 35441.1 lineto
50118.9 35441.1 lineto
50043.9 35478.5 lineto
50006.4 35516 lineto
stroke
newpath
50718.8 36228.5 moveto
51243.8 36228.5 lineto
50906.3 35441.1 lineto
stroke
newpath
51506.3 36228.5 moveto
51506.3 36078.5 lineto
stroke
newpath
51806.2 36228.5 moveto
51806.2 36078.5 lineto
stroke
newpath
52968.6 35141.1 moveto
52931.1 35178.6 lineto
52856.1 35291.1 lineto
52818.6 35366.1 lineto
52781.1 35478.5 lineto
52743.6 35666 lineto
52743.6 35816 lineto
52781.1 36003.5 lineto
52818.6 36116 lineto
52856.1 36191 lineto
52931.1 36303.4 lineto
52968.6 36340.9 lineto
stroke
newpath
53193.5 36228.5 moveto
53681 36228.5 lineto
53418.5 35928.5 lineto
53531 35928.5 lineto
53606 35891 lineto
53643.5 35853.5 lineto
53681 35778.5 lineto
53681 35591 lineto
53643.5 35516 lineto
53606 35478.5 lineto
53531 35441.1 lineto
53306 35441.1 lineto
53231 35478.5 lineto
53193.5 35516 lineto
stroke
newpath
54618.4 35441.1 moveto
54618.4 36228.5 lineto
stroke
newpath
54955.8 35441.1 moveto
54955.8 35853.5 lineto
54918.3 35928.5 lineto
54843.3 35966 lineto
54730.8 35966 lineto
54655.9 35928.5 lineto
54618.4 35891 lineto
stroke
newpath
55443.3 35441.1 moveto
55368.3 35478.5 lineto
55330.8 35516 lineto
55293.3 35591 lineto
55293.3 35816 lineto
55330.8 35891 lineto
55368.3 35928.5 lineto
55443.3 35966 lineto
55555.7 35966 lineto
55630.7 35928.5 lineto
55668.2 35891 lineto
55705.7 35816 lineto
55705.7 35591 lineto
55668.2 35516 lineto
55630.7 35478.5 lineto
55555.7 35441.1 lineto
55443.3 35441.1 lineto
stroke
newpath
56155.7 35441.1 moveto
56080.7 35478.5 lineto
56043.2 35553.5 lineto
56043.2 36228.5 lineto
stroke
newpath
56755.6 35478.5 moveto
56680.6 35441.1 lineto
56530.6 35441.1 lineto
56455.6 35478.5 lineto
56418.1 35553.5 lineto
56418.1 35853.5 lineto
56455.6 35928.5 lineto
56530.6 35966 lineto
56680.6 35966 lineto
56755.6 35928.5 lineto
56793.1 35853.5 lineto
56793.1 35778.5 lineto
56418.1 35703.5 lineto
stroke
newpath
57093.1 35478.5 moveto
57168 35441.1 lineto
57318 35441.1 lineto
57393 35478.5 lineto
57430.5 35553.5 lineto
57430.5 35591 lineto
57393 35666 lineto
57318 35703.5 lineto
57205.5 35703.5 lineto
57130.6 35741 lineto
57093.1 35816 lineto
57093.1 35853.5 lineto
57130.6 35928.5 lineto
57205.5 35966 lineto
57318 35966 lineto
57393 35928.5 lineto
stroke
newpath
57693 35141.1 moveto
57730.5 35178.6 lineto
57805.5 35291.1 lineto
57843 35366.1 lineto
57880.5 35478.5 lineto
57918 35666 lineto
57918 35816 lineto
57880.5 36003.5 lineto
57843 36116 lineto
57805.5 36191 lineto
57730.5 36303.4 lineto
57693 36340.9 lineto
stroke
76.7717 setlinewidth
38522.1 34757.9 383.858 cir0
236.22 setlinewidth
78.7406 setlinewidth
0 0 0 setrgbcolor
0 0 0 setrgbcolor
newpath
40070.2 35189.1 moveto
40145.2 35189.1 lineto
40220.2 35151.6 lineto
40257.7 35114.1 lineto
40295.1 35039.1 lineto
40332.6 34889.1 lineto
40332.6 34701.6 lineto
40295.1 34551.7 lineto
40257.7 34476.7 lineto
40220.2 34439.2 lineto
40145.2 34401.7 lineto
40070.2 34401.7 lineto
39995.2 34439.2 lineto
39957.7 34476.7 lineto
39920.2 34551.7 lineto
39882.7 34701.6 lineto
39882.7 34889.1 lineto
39920.2 35039.1 lineto
39957.7 35114.1 lineto
39995.2 35151.6 lineto
40070.2 35189.1 lineto
stroke
newpath
40670.1 34476.7 moveto
40707.6 34439.2 lineto
40670.1 34401.7 lineto
40632.6 34439.2 lineto
40670.1 34476.7 lineto
40670.1 34401.7 lineto
stroke
newpath
41382.5 35189.1 moveto
41232.5 35189.1 lineto
41157.5 35151.6 lineto
41120 35114.1 lineto
41045.1 35001.6 lineto
41007.6 34851.6 lineto
41007.6 34551.7 lineto
41045.1 34476.7 lineto
41082.5 34439.2 lineto
41157.5 34401.7 lineto
41307.5 34401.7 lineto
41382.5 34439.2 lineto
41420 34476.7 lineto
41457.5 34551.7 lineto
41457.5 34739.1 lineto
41420 34814.1 lineto
41382.5 34851.6 lineto
41307.5 34889.1 lineto
41157.5 34889.1 lineto
41082.5 34851.6 lineto
41045.1 34814.1 lineto
41007.6 34739.1 lineto
stroke
newpath
42169.9 35189.1 moveto
41795 35189.1 lineto
41757.5 34814.1 lineto
41795 34851.6 lineto
41870 34889.1 lineto
42057.4 34889.1 lineto
42132.4 34851.6 lineto
42169.9 34814.1 lineto
42207.4 34739.1 lineto
42207.4 34551.7 lineto
42169.9 34476.7 lineto
42132.4 34439.2 lineto
42057.4 34401.7 lineto
41870 34401.7 lineto
41795 34439.2 lineto
41757.5 34476.7 lineto
stroke
newpath
42694.8 35189.1 moveto
42769.8 35189.1 lineto
42844.8 35151.6 lineto
42882.3 35114.1 lineto
42919.8 35039.1 lineto
42957.3 34889.1 lineto
42957.3 34701.6 lineto
42919.8 34551.7 lineto
42882.3 34476.7 lineto
42844.8 34439.2 lineto
42769.8 34401.7 lineto
42694.8 34401.7 lineto
42619.9 34439.2 lineto
42582.4 34476.7 lineto
42544.9 34551.7 lineto
42507.4 34701.6 lineto
42507.4 34889.1 lineto
42544.9 35039.1 lineto
42582.4 35114.1 lineto
42619.9 35151.6 lineto
42694.8 35189.1 lineto
stroke
newpath
43294.8 34401.7 moveto
43294.8 34926.6 lineto
stroke
newpath
43294.8 34851.6 moveto
43332.3 34889.1 lineto
43407.3 34926.6 lineto
43519.7 34926.6 lineto
43594.7 34889.1 lineto
43632.2 34814.1 lineto
43632.2 34401.7 lineto
stroke
newpath
43632.2 34814.1 moveto
43669.7 34889.1 lineto
43744.7 34926.6 lineto
43857.2 34926.6 lineto
43932.2 34889.1 lineto
43969.7 34814.1 lineto
43969.7 34401.7 lineto
stroke
newpath
44344.6 34401.7 moveto
44344.6 34926.6 lineto
stroke
newpath
44344.6 34851.6 moveto
44382.1 34889.1 lineto
44457.1 34926.6 lineto
44569.6 34926.6 lineto
44644.6 34889.1 lineto
44682.1 34814.1 lineto
44682.1 34401.7 lineto
stroke
newpath
44682.1 34814.1 moveto
44719.6 34889.1 lineto
44794.6 34926.6 lineto
44907.1 34926.6 lineto
44982.1 34889.1 lineto
45019.6 34814.1 lineto
45019.6 34401.7 lineto
stroke
newpath
46556.9 35226.6 moveto
45882 34214.2 lineto
stroke
newpath
47569.2 35189.1 moveto
47644.2 35189.1 lineto
47719.2 35151.6 lineto
47756.7 35114.1 lineto
47794.2 35039.1 lineto
47831.7 34889.1 lineto
47831.7 34701.6 lineto
47794.2 34551.7 lineto
47756.7 34476.7 lineto
47719.2 34439.2 lineto
47644.2 34401.7 lineto
47569.2 34401.7 lineto
47494.3 34439.2 lineto
47456.8 34476.7 lineto
47419.3 34551.7 lineto
47381.8 34701.6 lineto
47381.8 34889.1 lineto
47419.3 35039.1 lineto
47456.8 35114.1 lineto
47494.3 35151.6 lineto
47569.2 35189.1 lineto
stroke
newpath
48169.2 34476.7 moveto
48206.7 34439.2 lineto
48169.2 34401.7 lineto
48131.7 34439.2 lineto
48169.2 34476.7 lineto
48169.2 34401.7 lineto
stroke
newpath
48694.1 35189.1 moveto
48769.1 35189.1 lineto
48844.1 35151.6 lineto
48881.6 35114.1 lineto
48919.1 35039.1 lineto
48956.6 34889.1 lineto
48956.6 34701.6 lineto
48919.1 34551.7 lineto
48881.6 34476.7 lineto
48844.1 34439.2 lineto
48769.1 34401.7 lineto
48694.1 34401.7 lineto
48619.1 34439.2 lineto
48581.6 34476.7 lineto
48544.1 34551.7 lineto
48506.6 34701.6 lineto
48506.6 34889.1 lineto
48544.1 35039.1 lineto
48581.6 35114.1 lineto
48619.1 35151.6 lineto
48694.1 35189.1 lineto
stroke
newpath
49256.5 35114.1 moveto
49294 35151.6 lineto
49369 35189.1 lineto
49556.5 35189.1 lineto
49631.5 35151.6 lineto
49669 35114.1 lineto
49706.5 35039.1 lineto
49706.5 34964.1 lineto
49669 34851.6 lineto
49219 34401.7 lineto
49706.5 34401.7 lineto
stroke
newpath
50418.9 35189.1 moveto
50043.9 35189.1 lineto
50006.4 34814.1 lineto
50043.9 34851.6 lineto
50118.9 34889.1 lineto
50306.4 34889.1 lineto
50381.4 34851.6 lineto
50418.9 34814.1 lineto
50456.4 34739.1 lineto
50456.4 34551.7 lineto
50418.9 34476.7 lineto
50381.4 34439.2 lineto
50306.4 34401.7 lineto
50118.9 34401.7 lineto
50043.9 34439.2 lineto
50006.4 34476.7 lineto
stroke
newpath
51131.3 35189.1 moveto
50981.3 35189.1 lineto
50906.3 35151.6 lineto
50868.8 35114.1 lineto
50793.8 35001.6 lineto
50756.3 34851.6 lineto
50756.3 34551.7 lineto
50793.8 34476.7 lineto
50831.3 34439.2 lineto
50906.3 34401.7 lineto
51056.3 34401.7 lineto
51131.3 34439.2 lineto
51168.8 34476.7 lineto
51206.3 34551.7 lineto
51206.3 34739.1 lineto
51168.8 34814.1 lineto
51131.3 34851.6 lineto
51056.3 34889.1 lineto
50906.3 34889.1 lineto
50831.3 34851.6 lineto
50793.8 34814.1 lineto
50756.3 34739.1 lineto
stroke
newpath
51506.3 35189.1 moveto
51506.3 35039.1 lineto
stroke
newpath
51806.2 35189.1 moveto
51806.2 35039.1 lineto
stroke
newpath
52968.6 34101.7 moveto
52931.1 34139.2 lineto
52856.1 34251.7 lineto
52818.6 34326.7 lineto
52781.1 34439.2 lineto
52743.6 34626.7 lineto
52743.6 34776.6 lineto
52781.1 34964.1 lineto
52818.6 35076.6 lineto
52856.1 35151.6 lineto
52931.1 35264.1 lineto
52968.6 35301.6 lineto
stroke
newpath
53681 34401.7 moveto
53231 34401.7 lineto
stroke
newpath
53456 34401.7 moveto
53456 35189.1 lineto
53381 35076.6 lineto
53306 35001.6 lineto
53231 34964.1 lineto
stroke
newpath
54355.9 35189.1 moveto
54205.9 35189.1 lineto
54130.9 35151.6 lineto
54093.4 35114.1 lineto
54018.4 35001.6 lineto
53980.9 34851.6 lineto
53980.9 34551.7 lineto
54018.4 34476.7 lineto
54055.9 34439.2 lineto
54130.9 34401.7 lineto
54280.9 34401.7 lineto
54355.9 34439.2 lineto
54393.4 34476.7 lineto
54430.9 34551.7 lineto
54430.9 34739.1 lineto
54393.4 34814.1 lineto
54355.9 34851.6 lineto
54280.9 34889.1 lineto
54130.9 34889.1 lineto
54055.9 34851.6 lineto
54018.4 34814.1 lineto
53980.9 34739.1 lineto
stroke
newpath
55368.3 34401.7 moveto
55368.3 35189.1 lineto
stroke
newpath
55705.7 34401.7 moveto
55705.7 34814.1 lineto
55668.2 34889.1 lineto
55593.2 34926.6 lineto
55480.8 34926.6 lineto
55405.8 34889.1 lineto
55368.3 34851.6 lineto
stroke
newpath
56193.2 34401.7 moveto
56118.2 34439.2 lineto
56080.7 34476.7 lineto
56043.2 34551.7 lineto
56043.2 34776.6 lineto
56080.7 34851.6 lineto
56118.2 34889.1 lineto
56193.2 34926.6 lineto
56305.7 34926.6 lineto
56380.6 34889.1 lineto
56418.1 34851.6 lineto
56455.6 34776.6 lineto
56455.6 34551.7 lineto
56418.1 34476.7 lineto
56380.6 34439.2 lineto
56305.7 34401.7 lineto
56193.2 34401.7 lineto
stroke
newpath
56905.6 34401.7 moveto
56830.6 34439.2 lineto
56793.1 34514.2 lineto
56793.1 35189.1 lineto
stroke
newpath
57505.5 34439.2 moveto
57430.5 34401.7 lineto
57280.5 34401.7 lineto
57205.5 34439.2 lineto
57168 34514.2 lineto
57168 34814.1 lineto
57205.5 34889.1 lineto
57280.5 34926.6 lineto
57430.5 34926.6 lineto
57505.5 34889.1 lineto
57543 34814.1 lineto
57543 34739.1 lineto
57168 34664.1 lineto
stroke
newpath
57843 34439.2 moveto
57918 34401.7 lineto
58067.9 34401.7 lineto
58142.9 34439.2 lineto
58180.4 34514.2 lineto
58180.4 34551.7 lineto
58142.9 34626.7 lineto
58067.9 34664.1 lineto
57955.4 34664.1 lineto
57880.5 34701.6 lineto
57843 34776.6 lineto
57843 34814.1 lineto
57880.5 34889.1 lineto
57955.4 34926.6 lineto
58067.9 34926.6 lineto
58142.9 34889.1 lineto
stroke
newpath
58442.9 34101.7 moveto
58480.4 34139.2 lineto
58555.4 34251.7 lineto
58592.9 34326.7 lineto
58630.4 34439.2 lineto
58667.9 34626.7 lineto
58667.9 34776.6 lineto
58630.4 34964.1 lineto
58592.9 35076.6 lineto
58555.4 35151.6 lineto
58480.4 35264.1 lineto
58442.9 35301.6 lineto
stroke
78.7394 setlinewidth
newpath
38512.2 33911.4 moveto
38512.2 33124 lineto
stroke
newpath
38118.5 33517.7 moveto
38905.9 33517.7 lineto
stroke
236.22 setlinewidth
78.7406 setlinewidth
0 0 0 setrgbcolor
0 0 0 setrgbcolor
newpath
40332.6 33161.5 moveto
39882.7 33161.5 lineto
stroke
newpath
40107.7 33161.5 moveto
40107.7 33948.9 lineto
40032.7 33836.4 lineto
39957.7 33761.5 lineto
39882.7 33724 lineto
stroke
newpath
40670.1 33236.5 moveto
40707.6 33199 lineto
40670.1 33161.5 lineto
40632.6 33199 lineto
40670.1 33236.5 lineto
40670.1 33161.5 lineto
stroke
newpath
41195 33948.9 moveto
41270 33948.9 lineto
41345 33911.4 lineto
41382.5 33873.9 lineto
41420 33798.9 lineto
41457.5 33649 lineto
41457.5 33461.5 lineto
41420 33311.5 lineto
41382.5 33236.5 lineto
41345 33199 lineto
41270 33161.5 lineto
41195 33161.5 lineto
41120 33199 lineto
41082.5 33236.5 lineto
41045.1 33311.5 lineto
41007.6 33461.5 lineto
41007.6 33649 lineto
41045.1 33798.9 lineto
41082.5 33873.9 lineto
41120 33911.4 lineto
41195 33948.9 lineto
stroke
newpath
41944.9 33948.9 moveto
42019.9 33948.9 lineto
42094.9 33911.4 lineto
42132.4 33873.9 lineto
42169.9 33798.9 lineto
42207.4 33649 lineto
42207.4 33461.5 lineto
42169.9 33311.5 lineto
42132.4 33236.5 lineto
42094.9 33199 lineto
42019.9 33161.5 lineto
41944.9 33161.5 lineto
41870 33199 lineto
41832.5 33236.5 lineto
41795 33311.5 lineto
41757.5 33461.5 lineto
41757.5 33649 lineto
41795 33798.9 lineto
41832.5 33873.9 lineto
41870 33911.4 lineto
41944.9 33948.9 lineto
stroke
newpath
42694.8 33948.9 moveto
42769.8 33948.9 lineto
42844.8 33911.4 lineto
42882.3 33873.9 lineto
42919.8 33798.9 lineto
42957.3 33649 lineto
42957.3 33461.5 lineto
42919.8 33311.5 lineto
42882.3 33236.5 lineto
42844.8 33199 lineto
42769.8 33161.5 lineto
42694.8 33161.5 lineto
42619.9 33199 lineto
42582.4 33236.5 lineto
42544.9 33311.5 lineto
42507.4 33461.5 lineto
42507.4 33649 lineto
42544.9 33798.9 lineto
42582.4 33873.9 lineto
42619.9 33911.4 lineto
42694.8 33948.9 lineto
stroke
newpath
43294.8 33161.5 moveto
43294.8 33686.5 lineto
stroke
newpath
43294.8 33611.5 moveto
43332.3 33649 lineto
43407.3 33686.5 lineto
43519.7 33686.5 lineto
43594.7 33649 lineto
43632.2 33574 lineto
43632.2 33161.5 lineto
stroke
newpath
43632.2 33574 moveto
43669.7 33649 lineto
43744.7 33686.5 lineto
43857.2 33686.5 lineto
43932.2 33649 lineto
43969.7 33574 lineto
43969.7 33161.5 lineto
stroke
newpath
44344.6 33161.5 moveto
44344.6 33686.5 lineto
stroke
newpath
44344.6 33611.5 moveto
44382.1 33649 lineto
44457.1 33686.5 lineto
44569.6 33686.5 lineto
44644.6 33649 lineto
44682.1 33574 lineto
44682.1 33161.5 lineto
stroke
newpath
44682.1 33574 moveto
44719.6 33649 lineto
44794.6 33686.5 lineto
44907.1 33686.5 lineto
44982.1 33649 lineto
45019.6 33574 lineto
45019.6 33161.5 lineto
stroke
newpath
46556.9 33986.4 moveto
45882 32974 lineto
stroke
newpath
47569.2 33948.9 moveto
47644.2 33948.9 lineto
47719.2 33911.4 lineto
47756.7 33873.9 lineto
47794.2 33798.9 lineto
47831.7 33649 lineto
47831.7 33461.5 lineto
47794.2 33311.5 lineto
47756.7 33236.5 lineto
47719.2 33199 lineto
47644.2 33161.5 lineto
47569.2 33161.5 lineto
47494.3 33199 lineto
47456.8 33236.5 lineto
47419.3 33311.5 lineto
47381.8 33461.5 lineto
47381.8 33649 lineto
47419.3 33798.9 lineto
47456.8 33873.9 lineto
47494.3 33911.4 lineto
47569.2 33948.9 lineto
stroke
newpath
48169.2 33236.5 moveto
48206.7 33199 lineto
48169.2 33161.5 lineto
48131.7 33199 lineto
48169.2 33236.5 lineto
48169.2 33161.5 lineto
stroke
newpath
48694.1 33948.9 moveto
48769.1 33948.9 lineto
48844.1 33911.4 lineto
48881.6 33873.9 lineto
48919.1 33798.9 lineto
48956.6 33649 lineto
48956.6 33461.5 lineto
48919.1 33311.5 lineto
48881.6 33236.5 lineto
48844.1 33199 lineto
48769.1 33161.5 lineto
48694.1 33161.5 lineto
48619.1 33199 lineto
48581.6 33236.5 lineto
48544.1 33311.5 lineto
48506.6 33461.5 lineto
48506.6 33649 lineto
48544.1 33798.9 lineto
48581.6 33873.9 lineto
48619.1 33911.4 lineto
48694.1 33948.9 lineto
stroke
newpath
49219 33948.9 moveto
49706.5 33948.9 lineto
49444 33649 lineto
49556.5 33649 lineto
49631.5 33611.5 lineto
49669 33574 lineto
49706.5 33499 lineto
49706.5 33311.5 lineto
49669 33236.5 lineto
49631.5 33199 lineto
49556.5 33161.5 lineto
49331.5 33161.5 lineto
49256.5 33199 lineto
49219 33236.5 lineto
stroke
newpath
50081.4 33161.5 moveto
50231.4 33161.5 lineto
50306.4 33199 lineto
50343.9 33236.5 lineto
50418.9 33349 lineto
50456.4 33499 lineto
50456.4 33798.9 lineto
50418.9 33873.9 lineto
50381.4 33911.4 lineto
50306.4 33948.9 lineto
50156.4 33948.9 lineto
50081.4 33911.4 lineto
50043.9 33873.9 lineto
50006.4 33798.9 lineto
50006.4 33611.5 lineto
50043.9 33536.5 lineto
50081.4 33499 lineto
50156.4 33461.5 lineto
50306.4 33461.5 lineto
50381.4 33499 lineto
50418.9 33536.5 lineto
50456.4 33611.5 lineto
stroke
newpath
51131.3 33686.5 moveto
51131.3 33161.5 lineto
stroke
newpath
50943.8 33986.4 moveto
50756.3 33424 lineto
51243.8 33424 lineto
stroke
newpath
51506.3 33948.9 moveto
51506.3 33798.9 lineto
stroke
newpath
51806.2 33948.9 moveto
51806.2 33798.9 lineto
stroke
newpath
52968.6 32861.6 moveto
52931.1 32899.1 lineto
52856.1 33011.5 lineto
52818.6 33086.5 lineto
52781.1 33199 lineto
52743.6 33386.5 lineto
52743.6 33536.5 lineto
52781.1 33724 lineto
52818.6 33836.4 lineto
52856.1 33911.4 lineto
52931.1 34023.9 lineto
52968.6 34061.4 lineto
stroke
newpath
53681 33161.5 moveto
53231 33161.5 lineto
stroke
newpath
53456 33161.5 moveto
53456 33948.9 lineto
53381 33836.4 lineto
53306 33761.5 lineto
53231 33724 lineto
stroke
newpath
53943.4 33948.9 moveto
54468.4 33948.9 lineto
54130.9 33161.5 lineto
stroke
newpath
55368.3 33161.5 moveto
55368.3 33948.9 lineto
stroke
newpath
55705.7 33161.5 moveto
55705.7 33574 lineto
55668.2 33649 lineto
55593.2 33686.5 lineto
55480.8 33686.5 lineto
55405.8 33649 lineto
55368.3 33611.5 lineto
stroke
newpath
56193.2 33161.5 moveto
56118.2 33199 lineto
56080.7 33236.5 lineto
56043.2 33311.5 lineto
56043.2 33536.5 lineto
56080.7 33611.5 lineto
56118.2 33649 lineto
56193.2 33686.5 lineto
56305.7 33686.5 lineto
56380.6 33649 lineto
56418.1 33611.5 lineto
56455.6 33536.5 lineto
56455.6 33311.5 lineto
56418.1 33236.5 lineto
56380.6 33199 lineto
56305.7 33161.5 lineto
56193.2 33161.5 lineto
stroke
newpath
56905.6 33161.5 moveto
56830.6 33199 lineto
56793.1 33274 lineto
56793.1 33948.9 lineto
stroke
newpath
57505.5 33199 moveto
57430.5 33161.5 lineto
57280.5 33161.5 lineto
57205.5 33199 lineto
57168 33274 lineto
57168 33574 lineto
57205.5 33649 lineto
57280.5 33686.5 lineto
57430.5 33686.5 lineto
57505.5 33649 lineto
57543 33574 lineto
57543 33499 lineto
57168 33424 lineto
stroke
newpath
57843 33199 moveto
57918 33161.5 lineto
58067.9 33161.5 lineto
58142.9 33199 lineto
58180.4 33274 lineto
58180.4 33311.5 lineto
58142.9 33386.5 lineto
58067.9 33424 lineto
57955.4 33424 lineto
57880.5 33461.5 lineto
57843 33536.5 lineto
57843 33574 lineto
57880.5 33649 lineto
57955.4 33686.5 lineto
58067.9 33686.5 lineto
58142.9 33649 lineto
stroke
newpath
58442.9 32861.6 moveto
58480.4 32899.1 lineto
58555.4 33011.5 lineto
58592.9 33086.5 lineto
58630.4 33199 lineto
58667.9 33386.5 lineto
58667.9 33536.5 lineto
58630.4 33724 lineto
58592.9 33836.4 lineto
58555.4 33911.4 lineto
58480.4 34023.9 lineto
58442.9 34061.4 lineto
stroke
showpage
grestore
%%EOF
