%!PS-Adobe-3.0
%%Creator: PCBNEW
%%CreationDate: Mon Apr 26 13:43:38 2021
%%Title: ()
%%Pages: 1
%%PageOrder: Ascend
%%BoundingBox: 0 0 596 842
%%DocumentMedia: A4 595 842 0 () ()
%%Orientation: Landscape
%%EndComments
%%BeginProlog
/line { newpath moveto lineto stroke } bind def
/cir0 { newpath 0 360 arc stroke } bind def
/cir1 { newpath 0 360 arc gsave fill grestore stroke } bind def
/cir2 { newpath 0 360 arc gsave fill grestore stroke } bind def
/arc0 { newpath arc stroke } bind def
/arc1 { newpath 4 index 4 index moveto arc closepath gsave fill
    grestore stroke } bind def
/arc2 { newpath 4 index 4 index moveto arc closepath gsave fill
    grestore stroke } bind def
/poly0 { stroke } bind def
/poly1 { closepath gsave fill grestore stroke } bind def
/poly2 { closepath gsave fill grestore stroke } bind def
/rect0 { rectstroke } bind def
/rect1 { rectfill } bind def
/rect2 { rectfill } bind def
/linemode0 { 0 setlinecap 0 setlinejoin 0 setlinewidth } bind def
/linemode1 { 1 setlinecap 1 setlinejoin } bind def
/dashedline { [200] 100 setdash } bind def
/solidline { [] 0 setdash } bind def
/phantomshow { moveto
    /KicadFont findfont 0.000001 scalefont setfont
    show } bind def
/textshow { gsave
    findfont exch scalefont setfont concat 1 scale 0 0 moveto show
    } bind def
/reencodefont {
  findfont dup length dict begin
  { 1 index /FID ne
    { def }
    { pop pop } ifelse
  } forall
  /Encoding ISOLatin1Encoding def
  currentdict
  end } bind def
/KicadFont /Helvetica reencodefont definefont pop
/KicadFont-Bold /Helvetica-Bold reencodefont definefont pop
/KicadFont-Oblique /Helvetica-Oblique reencodefont definefont pop
/KicadFont-BoldOblique /Helvetica-BoldOblique reencodefont definefont pop
%%EndProlog
%%Page: 1 1
%%BeginPageSetup
gsave
0.0072 0.0072 scale
linemode1
82680 0 translate 90 rotate
236.22 setlinewidth
%%EndPageSetup
0 0 0 setrgbcolor
118.11 setlinewidth
newpath
38965 77376 moveto
77965 77376 lineto
stroke
newpath
77965 77376 moveto
77965 38376 lineto
stroke
newpath
77965 38376 moveto
38965 38376 lineto
stroke
newpath
38965 38376 moveto
38965 77376 lineto
stroke
236.22 setlinewidth
259.843 setlinewidth
newpath
41265.8 75075.2 moveto
43864.2 72476.8 lineto
stroke
newpath
43864.2 75075.2 moveto
41265.8 72476.8 lineto
stroke
newpath
72765.8 43575.2 moveto
75364.2 40976.8 lineto
stroke
newpath
75364.2 43575.2 moveto
72765.8 40976.8 lineto
stroke
236.22 setlinewidth
78.7406 setlinewidth
0 0 0 setrgbcolor
0 0 0 setrgbcolor
newpath
39920.2 37094.6 moveto
39920.2 37882 lineto
40107.7 37882 lineto
40220.2 37844.5 lineto
40295.1 37769.5 lineto
40332.6 37694.5 lineto
40370.1 37544.5 lineto
40370.1 37432.1 lineto
40332.6 37282.1 lineto
40295.1 37207.1 lineto
40220.2 37132.1 lineto
40107.7 37094.6 lineto
39920.2 37094.6 lineto
stroke
newpath
40707.6 37094.6 moveto
40707.6 37619.5 lineto
stroke
newpath
40707.6 37469.6 moveto
40745.1 37544.5 lineto
40782.6 37582 lineto
40857.6 37619.5 lineto
40932.6 37619.5 lineto
stroke
newpath
41195 37094.6 moveto
41195 37619.5 lineto
stroke
newpath
41195 37882 moveto
41157.5 37844.5 lineto
41195 37807 lineto
41232.5 37844.5 lineto
41195 37882 lineto
41195 37807 lineto
stroke
newpath
41682.5 37094.6 moveto
41607.5 37132.1 lineto
41570 37207.1 lineto
41570 37882 lineto
stroke
newpath
42094.9 37094.6 moveto
42019.9 37132.1 lineto
41982.4 37207.1 lineto
41982.4 37882 lineto
stroke
newpath
42994.8 37094.6 moveto
42994.8 37882 lineto
43257.3 37319.6 lineto
43519.7 37882 lineto
43519.7 37094.6 lineto
stroke
newpath
44232.2 37094.6 moveto
44232.2 37507 lineto
44194.7 37582 lineto
44119.7 37619.5 lineto
43969.7 37619.5 lineto
43894.7 37582 lineto
stroke
newpath
44232.2 37132.1 moveto
44157.2 37094.6 lineto
43969.7 37094.6 lineto
43894.7 37132.1 lineto
43857.2 37207.1 lineto
43857.2 37282.1 lineto
43894.7 37357.1 lineto
43969.7 37394.6 lineto
44157.2 37394.6 lineto
44232.2 37432.1 lineto
stroke
newpath
44607.1 37619.5 moveto
44607.1 36832.1 lineto
stroke
newpath
44607.1 37582 moveto
44682.1 37619.5 lineto
44832.1 37619.5 lineto
44907.1 37582 lineto
44944.6 37544.5 lineto
44982.1 37469.6 lineto
44982.1 37244.6 lineto
44944.6 37169.6 lineto
44907.1 37132.1 lineto
44832.1 37094.6 lineto
44682.1 37094.6 lineto
44607.1 37132.1 lineto
stroke
newpath
45319.5 37169.6 moveto
45357 37132.1 lineto
45319.5 37094.6 lineto
45282 37132.1 lineto
45319.5 37169.6 lineto
45319.5 37094.6 lineto
stroke
newpath
45319.5 37582 moveto
45357 37544.5 lineto
45319.5 37507 lineto
45282 37544.5 lineto
45319.5 37582 lineto
45319.5 37507 lineto
stroke
78.7394 setlinewidth
newpath
38118.5 36191 moveto
38905.9 35403.6 lineto
stroke
newpath
38905.9 36191 moveto
38118.5 35403.6 lineto
stroke
236.22 setlinewidth
78.7406 setlinewidth
0 0 0 setrgbcolor
0 0 0 setrgbcolor
newpath
39882.7 36153.5 moveto
39920.2 36191 lineto
39995.2 36228.5 lineto
40182.7 36228.5 lineto
40257.7 36191 lineto
40295.1 36153.5 lineto
40332.6 36078.5 lineto
40332.6 36003.5 lineto
40295.1 35891 lineto
39845.2 35441.1 lineto
40332.6 35441.1 lineto
stroke
newpath
40670.1 35516 moveto
40707.6 35478.5 lineto
40670.1 35441.1 lineto
40632.6 35478.5 lineto
40670.1 35516 lineto
40670.1 35441.1 lineto
stroke
newpath
41007.6 36153.5 moveto
41045.1 36191 lineto
41120 36228.5 lineto
41307.5 36228.5 lineto
41382.5 36191 lineto
41420 36153.5 lineto
41457.5 36078.5 lineto
41457.5 36003.5 lineto
41420 35891 lineto
40970.1 35441.1 lineto
41457.5 35441.1 lineto
stroke
newpath
41944.9 36228.5 moveto
42019.9 36228.5 lineto
42094.9 36191 lineto
42132.4 36153.5 lineto
42169.9 36078.5 lineto
42207.4 35928.5 lineto
42207.4 35741 lineto
42169.9 35591 lineto
42132.4 35516 lineto
42094.9 35478.5 lineto
42019.9 35441.1 lineto
41944.9 35441.1 lineto
41870 35478.5 lineto
41832.5 35516 lineto
41795 35591 lineto
41757.5 35741 lineto
41757.5 35928.5 lineto
41795 36078.5 lineto
41832.5 36153.5 lineto
41870 36191 lineto
41944.9 36228.5 lineto
stroke
newpath
42694.8 36228.5 moveto
42769.8 36228.5 lineto
42844.8 36191 lineto
42882.3 36153.5 lineto
42919.8 36078.5 lineto
42957.3 35928.5 lineto
42957.3 35741 lineto
42919.8 35591 lineto
42882.3 35516 lineto
42844.8 35478.5 lineto
42769.8 35441.1 lineto
42694.8 35441.1 lineto
42619.9 35478.5 lineto
42582.4 35516 lineto
42544.9 35591 lineto
42507.4 35741 lineto
42507.4 35928.5 lineto
42544.9 36078.5 lineto
42582.4 36153.5 lineto
42619.9 36191 lineto
42694.8 36228.5 lineto
stroke
newpath
43294.8 35441.1 moveto
43294.8 35966 lineto
stroke
newpath
43294.8 35891 moveto
43332.3 35928.5 lineto
43407.3 35966 lineto
43519.7 35966 lineto
43594.7 35928.5 lineto
43632.2 35853.5 lineto
43632.2 35441.1 lineto
stroke
newpath
43632.2 35853.5 moveto
43669.7 35928.5 lineto
43744.7 35966 lineto
43857.2 35966 lineto
43932.2 35928.5 lineto
43969.7 35853.5 lineto
43969.7 35441.1 lineto
stroke
newpath
44344.6 35441.1 moveto
44344.6 35966 lineto
stroke
newpath
44344.6 35891 moveto
44382.1 35928.5 lineto
44457.1 35966 lineto
44569.6 35966 lineto
44644.6 35928.5 lineto
44682.1 35853.5 lineto
44682.1 35441.1 lineto
stroke
newpath
44682.1 35853.5 moveto
44719.6 35928.5 lineto
44794.6 35966 lineto
44907.1 35966 lineto
44982.1 35928.5 lineto
45019.6 35853.5 lineto
45019.6 35441.1 lineto
stroke
newpath
46556.9 36265.9 moveto
45882 35253.6 lineto
stroke
newpath
47569.2 36228.5 moveto
47644.2 36228.5 lineto
47719.2 36191 lineto
47756.7 36153.5 lineto
47794.2 36078.5 lineto
47831.7 35928.5 lineto
47831.7 35741 lineto
47794.2 35591 lineto
47756.7 35516 lineto
47719.2 35478.5 lineto
47644.2 35441.1 lineto
47569.2 35441.1 lineto
47494.3 35478.5 lineto
47456.8 35516 lineto
47419.3 35591 lineto
47381.8 35741 lineto
47381.8 35928.5 lineto
47419.3 36078.5 lineto
47456.8 36153.5 lineto
47494.3 36191 lineto
47569.2 36228.5 lineto
stroke
newpath
48169.2 35516 moveto
48206.7 35478.5 lineto
48169.2 35441.1 lineto
48131.7 35478.5 lineto
48169.2 35516 lineto
48169.2 35441.1 lineto
stroke
newpath
48694.1 36228.5 moveto
48769.1 36228.5 lineto
48844.1 36191 lineto
48881.6 36153.5 lineto
48919.1 36078.5 lineto
48956.6 35928.5 lineto
48956.6 35741 lineto
48919.1 35591 lineto
48881.6 35516 lineto
48844.1 35478.5 lineto
48769.1 35441.1 lineto
48694.1 35441.1 lineto
48619.1 35478.5 lineto
48581.6 35516 lineto
48544.1 35591 lineto
48506.6 35741 lineto
48506.6 35928.5 lineto
48544.1 36078.5 lineto
48581.6 36153.5 lineto
48619.1 36191 lineto
48694.1 36228.5 lineto
stroke
newpath
49406.5 35891 moveto
49331.5 35928.5 lineto
49294 35966 lineto
49256.5 36041 lineto
49256.5 36078.5 lineto
49294 36153.5 lineto
49331.5 36191 lineto
49406.5 36228.5 lineto
49556.5 36228.5 lineto
49631.5 36191 lineto
49669 36153.5 lineto
49706.5 36078.5 lineto
49706.5 36041 lineto
49669 35966 lineto
49631.5 35928.5 lineto
49556.5 35891 lineto
49406.5 35891 lineto
49331.5 35853.5 lineto
49294 35816 lineto
49256.5 35741 lineto
49256.5 35591 lineto
49294 35516 lineto
49331.5 35478.5 lineto
49406.5 35441.1 lineto
49556.5 35441.1 lineto
49631.5 35478.5 lineto
49669 35516 lineto
49706.5 35591 lineto
49706.5 35741 lineto
49669 35816 lineto
49631.5 35853.5 lineto
49556.5 35891 lineto
stroke
newpath
50381.4 36228.5 moveto
50231.4 36228.5 lineto
50156.4 36191 lineto
50118.9 36153.5 lineto
50043.9 36041 lineto
50006.4 35891 lineto
50006.4 35591 lineto
50043.9 35516 lineto
50081.4 35478.5 lineto
50156.4 35441.1 lineto
50306.4 35441.1 lineto
50381.4 35478.5 lineto
50418.9 35516 lineto
50456.4 35591 lineto
50456.4 35778.5 lineto
50418.9 35853.5 lineto
50381.4 35891 lineto
50306.4 35928.5 lineto
50156.4 35928.5 lineto
50081.4 35891 lineto
50043.9 35853.5 lineto
50006.4 35778.5 lineto
stroke
newpath
51131.3 36228.5 moveto
50981.3 36228.5 lineto
50906.3 36191 lineto
50868.8 36153.5 lineto
50793.8 36041 lineto
50756.3 35891 lineto
50756.3 35591 lineto
50793.8 35516 lineto
50831.3 35478.5 lineto
50906.3 35441.1 lineto
51056.3 35441.1 lineto
51131.3 35478.5 lineto
51168.8 35516 lineto
51206.3 35591 lineto
51206.3 35778.5 lineto
51168.8 35853.5 lineto
51131.3 35891 lineto
51056.3 35928.5 lineto
50906.3 35928.5 lineto
50831.3 35891 lineto
50793.8 35853.5 lineto
50756.3 35778.5 lineto
stroke
newpath
51506.3 36228.5 moveto
51506.3 36078.5 lineto
stroke
newpath
51806.2 36228.5 moveto
51806.2 36078.5 lineto
stroke
newpath
52968.6 35141.1 moveto
52931.1 35178.6 lineto
52856.1 35291.1 lineto
52818.6 35366.1 lineto
52781.1 35478.5 lineto
52743.6 35666 lineto
52743.6 35816 lineto
52781.1 36003.5 lineto
52818.6 36116 lineto
52856.1 36191 lineto
52931.1 36303.4 lineto
52968.6 36340.9 lineto
stroke
newpath
53231 36153.5 moveto
53268.5 36191 lineto
53343.5 36228.5 lineto
53531 36228.5 lineto
53606 36191 lineto
53643.5 36153.5 lineto
53681 36078.5 lineto
53681 36003.5 lineto
53643.5 35891 lineto
53193.5 35441.1 lineto
53681 35441.1 lineto
stroke
newpath
54618.4 35441.1 moveto
54618.4 36228.5 lineto
stroke
newpath
54955.8 35441.1 moveto
54955.8 35853.5 lineto
54918.3 35928.5 lineto
54843.3 35966 lineto
54730.8 35966 lineto
54655.9 35928.5 lineto
54618.4 35891 lineto
stroke
newpath
55443.3 35441.1 moveto
55368.3 35478.5 lineto
55330.8 35516 lineto
55293.3 35591 lineto
55293.3 35816 lineto
55330.8 35891 lineto
55368.3 35928.5 lineto
55443.3 35966 lineto
55555.7 35966 lineto
55630.7 35928.5 lineto
55668.2 35891 lineto
55705.7 35816 lineto
55705.7 35591 lineto
55668.2 35516 lineto
55630.7 35478.5 lineto
55555.7 35441.1 lineto
55443.3 35441.1 lineto
stroke
newpath
56155.7 35441.1 moveto
56080.7 35478.5 lineto
56043.2 35553.5 lineto
56043.2 36228.5 lineto
stroke
newpath
56755.6 35478.5 moveto
56680.6 35441.1 lineto
56530.6 35441.1 lineto
56455.6 35478.5 lineto
56418.1 35553.5 lineto
56418.1 35853.5 lineto
56455.6 35928.5 lineto
56530.6 35966 lineto
56680.6 35966 lineto
56755.6 35928.5 lineto
56793.1 35853.5 lineto
56793.1 35778.5 lineto
56418.1 35703.5 lineto
stroke
newpath
57093.1 35478.5 moveto
57168 35441.1 lineto
57318 35441.1 lineto
57393 35478.5 lineto
57430.5 35553.5 lineto
57430.5 35591 lineto
57393 35666 lineto
57318 35703.5 lineto
57205.5 35703.5 lineto
57130.6 35741 lineto
57093.1 35816 lineto
57093.1 35853.5 lineto
57130.6 35928.5 lineto
57205.5 35966 lineto
57318 35966 lineto
57393 35928.5 lineto
stroke
newpath
57693 35141.1 moveto
57730.5 35178.6 lineto
57805.5 35291.1 lineto
57843 35366.1 lineto
57880.5 35478.5 lineto
57918 35666 lineto
57918 35816 lineto
57880.5 36003.5 lineto
57843 36116 lineto
57805.5 36191 lineto
57730.5 36303.4 lineto
57693 36340.9 lineto
stroke
newpath
59117.8 35141.1 moveto
59080.3 35178.6 lineto
59005.3 35291.1 lineto
58967.8 35366.1 lineto
58930.3 35478.5 lineto
58892.8 35666 lineto
58892.8 35816 lineto
58930.3 36003.5 lineto
58967.8 36116 lineto
59005.3 36191 lineto
59080.3 36303.4 lineto
59117.8 36340.9 lineto
stroke
newpath
59417.8 35966 moveto
59417.8 35441.1 lineto
stroke
newpath
59417.8 35891 moveto
59455.3 35928.5 lineto
59530.3 35966 lineto
59642.7 35966 lineto
59717.7 35928.5 lineto
59755.2 35853.5 lineto
59755.2 35441.1 lineto
stroke
newpath
60242.7 35441.1 moveto
60167.7 35478.5 lineto
60130.2 35516 lineto
60092.7 35591 lineto
60092.7 35816 lineto
60130.2 35891 lineto
60167.7 35928.5 lineto
60242.7 35966 lineto
60355.1 35966 lineto
60430.1 35928.5 lineto
60467.6 35891 lineto
60505.1 35816 lineto
60505.1 35591 lineto
60467.6 35516 lineto
60430.1 35478.5 lineto
60355.1 35441.1 lineto
60242.7 35441.1 lineto
stroke
newpath
60730.1 35966 moveto
61030.1 35966 lineto
stroke
newpath
60842.6 36228.5 moveto
60842.6 35553.5 lineto
60880.1 35478.5 lineto
60955.1 35441.1 lineto
61030.1 35441.1 lineto
stroke
newpath
61892.5 35966 moveto
61892.5 35178.6 lineto
stroke
newpath
61892.5 35928.5 moveto
61967.4 35966 lineto
62117.4 35966 lineto
62192.4 35928.5 lineto
62229.9 35891 lineto
62267.4 35816 lineto
62267.4 35591 lineto
62229.9 35516 lineto
62192.4 35478.5 lineto
62117.4 35441.1 lineto
61967.4 35441.1 lineto
61892.5 35478.5 lineto
stroke
newpath
62717.4 35441.1 moveto
62642.4 35478.5 lineto
62604.9 35553.5 lineto
62604.9 36228.5 lineto
stroke
newpath
63354.8 35441.1 moveto
63354.8 35853.5 lineto
63317.3 35928.5 lineto
63242.3 35966 lineto
63092.3 35966 lineto
63017.3 35928.5 lineto
stroke
newpath
63354.8 35478.5 moveto
63279.8 35441.1 lineto
63092.3 35441.1 lineto
63017.3 35478.5 lineto
62979.8 35553.5 lineto
62979.8 35628.5 lineto
63017.3 35703.5 lineto
63092.3 35741 lineto
63279.8 35741 lineto
63354.8 35778.5 lineto
stroke
newpath
63617.2 35966 moveto
63917.2 35966 lineto
stroke
newpath
63729.7 36228.5 moveto
63729.7 35553.5 lineto
63767.2 35478.5 lineto
63842.2 35441.1 lineto
63917.2 35441.1 lineto
stroke
newpath
64479.6 35478.5 moveto
64404.6 35441.1 lineto
64254.7 35441.1 lineto
64179.7 35478.5 lineto
64142.2 35553.5 lineto
64142.2 35853.5 lineto
64179.7 35928.5 lineto
64254.7 35966 lineto
64404.6 35966 lineto
64479.6 35928.5 lineto
64517.1 35853.5 lineto
64517.1 35778.5 lineto
64142.2 35703.5 lineto
stroke
newpath
65192 35441.1 moveto
65192 36228.5 lineto
stroke
newpath
65192 35478.5 moveto
65117.1 35441.1 lineto
64967.1 35441.1 lineto
64892.1 35478.5 lineto
64854.6 35516 lineto
64817.1 35591 lineto
64817.1 35816 lineto
64854.6 35891 lineto
64892.1 35928.5 lineto
64967.1 35966 lineto
65117.1 35966 lineto
65192 35928.5 lineto
stroke
newpath
65492 35141.1 moveto
65529.5 35178.6 lineto
65604.5 35291.1 lineto
65642 35366.1 lineto
65679.5 35478.5 lineto
65717 35666 lineto
65717 35816 lineto
65679.5 36003.5 lineto
65642 36116 lineto
65604.5 36191 lineto
65529.5 36303.4 lineto
65492 36340.9 lineto
stroke
showpage
grestore
%%EOF
