EESchema Schematic File Version 4
EELAYER 30 0
EELAYER END
$Descr A4 11693 8268
encoding utf-8
Sheet 1 1
Title "LED array"
Date "2021-03-13"
Rev "1.1"
Comp "hasecilu"
Comment1 "10 red LEDs in a package"
Comment2 ""
Comment3 ""
Comment4 ""
$EndDescr
$Comp
L LED:HLCP-J100_2 BAR1
U 1 1 5D0FDA9F
P 7150 4100
F 0 "BAR1" H 7150 4767 50  0000 C CNN
F 1 "HLCP-J100_2" H 7150 4676 50  0000 C CNN
F 2 "Display:HLCP-J100" H 7150 3300 50  0001 C CNN
F 3 "https://docs.broadcom.com/docs/AV02-1798EN" H 5150 4300 50  0001 C CNN
	1    7150 4100
	1    0    0    -1  
$EndComp
$Comp
L Device:R R1
U 1 1 5D101C39
P 6700 3700
F 0 "R1" V 6493 3700 50  0000 C CNN
F 1 "220" V 6584 3700 50  0000 C CNN
F 2 "Resistor_THT:R_Axial_DIN0207_L6.3mm_D2.5mm_P10.16mm_Horizontal" V 6630 3700 50  0001 C CNN
F 3 "~" H 6700 3700 50  0001 C CNN
	1    6700 3700
	0    1    1    0   
$EndComp
$Comp
L Device:R R2
U 1 1 5D10377D
P 6450 3800
F 0 "R2" V 6243 3800 50  0000 C CNN
F 1 "220" V 6334 3800 50  0000 C CNN
F 2 "Resistor_THT:R_Axial_DIN0207_L6.3mm_D2.5mm_P10.16mm_Horizontal" V 6380 3800 50  0001 C CNN
F 3 "~" H 6450 3800 50  0001 C CNN
	1    6450 3800
	0    1    1    0   
$EndComp
$Comp
L Device:R R3
U 1 1 5D104045
P 6200 3900
F 0 "R3" V 5993 3900 50  0000 C CNN
F 1 "220" V 6084 3900 50  0000 C CNN
F 2 "Resistor_THT:R_Axial_DIN0207_L6.3mm_D2.5mm_P10.16mm_Horizontal" V 6130 3900 50  0001 C CNN
F 3 "~" H 6200 3900 50  0001 C CNN
	1    6200 3900
	0    1    1    0   
$EndComp
$Comp
L Device:R R4
U 1 1 5D10404B
P 5950 4000
F 0 "R4" V 5743 4000 50  0000 C CNN
F 1 "220" V 5834 4000 50  0000 C CNN
F 2 "Resistor_THT:R_Axial_DIN0207_L6.3mm_D2.5mm_P10.16mm_Horizontal" V 5880 4000 50  0001 C CNN
F 3 "~" H 5950 4000 50  0001 C CNN
	1    5950 4000
	0    1    1    0   
$EndComp
$Comp
L Device:R R5
U 1 1 5D104C8D
P 5700 4100
F 0 "R5" V 5493 4100 50  0000 C CNN
F 1 "220" V 5584 4100 50  0000 C CNN
F 2 "Resistor_THT:R_Axial_DIN0207_L6.3mm_D2.5mm_P10.16mm_Horizontal" V 5630 4100 50  0001 C CNN
F 3 "~" H 5700 4100 50  0001 C CNN
	1    5700 4100
	0    1    1    0   
$EndComp
$Comp
L Device:R R6
U 1 1 5D104C93
P 5450 4200
F 0 "R6" V 5243 4200 50  0000 C CNN
F 1 "220" V 5334 4200 50  0000 C CNN
F 2 "Resistor_THT:R_Axial_DIN0207_L6.3mm_D2.5mm_P10.16mm_Horizontal" V 5380 4200 50  0001 C CNN
F 3 "~" H 5450 4200 50  0001 C CNN
	1    5450 4200
	0    1    1    0   
$EndComp
$Comp
L Device:R R7
U 1 1 5D104C99
P 5200 4300
F 0 "R7" V 4993 4300 50  0000 C CNN
F 1 "220" V 5084 4300 50  0000 C CNN
F 2 "Resistor_THT:R_Axial_DIN0207_L6.3mm_D2.5mm_P10.16mm_Horizontal" V 5130 4300 50  0001 C CNN
F 3 "~" H 5200 4300 50  0001 C CNN
	1    5200 4300
	0    1    1    0   
$EndComp
$Comp
L Device:R R8
U 1 1 5D104C9F
P 4950 4400
F 0 "R8" V 4743 4400 50  0000 C CNN
F 1 "220" V 4834 4400 50  0000 C CNN
F 2 "Resistor_THT:R_Axial_DIN0207_L6.3mm_D2.5mm_P10.16mm_Horizontal" V 4880 4400 50  0001 C CNN
F 3 "~" H 4950 4400 50  0001 C CNN
	1    4950 4400
	0    1    1    0   
$EndComp
$Comp
L Device:R R9
U 1 1 5D1058AF
P 4700 4500
F 0 "R9" V 4493 4500 50  0000 C CNN
F 1 "220" V 4584 4500 50  0000 C CNN
F 2 "Resistor_THT:R_Axial_DIN0207_L6.3mm_D2.5mm_P10.16mm_Horizontal" V 4630 4500 50  0001 C CNN
F 3 "~" H 4700 4500 50  0001 C CNN
	1    4700 4500
	0    1    1    0   
$EndComp
$Comp
L Device:R R10
U 1 1 5D1058B5
P 4450 4600
F 0 "R10" V 4243 4600 50  0000 C CNN
F 1 "220" V 4334 4600 50  0000 C CNN
F 2 "Resistor_THT:R_Axial_DIN0207_L6.3mm_D2.5mm_P10.16mm_Horizontal" V 4380 4600 50  0001 C CNN
F 3 "~" H 4450 4600 50  0001 C CNN
	1    4450 4600
	0    1    1    0   
$EndComp
$Comp
L Connector_Generic:Conn_01x11 J1
U 1 1 5D10639B
P 4000 4200
F 0 "J1" H 3918 3475 50  0000 C CNN
F 1 "Conn_01x11" H 3918 3566 50  0000 C CNN
F 2 "Connector_PinHeader_2.54mm:PinHeader_1x11_P2.54mm_Vertical" H 4000 4200 50  0001 C CNN
F 3 "~" H 4000 4200 50  0001 C CNN
	1    4000 4200
	-1   0    0    1   
$EndComp
Wire Wire Line
	4200 3700 6550 3700
Wire Wire Line
	6850 3700 6950 3700
Wire Wire Line
	6950 3800 6600 3800
Wire Wire Line
	6300 3800 4200 3800
Wire Wire Line
	4200 3900 6050 3900
Wire Wire Line
	6350 3900 6950 3900
Wire Wire Line
	6950 4000 6100 4000
Wire Wire Line
	5800 4000 4200 4000
Wire Wire Line
	4200 4100 5550 4100
Wire Wire Line
	5850 4100 6950 4100
Wire Wire Line
	6950 4200 5600 4200
Wire Wire Line
	5300 4200 4200 4200
Wire Wire Line
	4200 4300 5050 4300
Wire Wire Line
	5350 4300 6950 4300
Wire Wire Line
	6950 4400 5100 4400
Wire Wire Line
	4800 4400 4200 4400
Wire Wire Line
	4200 4500 4550 4500
Wire Wire Line
	4850 4500 6950 4500
Wire Wire Line
	6950 4600 4600 4600
Wire Wire Line
	4300 4600 4200 4600
$Comp
L power:GND #PWR02
U 1 1 5D10D3B0
P 4300 4800
F 0 "#PWR02" H 4300 4550 50  0001 C CNN
F 1 "GND" H 4305 4627 50  0000 C CNN
F 2 "" H 4300 4800 50  0001 C CNN
F 3 "" H 4300 4800 50  0001 C CNN
	1    4300 4800
	1    0    0    -1  
$EndComp
$Comp
L power:GND #PWR01
U 1 1 5D10DACE
P 7450 4750
F 0 "#PWR01" H 7450 4500 50  0001 C CNN
F 1 "GND" H 7455 4577 50  0000 C CNN
F 2 "" H 7450 4750 50  0001 C CNN
F 3 "" H 7450 4750 50  0001 C CNN
	1    7450 4750
	1    0    0    -1  
$EndComp
Wire Wire Line
	7350 3700 7450 3700
Wire Wire Line
	7450 3700 7450 3800
Wire Wire Line
	4200 4700 4300 4700
Wire Wire Line
	4300 4700 4300 4800
Wire Wire Line
	7350 3800 7450 3800
Connection ~ 7450 3800
Wire Wire Line
	7350 3900 7450 3900
Wire Wire Line
	7350 4000 7450 4000
Wire Wire Line
	7350 4100 7450 4100
Wire Wire Line
	7350 4200 7450 4200
Wire Wire Line
	7350 4300 7450 4300
Wire Wire Line
	7350 4400 7450 4400
Wire Wire Line
	7350 4500 7450 4500
Wire Wire Line
	7350 4600 7450 4600
Wire Wire Line
	7450 3800 7450 3900
Connection ~ 7450 3900
Wire Wire Line
	7450 3900 7450 4000
Connection ~ 7450 4000
Wire Wire Line
	7450 4000 7450 4100
Connection ~ 7450 4100
Wire Wire Line
	7450 4100 7450 4200
Connection ~ 7450 4200
Wire Wire Line
	7450 4200 7450 4300
Connection ~ 7450 4300
Wire Wire Line
	7450 4300 7450 4400
Connection ~ 7450 4400
Wire Wire Line
	7450 4400 7450 4500
Connection ~ 7450 4600
Wire Wire Line
	7450 4600 7450 4750
Connection ~ 7450 4500
Wire Wire Line
	7450 4500 7450 4600
Text Notes 4800 3250 0    50   ~ 0
Measurements @ 5[V]\nR1k->3.3[V],3.32[mA],10.89[mW]\nR330->3.2[V],9.9[mA],31.03[mW]\nR220->3.17[V],14.3[mA],45.67[mW]
$Comp
L power:PWR_FLAG #FLG0101
U 1 1 604E76F2
P 4675 4800
F 0 "#FLG0101" H 4675 4875 50  0001 C CNN
F 1 "PWR_FLAG" H 4675 4973 50  0000 C CNN
F 2 "" H 4675 4800 50  0001 C CNN
F 3 "~" H 4675 4800 50  0001 C CNN
	1    4675 4800
	-1   0    0    1   
$EndComp
Wire Wire Line
	4675 4800 4675 4700
Wire Wire Line
	4675 4700 4300 4700
Connection ~ 4300 4700
$EndSCHEMATC
