EESchema Schematic File Version 4
EELAYER 30 0
EELAYER END
$Descr A4 11693 8268
encoding utf-8
Sheet 1 1
Title ""
Date ""
Rev ""
Comp ""
Comment1 ""
Comment2 ""
Comment3 ""
Comment4 ""
$EndDescr
$Comp
L Switch:SW_DIP_x08 SW1
U 1 1 5DC7EBB9
P 4950 3450
F 0 "SW1" V 4904 3980 50  0000 L CNN
F 1 "SW_DIP_x08" V 4995 3980 50  0000 L CNN
F 2 "Package_DIP:DIP-16_W7.62mm_LongPads" H 4950 3450 50  0001 C CNN
F 3 "~" H 4950 3450 50  0001 C CNN
	1    4950 3450
	0    1    1    0   
$EndComp
$Comp
L power:+5V #PWR01
U 1 1 5DC7F905
P 5000 3050
F 0 "#PWR01" H 5000 2900 50  0001 C CNN
F 1 "+5V" H 5015 3223 50  0000 C CNN
F 2 "" H 5000 3050 50  0001 C CNN
F 3 "" H 5000 3050 50  0001 C CNN
	1    5000 3050
	1    0    0    -1  
$EndComp
$Comp
L power:GND #PWR02
U 1 1 5DC7FB30
P 5500 5050
F 0 "#PWR02" H 5500 4800 50  0001 C CNN
F 1 "GND" H 5505 4877 50  0000 C CNN
F 2 "" H 5500 5050 50  0001 C CNN
F 3 "" H 5500 5050 50  0001 C CNN
	1    5500 5050
	1    0    0    -1  
$EndComp
$Comp
L Device:R R1
U 1 1 5DC7FC8E
P 4650 4800
F 0 "R1" H 4600 4850 50  0000 L CNN
F 1 "10k" H 4600 4750 50  0000 L CNN
F 2 "Resistor_THT:R_Axial_DIN0207_L6.3mm_D2.5mm_P10.16mm_Horizontal" V 4580 4800 50  0001 C CNN
F 3 "~" H 4650 4800 50  0001 C CNN
	1    4650 4800
	1    0    0    -1  
$EndComp
Wire Wire Line
	4650 3150 4650 3100
Wire Wire Line
	4650 3100 4750 3100
Wire Wire Line
	5000 3100 5000 3050
Wire Wire Line
	5350 3150 5350 3100
Wire Wire Line
	5350 3100 5250 3100
Connection ~ 5000 3100
Wire Wire Line
	4750 3150 4750 3100
Connection ~ 4750 3100
Wire Wire Line
	4750 3100 4850 3100
Wire Wire Line
	4850 3150 4850 3100
Connection ~ 4850 3100
Wire Wire Line
	4850 3100 4950 3100
Wire Wire Line
	4950 3150 4950 3100
Connection ~ 4950 3100
Wire Wire Line
	4950 3100 5000 3100
Wire Wire Line
	5050 3150 5050 3100
Connection ~ 5050 3100
Wire Wire Line
	5050 3100 5000 3100
Wire Wire Line
	5150 3150 5150 3100
Connection ~ 5150 3100
Wire Wire Line
	5150 3100 5050 3100
Wire Wire Line
	5250 3150 5250 3100
Connection ~ 5250 3100
Wire Wire Line
	5250 3100 5150 3100
$Comp
L Connector_Generic:Conn_01x10 J1
U 1 1 5DC852B8
P 5850 4100
F 0 "J1" H 5930 4092 50  0000 L CNN
F 1 "Conn_01x10" H 5930 4001 50  0000 L CNN
F 2 "Connector_PinHeader_2.54mm:PinHeader_1x10_P2.54mm_Vertical" H 5850 4100 50  0001 C CNN
F 3 "~" H 5850 4100 50  0001 C CNN
	1    5850 4100
	1    0    0    -1  
$EndComp
Wire Wire Line
	5350 3750 5350 3800
Wire Wire Line
	5250 3750 5250 3900
Wire Wire Line
	5150 4000 5150 3750
Wire Wire Line
	5050 3750 5050 4100
Wire Wire Line
	4950 4200 4950 3750
Wire Wire Line
	4850 3750 4850 4300
Wire Wire Line
	4750 4400 4750 3750
Wire Wire Line
	5350 3800 5650 3800
Wire Wire Line
	5250 3900 5650 3900
Wire Wire Line
	5150 4000 5650 4000
Wire Wire Line
	5050 4100 5650 4100
Wire Wire Line
	4950 4200 5650 4200
Wire Wire Line
	4850 4300 5650 4300
Wire Wire Line
	4750 4400 5650 4400
Wire Wire Line
	4650 4500 5650 4500
Wire Wire Line
	4650 3750 4650 4500
Wire Wire Line
	4650 4650 4650 4500
Connection ~ 4650 4500
$Comp
L Device:R R2
U 1 1 5DC921DF
P 4750 4800
F 0 "R2" H 4700 4850 50  0000 L CNN
F 1 "10k" H 4700 4750 50  0000 L CNN
F 2 "Resistor_THT:R_Axial_DIN0207_L6.3mm_D2.5mm_P10.16mm_Horizontal" V 4680 4800 50  0001 C CNN
F 3 "~" H 4750 4800 50  0001 C CNN
	1    4750 4800
	1    0    0    -1  
$EndComp
$Comp
L Device:R R3
U 1 1 5DC923C3
P 4850 4800
F 0 "R3" H 4800 4850 50  0000 L CNN
F 1 "10k" H 4800 4750 50  0000 L CNN
F 2 "Resistor_THT:R_Axial_DIN0207_L6.3mm_D2.5mm_P10.16mm_Horizontal" V 4780 4800 50  0001 C CNN
F 3 "~" H 4850 4800 50  0001 C CNN
	1    4850 4800
	1    0    0    -1  
$EndComp
$Comp
L Device:R R4
U 1 1 5DC925EC
P 4950 4800
F 0 "R4" H 4900 4850 50  0000 L CNN
F 1 "10k" H 4900 4750 50  0000 L CNN
F 2 "Resistor_THT:R_Axial_DIN0207_L6.3mm_D2.5mm_P10.16mm_Horizontal" V 4880 4800 50  0001 C CNN
F 3 "~" H 4950 4800 50  0001 C CNN
	1    4950 4800
	1    0    0    -1  
$EndComp
$Comp
L Device:R R5
U 1 1 5DC93E6F
P 5050 4800
F 0 "R5" H 5000 4850 50  0000 L CNN
F 1 "10k" H 5000 4750 50  0000 L CNN
F 2 "Resistor_THT:R_Axial_DIN0207_L6.3mm_D2.5mm_P10.16mm_Horizontal" V 4980 4800 50  0001 C CNN
F 3 "~" H 5050 4800 50  0001 C CNN
	1    5050 4800
	1    0    0    -1  
$EndComp
$Comp
L Device:R R6
U 1 1 5DC93E75
P 5150 4800
F 0 "R6" H 5100 4850 50  0000 L CNN
F 1 "10k" H 5100 4750 50  0000 L CNN
F 2 "Resistor_THT:R_Axial_DIN0207_L6.3mm_D2.5mm_P10.16mm_Horizontal" V 5080 4800 50  0001 C CNN
F 3 "~" H 5150 4800 50  0001 C CNN
	1    5150 4800
	1    0    0    -1  
$EndComp
$Comp
L Device:R R7
U 1 1 5DC93E7B
P 5250 4800
F 0 "R7" H 5200 4850 50  0000 L CNN
F 1 "10k" H 5200 4750 50  0000 L CNN
F 2 "Resistor_THT:R_Axial_DIN0207_L6.3mm_D2.5mm_P10.16mm_Horizontal" V 5180 4800 50  0001 C CNN
F 3 "~" H 5250 4800 50  0001 C CNN
	1    5250 4800
	1    0    0    -1  
$EndComp
$Comp
L Device:R R8
U 1 1 5DC93E81
P 5350 4800
F 0 "R8" H 5300 4850 50  0000 L CNN
F 1 "10k" H 5300 4750 50  0000 L CNN
F 2 "Resistor_THT:R_Axial_DIN0207_L6.3mm_D2.5mm_P10.16mm_Horizontal" V 5280 4800 50  0001 C CNN
F 3 "~" H 5350 4800 50  0001 C CNN
	1    5350 4800
	1    0    0    -1  
$EndComp
Wire Wire Line
	4650 4950 4650 5000
Wire Wire Line
	4650 5000 4750 5000
Wire Wire Line
	5500 5000 5500 5050
Wire Wire Line
	4750 4950 4750 5000
Connection ~ 4750 5000
Wire Wire Line
	4750 5000 4850 5000
Wire Wire Line
	4850 4950 4850 5000
Connection ~ 4850 5000
Wire Wire Line
	4850 5000 4950 5000
Wire Wire Line
	4950 4950 4950 5000
Connection ~ 4950 5000
Wire Wire Line
	4950 5000 5050 5000
Wire Wire Line
	5050 4950 5050 5000
Connection ~ 5050 5000
Wire Wire Line
	5050 5000 5150 5000
Wire Wire Line
	5150 4950 5150 5000
Connection ~ 5150 5000
Wire Wire Line
	5150 5000 5250 5000
Wire Wire Line
	5250 4950 5250 5000
Connection ~ 5250 5000
Wire Wire Line
	5250 5000 5350 5000
Wire Wire Line
	5350 4950 5350 5000
Connection ~ 5350 5000
Wire Wire Line
	5350 5000 5500 5000
Wire Wire Line
	4750 4650 4750 4400
Connection ~ 4750 4400
Wire Wire Line
	4850 4300 4850 4650
Connection ~ 4850 4300
Wire Wire Line
	4950 4650 4950 4200
Connection ~ 4950 4200
Wire Wire Line
	5050 4100 5050 4650
Connection ~ 5050 4100
Wire Wire Line
	5150 4650 5150 4000
Connection ~ 5150 4000
Wire Wire Line
	5250 3900 5250 4650
Connection ~ 5250 3900
Wire Wire Line
	5350 4650 5350 3800
Connection ~ 5350 3800
Wire Wire Line
	5650 4600 5500 4600
Wire Wire Line
	5500 4600 5500 5000
Connection ~ 5500 5000
Wire Wire Line
	5650 3700 5550 3700
Wire Wire Line
	5550 3700 5550 3100
Wire Wire Line
	5550 3100 5350 3100
Connection ~ 5350 3100
$Comp
L power:PWR_FLAG #FLG0101
U 1 1 5DCA88C9
P 4550 3100
F 0 "#FLG0101" H 4550 3175 50  0001 C CNN
F 1 "PWR_FLAG" H 4550 3273 50  0000 C CNN
F 2 "" H 4550 3100 50  0001 C CNN
F 3 "~" H 4550 3100 50  0001 C CNN
	1    4550 3100
	1    0    0    -1  
$EndComp
Wire Wire Line
	4550 3100 4650 3100
Connection ~ 4650 3100
$Comp
L power:PWR_FLAG #FLG0102
U 1 1 5DCA9CE4
P 5850 5050
F 0 "#FLG0102" H 5850 5125 50  0001 C CNN
F 1 "PWR_FLAG" H 5850 5223 50  0000 C CNN
F 2 "" H 5850 5050 50  0001 C CNN
F 3 "~" H 5850 5050 50  0001 C CNN
	1    5850 5050
	-1   0    0    1   
$EndComp
Wire Wire Line
	5850 5050 5850 5000
Wire Wire Line
	5850 5000 5500 5000
$EndSCHEMATC
