G04 #@! TF.GenerationSoftware,KiCad,Pcbnew,5.1.7-a382d34a8~88~ubuntu20.04.1*
G04 #@! TF.CreationDate,2021-03-13T23:58:40-06:00*
G04 #@! TF.ProjectId,LED_SMD_x10_0805,4c45445f-534d-4445-9f78-31305f303830,rev?*
G04 #@! TF.SameCoordinates,Original*
G04 #@! TF.FileFunction,Copper,L1,Top*
G04 #@! TF.FilePolarity,Positive*
%FSLAX46Y46*%
G04 Gerber Fmt 4.6, Leading zero omitted, Abs format (unit mm)*
G04 Created by KiCad (PCBNEW 5.1.7-a382d34a8~88~ubuntu20.04.1) date 2021-03-13 23:58:40*
%MOMM*%
%LPD*%
G01*
G04 APERTURE LIST*
G04 #@! TA.AperFunction,Profile*
%ADD10C,0.050000*%
G04 #@! TD*
G04 #@! TA.AperFunction,ComponentPad*
%ADD11O,1.700000X1.700000*%
G04 #@! TD*
G04 #@! TA.AperFunction,ComponentPad*
%ADD12R,1.700000X1.700000*%
G04 #@! TD*
G04 #@! TA.AperFunction,Conductor*
%ADD13C,0.250000*%
G04 #@! TD*
G04 #@! TA.AperFunction,Conductor*
%ADD14C,0.254000*%
G04 #@! TD*
G04 #@! TA.AperFunction,Conductor*
%ADD15C,0.100000*%
G04 #@! TD*
G04 APERTURE END LIST*
D10*
X119380000Y-83820000D02*
G75*
G02*
X118110000Y-82550000I0J1270000D01*
G01*
X118110000Y-72390000D02*
G75*
G02*
X119380000Y-71120000I1270000J0D01*
G01*
X147320000Y-71120000D02*
G75*
G02*
X148590000Y-72390000I0J-1270000D01*
G01*
X148590000Y-82550000D02*
G75*
G02*
X147320000Y-83820000I-1270000J0D01*
G01*
X147320000Y-83820000D02*
X119380000Y-83820000D01*
X148590000Y-72390000D02*
X148590000Y-82550000D01*
X119380000Y-71120000D02*
X147320000Y-71120000D01*
X118110000Y-82550000D02*
X118110000Y-72390000D01*
G04 #@! TA.AperFunction,SMDPad,CuDef*
G36*
G01*
X143053750Y-78252500D02*
X143966250Y-78252500D01*
G75*
G02*
X144210000Y-78496250I0J-243750D01*
G01*
X144210000Y-78983750D01*
G75*
G02*
X143966250Y-79227500I-243750J0D01*
G01*
X143053750Y-79227500D01*
G75*
G02*
X142810000Y-78983750I0J243750D01*
G01*
X142810000Y-78496250D01*
G75*
G02*
X143053750Y-78252500I243750J0D01*
G01*
G37*
G04 #@! TD.AperFunction*
G04 #@! TA.AperFunction,SMDPad,CuDef*
G36*
G01*
X143053750Y-76377500D02*
X143966250Y-76377500D01*
G75*
G02*
X144210000Y-76621250I0J-243750D01*
G01*
X144210000Y-77108750D01*
G75*
G02*
X143966250Y-77352500I-243750J0D01*
G01*
X143053750Y-77352500D01*
G75*
G02*
X142810000Y-77108750I0J243750D01*
G01*
X142810000Y-76621250D01*
G75*
G02*
X143053750Y-76377500I243750J0D01*
G01*
G37*
G04 #@! TD.AperFunction*
G04 #@! TA.AperFunction,SMDPad,CuDef*
G36*
G01*
X140513750Y-78252500D02*
X141426250Y-78252500D01*
G75*
G02*
X141670000Y-78496250I0J-243750D01*
G01*
X141670000Y-78983750D01*
G75*
G02*
X141426250Y-79227500I-243750J0D01*
G01*
X140513750Y-79227500D01*
G75*
G02*
X140270000Y-78983750I0J243750D01*
G01*
X140270000Y-78496250D01*
G75*
G02*
X140513750Y-78252500I243750J0D01*
G01*
G37*
G04 #@! TD.AperFunction*
G04 #@! TA.AperFunction,SMDPad,CuDef*
G36*
G01*
X140513750Y-76377500D02*
X141426250Y-76377500D01*
G75*
G02*
X141670000Y-76621250I0J-243750D01*
G01*
X141670000Y-77108750D01*
G75*
G02*
X141426250Y-77352500I-243750J0D01*
G01*
X140513750Y-77352500D01*
G75*
G02*
X140270000Y-77108750I0J243750D01*
G01*
X140270000Y-76621250D01*
G75*
G02*
X140513750Y-76377500I243750J0D01*
G01*
G37*
G04 #@! TD.AperFunction*
G04 #@! TA.AperFunction,SMDPad,CuDef*
G36*
G01*
X137973750Y-78252500D02*
X138886250Y-78252500D01*
G75*
G02*
X139130000Y-78496250I0J-243750D01*
G01*
X139130000Y-78983750D01*
G75*
G02*
X138886250Y-79227500I-243750J0D01*
G01*
X137973750Y-79227500D01*
G75*
G02*
X137730000Y-78983750I0J243750D01*
G01*
X137730000Y-78496250D01*
G75*
G02*
X137973750Y-78252500I243750J0D01*
G01*
G37*
G04 #@! TD.AperFunction*
G04 #@! TA.AperFunction,SMDPad,CuDef*
G36*
G01*
X137973750Y-76377500D02*
X138886250Y-76377500D01*
G75*
G02*
X139130000Y-76621250I0J-243750D01*
G01*
X139130000Y-77108750D01*
G75*
G02*
X138886250Y-77352500I-243750J0D01*
G01*
X137973750Y-77352500D01*
G75*
G02*
X137730000Y-77108750I0J243750D01*
G01*
X137730000Y-76621250D01*
G75*
G02*
X137973750Y-76377500I243750J0D01*
G01*
G37*
G04 #@! TD.AperFunction*
G04 #@! TA.AperFunction,SMDPad,CuDef*
G36*
G01*
X135433750Y-78252500D02*
X136346250Y-78252500D01*
G75*
G02*
X136590000Y-78496250I0J-243750D01*
G01*
X136590000Y-78983750D01*
G75*
G02*
X136346250Y-79227500I-243750J0D01*
G01*
X135433750Y-79227500D01*
G75*
G02*
X135190000Y-78983750I0J243750D01*
G01*
X135190000Y-78496250D01*
G75*
G02*
X135433750Y-78252500I243750J0D01*
G01*
G37*
G04 #@! TD.AperFunction*
G04 #@! TA.AperFunction,SMDPad,CuDef*
G36*
G01*
X135433750Y-76377500D02*
X136346250Y-76377500D01*
G75*
G02*
X136590000Y-76621250I0J-243750D01*
G01*
X136590000Y-77108750D01*
G75*
G02*
X136346250Y-77352500I-243750J0D01*
G01*
X135433750Y-77352500D01*
G75*
G02*
X135190000Y-77108750I0J243750D01*
G01*
X135190000Y-76621250D01*
G75*
G02*
X135433750Y-76377500I243750J0D01*
G01*
G37*
G04 #@! TD.AperFunction*
G04 #@! TA.AperFunction,SMDPad,CuDef*
G36*
G01*
X132893750Y-78252500D02*
X133806250Y-78252500D01*
G75*
G02*
X134050000Y-78496250I0J-243750D01*
G01*
X134050000Y-78983750D01*
G75*
G02*
X133806250Y-79227500I-243750J0D01*
G01*
X132893750Y-79227500D01*
G75*
G02*
X132650000Y-78983750I0J243750D01*
G01*
X132650000Y-78496250D01*
G75*
G02*
X132893750Y-78252500I243750J0D01*
G01*
G37*
G04 #@! TD.AperFunction*
G04 #@! TA.AperFunction,SMDPad,CuDef*
G36*
G01*
X132893750Y-76377500D02*
X133806250Y-76377500D01*
G75*
G02*
X134050000Y-76621250I0J-243750D01*
G01*
X134050000Y-77108750D01*
G75*
G02*
X133806250Y-77352500I-243750J0D01*
G01*
X132893750Y-77352500D01*
G75*
G02*
X132650000Y-77108750I0J243750D01*
G01*
X132650000Y-76621250D01*
G75*
G02*
X132893750Y-76377500I243750J0D01*
G01*
G37*
G04 #@! TD.AperFunction*
G04 #@! TA.AperFunction,SMDPad,CuDef*
G36*
G01*
X130353750Y-78252500D02*
X131266250Y-78252500D01*
G75*
G02*
X131510000Y-78496250I0J-243750D01*
G01*
X131510000Y-78983750D01*
G75*
G02*
X131266250Y-79227500I-243750J0D01*
G01*
X130353750Y-79227500D01*
G75*
G02*
X130110000Y-78983750I0J243750D01*
G01*
X130110000Y-78496250D01*
G75*
G02*
X130353750Y-78252500I243750J0D01*
G01*
G37*
G04 #@! TD.AperFunction*
G04 #@! TA.AperFunction,SMDPad,CuDef*
G36*
G01*
X130353750Y-76377500D02*
X131266250Y-76377500D01*
G75*
G02*
X131510000Y-76621250I0J-243750D01*
G01*
X131510000Y-77108750D01*
G75*
G02*
X131266250Y-77352500I-243750J0D01*
G01*
X130353750Y-77352500D01*
G75*
G02*
X130110000Y-77108750I0J243750D01*
G01*
X130110000Y-76621250D01*
G75*
G02*
X130353750Y-76377500I243750J0D01*
G01*
G37*
G04 #@! TD.AperFunction*
G04 #@! TA.AperFunction,SMDPad,CuDef*
G36*
G01*
X127813750Y-78252500D02*
X128726250Y-78252500D01*
G75*
G02*
X128970000Y-78496250I0J-243750D01*
G01*
X128970000Y-78983750D01*
G75*
G02*
X128726250Y-79227500I-243750J0D01*
G01*
X127813750Y-79227500D01*
G75*
G02*
X127570000Y-78983750I0J243750D01*
G01*
X127570000Y-78496250D01*
G75*
G02*
X127813750Y-78252500I243750J0D01*
G01*
G37*
G04 #@! TD.AperFunction*
G04 #@! TA.AperFunction,SMDPad,CuDef*
G36*
G01*
X127813750Y-76377500D02*
X128726250Y-76377500D01*
G75*
G02*
X128970000Y-76621250I0J-243750D01*
G01*
X128970000Y-77108750D01*
G75*
G02*
X128726250Y-77352500I-243750J0D01*
G01*
X127813750Y-77352500D01*
G75*
G02*
X127570000Y-77108750I0J243750D01*
G01*
X127570000Y-76621250D01*
G75*
G02*
X127813750Y-76377500I243750J0D01*
G01*
G37*
G04 #@! TD.AperFunction*
G04 #@! TA.AperFunction,SMDPad,CuDef*
G36*
G01*
X125273750Y-78252500D02*
X126186250Y-78252500D01*
G75*
G02*
X126430000Y-78496250I0J-243750D01*
G01*
X126430000Y-78983750D01*
G75*
G02*
X126186250Y-79227500I-243750J0D01*
G01*
X125273750Y-79227500D01*
G75*
G02*
X125030000Y-78983750I0J243750D01*
G01*
X125030000Y-78496250D01*
G75*
G02*
X125273750Y-78252500I243750J0D01*
G01*
G37*
G04 #@! TD.AperFunction*
G04 #@! TA.AperFunction,SMDPad,CuDef*
G36*
G01*
X125273750Y-76377500D02*
X126186250Y-76377500D01*
G75*
G02*
X126430000Y-76621250I0J-243750D01*
G01*
X126430000Y-77108750D01*
G75*
G02*
X126186250Y-77352500I-243750J0D01*
G01*
X125273750Y-77352500D01*
G75*
G02*
X125030000Y-77108750I0J243750D01*
G01*
X125030000Y-76621250D01*
G75*
G02*
X125273750Y-76377500I243750J0D01*
G01*
G37*
G04 #@! TD.AperFunction*
G04 #@! TA.AperFunction,SMDPad,CuDef*
G36*
G01*
X122733750Y-78252500D02*
X123646250Y-78252500D01*
G75*
G02*
X123890000Y-78496250I0J-243750D01*
G01*
X123890000Y-78983750D01*
G75*
G02*
X123646250Y-79227500I-243750J0D01*
G01*
X122733750Y-79227500D01*
G75*
G02*
X122490000Y-78983750I0J243750D01*
G01*
X122490000Y-78496250D01*
G75*
G02*
X122733750Y-78252500I243750J0D01*
G01*
G37*
G04 #@! TD.AperFunction*
G04 #@! TA.AperFunction,SMDPad,CuDef*
G36*
G01*
X122733750Y-76377500D02*
X123646250Y-76377500D01*
G75*
G02*
X123890000Y-76621250I0J-243750D01*
G01*
X123890000Y-77108750D01*
G75*
G02*
X123646250Y-77352500I-243750J0D01*
G01*
X122733750Y-77352500D01*
G75*
G02*
X122490000Y-77108750I0J243750D01*
G01*
X122490000Y-76621250D01*
G75*
G02*
X122733750Y-76377500I243750J0D01*
G01*
G37*
G04 #@! TD.AperFunction*
G04 #@! TA.AperFunction,SMDPad,CuDef*
G36*
G01*
X120193750Y-78252500D02*
X121106250Y-78252500D01*
G75*
G02*
X121350000Y-78496250I0J-243750D01*
G01*
X121350000Y-78983750D01*
G75*
G02*
X121106250Y-79227500I-243750J0D01*
G01*
X120193750Y-79227500D01*
G75*
G02*
X119950000Y-78983750I0J243750D01*
G01*
X119950000Y-78496250D01*
G75*
G02*
X120193750Y-78252500I243750J0D01*
G01*
G37*
G04 #@! TD.AperFunction*
G04 #@! TA.AperFunction,SMDPad,CuDef*
G36*
G01*
X120193750Y-76377500D02*
X121106250Y-76377500D01*
G75*
G02*
X121350000Y-76621250I0J-243750D01*
G01*
X121350000Y-77108750D01*
G75*
G02*
X121106250Y-77352500I-243750J0D01*
G01*
X120193750Y-77352500D01*
G75*
G02*
X119950000Y-77108750I0J243750D01*
G01*
X119950000Y-76621250D01*
G75*
G02*
X120193750Y-76377500I243750J0D01*
G01*
G37*
G04 #@! TD.AperFunction*
D11*
X120650000Y-81534000D03*
X123190000Y-81534000D03*
X125730000Y-81534000D03*
X128270000Y-81534000D03*
X130810000Y-81534000D03*
X133350000Y-81534000D03*
X135890000Y-81534000D03*
X138430000Y-81534000D03*
X140970000Y-81534000D03*
X143510000Y-81534000D03*
D12*
X146050000Y-81534000D03*
G04 #@! TA.AperFunction,SMDPad,CuDef*
G36*
G01*
X143053750Y-74188500D02*
X143966250Y-74188500D01*
G75*
G02*
X144210000Y-74432250I0J-243750D01*
G01*
X144210000Y-74919750D01*
G75*
G02*
X143966250Y-75163500I-243750J0D01*
G01*
X143053750Y-75163500D01*
G75*
G02*
X142810000Y-74919750I0J243750D01*
G01*
X142810000Y-74432250D01*
G75*
G02*
X143053750Y-74188500I243750J0D01*
G01*
G37*
G04 #@! TD.AperFunction*
G04 #@! TA.AperFunction,SMDPad,CuDef*
G36*
G01*
X143053750Y-72313500D02*
X143966250Y-72313500D01*
G75*
G02*
X144210000Y-72557250I0J-243750D01*
G01*
X144210000Y-73044750D01*
G75*
G02*
X143966250Y-73288500I-243750J0D01*
G01*
X143053750Y-73288500D01*
G75*
G02*
X142810000Y-73044750I0J243750D01*
G01*
X142810000Y-72557250D01*
G75*
G02*
X143053750Y-72313500I243750J0D01*
G01*
G37*
G04 #@! TD.AperFunction*
G04 #@! TA.AperFunction,SMDPad,CuDef*
G36*
G01*
X140513750Y-74188500D02*
X141426250Y-74188500D01*
G75*
G02*
X141670000Y-74432250I0J-243750D01*
G01*
X141670000Y-74919750D01*
G75*
G02*
X141426250Y-75163500I-243750J0D01*
G01*
X140513750Y-75163500D01*
G75*
G02*
X140270000Y-74919750I0J243750D01*
G01*
X140270000Y-74432250D01*
G75*
G02*
X140513750Y-74188500I243750J0D01*
G01*
G37*
G04 #@! TD.AperFunction*
G04 #@! TA.AperFunction,SMDPad,CuDef*
G36*
G01*
X140513750Y-72313500D02*
X141426250Y-72313500D01*
G75*
G02*
X141670000Y-72557250I0J-243750D01*
G01*
X141670000Y-73044750D01*
G75*
G02*
X141426250Y-73288500I-243750J0D01*
G01*
X140513750Y-73288500D01*
G75*
G02*
X140270000Y-73044750I0J243750D01*
G01*
X140270000Y-72557250D01*
G75*
G02*
X140513750Y-72313500I243750J0D01*
G01*
G37*
G04 #@! TD.AperFunction*
G04 #@! TA.AperFunction,SMDPad,CuDef*
G36*
G01*
X137973750Y-74188500D02*
X138886250Y-74188500D01*
G75*
G02*
X139130000Y-74432250I0J-243750D01*
G01*
X139130000Y-74919750D01*
G75*
G02*
X138886250Y-75163500I-243750J0D01*
G01*
X137973750Y-75163500D01*
G75*
G02*
X137730000Y-74919750I0J243750D01*
G01*
X137730000Y-74432250D01*
G75*
G02*
X137973750Y-74188500I243750J0D01*
G01*
G37*
G04 #@! TD.AperFunction*
G04 #@! TA.AperFunction,SMDPad,CuDef*
G36*
G01*
X137973750Y-72313500D02*
X138886250Y-72313500D01*
G75*
G02*
X139130000Y-72557250I0J-243750D01*
G01*
X139130000Y-73044750D01*
G75*
G02*
X138886250Y-73288500I-243750J0D01*
G01*
X137973750Y-73288500D01*
G75*
G02*
X137730000Y-73044750I0J243750D01*
G01*
X137730000Y-72557250D01*
G75*
G02*
X137973750Y-72313500I243750J0D01*
G01*
G37*
G04 #@! TD.AperFunction*
G04 #@! TA.AperFunction,SMDPad,CuDef*
G36*
G01*
X135433750Y-74188500D02*
X136346250Y-74188500D01*
G75*
G02*
X136590000Y-74432250I0J-243750D01*
G01*
X136590000Y-74919750D01*
G75*
G02*
X136346250Y-75163500I-243750J0D01*
G01*
X135433750Y-75163500D01*
G75*
G02*
X135190000Y-74919750I0J243750D01*
G01*
X135190000Y-74432250D01*
G75*
G02*
X135433750Y-74188500I243750J0D01*
G01*
G37*
G04 #@! TD.AperFunction*
G04 #@! TA.AperFunction,SMDPad,CuDef*
G36*
G01*
X135433750Y-72313500D02*
X136346250Y-72313500D01*
G75*
G02*
X136590000Y-72557250I0J-243750D01*
G01*
X136590000Y-73044750D01*
G75*
G02*
X136346250Y-73288500I-243750J0D01*
G01*
X135433750Y-73288500D01*
G75*
G02*
X135190000Y-73044750I0J243750D01*
G01*
X135190000Y-72557250D01*
G75*
G02*
X135433750Y-72313500I243750J0D01*
G01*
G37*
G04 #@! TD.AperFunction*
G04 #@! TA.AperFunction,SMDPad,CuDef*
G36*
G01*
X132893750Y-74188500D02*
X133806250Y-74188500D01*
G75*
G02*
X134050000Y-74432250I0J-243750D01*
G01*
X134050000Y-74919750D01*
G75*
G02*
X133806250Y-75163500I-243750J0D01*
G01*
X132893750Y-75163500D01*
G75*
G02*
X132650000Y-74919750I0J243750D01*
G01*
X132650000Y-74432250D01*
G75*
G02*
X132893750Y-74188500I243750J0D01*
G01*
G37*
G04 #@! TD.AperFunction*
G04 #@! TA.AperFunction,SMDPad,CuDef*
G36*
G01*
X132893750Y-72313500D02*
X133806250Y-72313500D01*
G75*
G02*
X134050000Y-72557250I0J-243750D01*
G01*
X134050000Y-73044750D01*
G75*
G02*
X133806250Y-73288500I-243750J0D01*
G01*
X132893750Y-73288500D01*
G75*
G02*
X132650000Y-73044750I0J243750D01*
G01*
X132650000Y-72557250D01*
G75*
G02*
X132893750Y-72313500I243750J0D01*
G01*
G37*
G04 #@! TD.AperFunction*
G04 #@! TA.AperFunction,SMDPad,CuDef*
G36*
G01*
X130353750Y-74188500D02*
X131266250Y-74188500D01*
G75*
G02*
X131510000Y-74432250I0J-243750D01*
G01*
X131510000Y-74919750D01*
G75*
G02*
X131266250Y-75163500I-243750J0D01*
G01*
X130353750Y-75163500D01*
G75*
G02*
X130110000Y-74919750I0J243750D01*
G01*
X130110000Y-74432250D01*
G75*
G02*
X130353750Y-74188500I243750J0D01*
G01*
G37*
G04 #@! TD.AperFunction*
G04 #@! TA.AperFunction,SMDPad,CuDef*
G36*
G01*
X130353750Y-72313500D02*
X131266250Y-72313500D01*
G75*
G02*
X131510000Y-72557250I0J-243750D01*
G01*
X131510000Y-73044750D01*
G75*
G02*
X131266250Y-73288500I-243750J0D01*
G01*
X130353750Y-73288500D01*
G75*
G02*
X130110000Y-73044750I0J243750D01*
G01*
X130110000Y-72557250D01*
G75*
G02*
X130353750Y-72313500I243750J0D01*
G01*
G37*
G04 #@! TD.AperFunction*
G04 #@! TA.AperFunction,SMDPad,CuDef*
G36*
G01*
X127813750Y-74188500D02*
X128726250Y-74188500D01*
G75*
G02*
X128970000Y-74432250I0J-243750D01*
G01*
X128970000Y-74919750D01*
G75*
G02*
X128726250Y-75163500I-243750J0D01*
G01*
X127813750Y-75163500D01*
G75*
G02*
X127570000Y-74919750I0J243750D01*
G01*
X127570000Y-74432250D01*
G75*
G02*
X127813750Y-74188500I243750J0D01*
G01*
G37*
G04 #@! TD.AperFunction*
G04 #@! TA.AperFunction,SMDPad,CuDef*
G36*
G01*
X127813750Y-72313500D02*
X128726250Y-72313500D01*
G75*
G02*
X128970000Y-72557250I0J-243750D01*
G01*
X128970000Y-73044750D01*
G75*
G02*
X128726250Y-73288500I-243750J0D01*
G01*
X127813750Y-73288500D01*
G75*
G02*
X127570000Y-73044750I0J243750D01*
G01*
X127570000Y-72557250D01*
G75*
G02*
X127813750Y-72313500I243750J0D01*
G01*
G37*
G04 #@! TD.AperFunction*
G04 #@! TA.AperFunction,SMDPad,CuDef*
G36*
G01*
X125273750Y-74188500D02*
X126186250Y-74188500D01*
G75*
G02*
X126430000Y-74432250I0J-243750D01*
G01*
X126430000Y-74919750D01*
G75*
G02*
X126186250Y-75163500I-243750J0D01*
G01*
X125273750Y-75163500D01*
G75*
G02*
X125030000Y-74919750I0J243750D01*
G01*
X125030000Y-74432250D01*
G75*
G02*
X125273750Y-74188500I243750J0D01*
G01*
G37*
G04 #@! TD.AperFunction*
G04 #@! TA.AperFunction,SMDPad,CuDef*
G36*
G01*
X125273750Y-72313500D02*
X126186250Y-72313500D01*
G75*
G02*
X126430000Y-72557250I0J-243750D01*
G01*
X126430000Y-73044750D01*
G75*
G02*
X126186250Y-73288500I-243750J0D01*
G01*
X125273750Y-73288500D01*
G75*
G02*
X125030000Y-73044750I0J243750D01*
G01*
X125030000Y-72557250D01*
G75*
G02*
X125273750Y-72313500I243750J0D01*
G01*
G37*
G04 #@! TD.AperFunction*
G04 #@! TA.AperFunction,SMDPad,CuDef*
G36*
G01*
X122733750Y-74188500D02*
X123646250Y-74188500D01*
G75*
G02*
X123890000Y-74432250I0J-243750D01*
G01*
X123890000Y-74919750D01*
G75*
G02*
X123646250Y-75163500I-243750J0D01*
G01*
X122733750Y-75163500D01*
G75*
G02*
X122490000Y-74919750I0J243750D01*
G01*
X122490000Y-74432250D01*
G75*
G02*
X122733750Y-74188500I243750J0D01*
G01*
G37*
G04 #@! TD.AperFunction*
G04 #@! TA.AperFunction,SMDPad,CuDef*
G36*
G01*
X122733750Y-72313500D02*
X123646250Y-72313500D01*
G75*
G02*
X123890000Y-72557250I0J-243750D01*
G01*
X123890000Y-73044750D01*
G75*
G02*
X123646250Y-73288500I-243750J0D01*
G01*
X122733750Y-73288500D01*
G75*
G02*
X122490000Y-73044750I0J243750D01*
G01*
X122490000Y-72557250D01*
G75*
G02*
X122733750Y-72313500I243750J0D01*
G01*
G37*
G04 #@! TD.AperFunction*
G04 #@! TA.AperFunction,SMDPad,CuDef*
G36*
G01*
X120193750Y-74188500D02*
X121106250Y-74188500D01*
G75*
G02*
X121350000Y-74432250I0J-243750D01*
G01*
X121350000Y-74919750D01*
G75*
G02*
X121106250Y-75163500I-243750J0D01*
G01*
X120193750Y-75163500D01*
G75*
G02*
X119950000Y-74919750I0J243750D01*
G01*
X119950000Y-74432250D01*
G75*
G02*
X120193750Y-74188500I243750J0D01*
G01*
G37*
G04 #@! TD.AperFunction*
G04 #@! TA.AperFunction,SMDPad,CuDef*
G36*
G01*
X120193750Y-72313500D02*
X121106250Y-72313500D01*
G75*
G02*
X121350000Y-72557250I0J-243750D01*
G01*
X121350000Y-73044750D01*
G75*
G02*
X121106250Y-73288500I-243750J0D01*
G01*
X120193750Y-73288500D01*
G75*
G02*
X119950000Y-73044750I0J243750D01*
G01*
X119950000Y-72557250D01*
G75*
G02*
X120193750Y-72313500I243750J0D01*
G01*
G37*
G04 #@! TD.AperFunction*
D13*
X120650000Y-74676000D02*
X120650000Y-76865000D01*
X120650000Y-72801000D02*
X143510000Y-72801000D01*
X143510000Y-72801000D02*
X144683000Y-72801000D01*
X146050000Y-74168000D02*
X146050000Y-81534000D01*
X144683000Y-72801000D02*
X146050000Y-74168000D01*
X123190000Y-74676000D02*
X123190000Y-76865000D01*
X125730000Y-76865000D02*
X125730000Y-74676000D01*
X128270000Y-74676000D02*
X128270000Y-76865000D01*
X130810000Y-76865000D02*
X130810000Y-74676000D01*
X133350000Y-74676000D02*
X133350000Y-76865000D01*
X135890000Y-76865000D02*
X135890000Y-74676000D01*
X138430000Y-74676000D02*
X138430000Y-76865000D01*
X140970000Y-76865000D02*
X140970000Y-74676000D01*
X143510000Y-74676000D02*
X143510000Y-76865000D01*
X120650000Y-79327500D02*
X120650000Y-81534000D01*
X120650000Y-78740000D02*
X120650000Y-79327500D01*
X123190000Y-79327500D02*
X123190000Y-81534000D01*
X123190000Y-78740000D02*
X123190000Y-79327500D01*
X125730000Y-81534000D02*
X125730000Y-78740000D01*
X128270000Y-79327500D02*
X128270000Y-81534000D01*
X128270000Y-78740000D02*
X128270000Y-79327500D01*
X130810000Y-81534000D02*
X130810000Y-78740000D01*
X133350000Y-78740000D02*
X133350000Y-81534000D01*
X135890000Y-80331919D02*
X135890000Y-78740000D01*
X135890000Y-81534000D02*
X135890000Y-80331919D01*
X138430000Y-78740000D02*
X138430000Y-81534000D01*
X140970000Y-80331919D02*
X140970000Y-78740000D01*
X140970000Y-81534000D02*
X140970000Y-80331919D01*
X143510000Y-78740000D02*
X143510000Y-81534000D01*
D14*
X119595506Y-71782963D02*
X119498815Y-71862315D01*
X119419463Y-71959006D01*
X119360498Y-72069320D01*
X119324188Y-72189018D01*
X119311928Y-72313500D01*
X119315000Y-72515250D01*
X119473750Y-72674000D01*
X120523000Y-72674000D01*
X120523000Y-72654000D01*
X120777000Y-72654000D01*
X120777000Y-72674000D01*
X121826250Y-72674000D01*
X121920000Y-72580250D01*
X122013750Y-72674000D01*
X123063000Y-72674000D01*
X123063000Y-72654000D01*
X123317000Y-72654000D01*
X123317000Y-72674000D01*
X124366250Y-72674000D01*
X124460000Y-72580250D01*
X124553750Y-72674000D01*
X125603000Y-72674000D01*
X125603000Y-72654000D01*
X125857000Y-72654000D01*
X125857000Y-72674000D01*
X126906250Y-72674000D01*
X127000000Y-72580250D01*
X127093750Y-72674000D01*
X128143000Y-72674000D01*
X128143000Y-72654000D01*
X128397000Y-72654000D01*
X128397000Y-72674000D01*
X129446250Y-72674000D01*
X129540000Y-72580250D01*
X129633750Y-72674000D01*
X130683000Y-72674000D01*
X130683000Y-72654000D01*
X130937000Y-72654000D01*
X130937000Y-72674000D01*
X131986250Y-72674000D01*
X132080000Y-72580250D01*
X132173750Y-72674000D01*
X133223000Y-72674000D01*
X133223000Y-72654000D01*
X133477000Y-72654000D01*
X133477000Y-72674000D01*
X134526250Y-72674000D01*
X134620000Y-72580250D01*
X134713750Y-72674000D01*
X135763000Y-72674000D01*
X135763000Y-72654000D01*
X136017000Y-72654000D01*
X136017000Y-72674000D01*
X137066250Y-72674000D01*
X137160000Y-72580250D01*
X137253750Y-72674000D01*
X138303000Y-72674000D01*
X138303000Y-72654000D01*
X138557000Y-72654000D01*
X138557000Y-72674000D01*
X139606250Y-72674000D01*
X139700000Y-72580250D01*
X139793750Y-72674000D01*
X140843000Y-72674000D01*
X140843000Y-72654000D01*
X141097000Y-72654000D01*
X141097000Y-72674000D01*
X142146250Y-72674000D01*
X142240000Y-72580250D01*
X142333750Y-72674000D01*
X143383000Y-72674000D01*
X143383000Y-72654000D01*
X143637000Y-72654000D01*
X143637000Y-72674000D01*
X144686250Y-72674000D01*
X144845000Y-72515250D01*
X144848072Y-72313500D01*
X144835812Y-72189018D01*
X144799502Y-72069320D01*
X144740537Y-71959006D01*
X144661185Y-71862315D01*
X144564494Y-71782963D01*
X144558951Y-71780000D01*
X147287721Y-71780000D01*
X147437869Y-71794722D01*
X147551246Y-71828953D01*
X147655819Y-71884555D01*
X147747596Y-71959407D01*
X147823091Y-72050664D01*
X147879419Y-72154844D01*
X147914440Y-72267976D01*
X147930000Y-72416022D01*
X147930001Y-82517711D01*
X147915278Y-82667869D01*
X147881047Y-82781246D01*
X147825446Y-82885817D01*
X147750594Y-82977595D01*
X147659335Y-83053091D01*
X147555160Y-83109419D01*
X147442024Y-83144440D01*
X147293979Y-83160000D01*
X119412279Y-83160000D01*
X119262131Y-83145278D01*
X119148754Y-83111047D01*
X119044183Y-83055446D01*
X118952405Y-82980594D01*
X118876909Y-82889335D01*
X118820581Y-82785160D01*
X118785560Y-82672024D01*
X118770000Y-82523979D01*
X118770000Y-81387740D01*
X119165000Y-81387740D01*
X119165000Y-81680260D01*
X119222068Y-81967158D01*
X119334010Y-82237411D01*
X119496525Y-82480632D01*
X119703368Y-82687475D01*
X119946589Y-82849990D01*
X120216842Y-82961932D01*
X120503740Y-83019000D01*
X120796260Y-83019000D01*
X121083158Y-82961932D01*
X121353411Y-82849990D01*
X121596632Y-82687475D01*
X121803475Y-82480632D01*
X121920000Y-82306240D01*
X122036525Y-82480632D01*
X122243368Y-82687475D01*
X122486589Y-82849990D01*
X122756842Y-82961932D01*
X123043740Y-83019000D01*
X123336260Y-83019000D01*
X123623158Y-82961932D01*
X123893411Y-82849990D01*
X124136632Y-82687475D01*
X124343475Y-82480632D01*
X124460000Y-82306240D01*
X124576525Y-82480632D01*
X124783368Y-82687475D01*
X125026589Y-82849990D01*
X125296842Y-82961932D01*
X125583740Y-83019000D01*
X125876260Y-83019000D01*
X126163158Y-82961932D01*
X126433411Y-82849990D01*
X126676632Y-82687475D01*
X126883475Y-82480632D01*
X127000000Y-82306240D01*
X127116525Y-82480632D01*
X127323368Y-82687475D01*
X127566589Y-82849990D01*
X127836842Y-82961932D01*
X128123740Y-83019000D01*
X128416260Y-83019000D01*
X128703158Y-82961932D01*
X128973411Y-82849990D01*
X129216632Y-82687475D01*
X129423475Y-82480632D01*
X129540000Y-82306240D01*
X129656525Y-82480632D01*
X129863368Y-82687475D01*
X130106589Y-82849990D01*
X130376842Y-82961932D01*
X130663740Y-83019000D01*
X130956260Y-83019000D01*
X131243158Y-82961932D01*
X131513411Y-82849990D01*
X131756632Y-82687475D01*
X131963475Y-82480632D01*
X132080000Y-82306240D01*
X132196525Y-82480632D01*
X132403368Y-82687475D01*
X132646589Y-82849990D01*
X132916842Y-82961932D01*
X133203740Y-83019000D01*
X133496260Y-83019000D01*
X133783158Y-82961932D01*
X134053411Y-82849990D01*
X134296632Y-82687475D01*
X134503475Y-82480632D01*
X134620000Y-82306240D01*
X134736525Y-82480632D01*
X134943368Y-82687475D01*
X135186589Y-82849990D01*
X135456842Y-82961932D01*
X135743740Y-83019000D01*
X136036260Y-83019000D01*
X136323158Y-82961932D01*
X136593411Y-82849990D01*
X136836632Y-82687475D01*
X137043475Y-82480632D01*
X137160000Y-82306240D01*
X137276525Y-82480632D01*
X137483368Y-82687475D01*
X137726589Y-82849990D01*
X137996842Y-82961932D01*
X138283740Y-83019000D01*
X138576260Y-83019000D01*
X138863158Y-82961932D01*
X139133411Y-82849990D01*
X139376632Y-82687475D01*
X139583475Y-82480632D01*
X139700000Y-82306240D01*
X139816525Y-82480632D01*
X140023368Y-82687475D01*
X140266589Y-82849990D01*
X140536842Y-82961932D01*
X140823740Y-83019000D01*
X141116260Y-83019000D01*
X141403158Y-82961932D01*
X141673411Y-82849990D01*
X141916632Y-82687475D01*
X142123475Y-82480632D01*
X142240000Y-82306240D01*
X142356525Y-82480632D01*
X142563368Y-82687475D01*
X142806589Y-82849990D01*
X143076842Y-82961932D01*
X143363740Y-83019000D01*
X143656260Y-83019000D01*
X143943158Y-82961932D01*
X144213411Y-82849990D01*
X144456632Y-82687475D01*
X144588487Y-82555620D01*
X144610498Y-82628180D01*
X144669463Y-82738494D01*
X144748815Y-82835185D01*
X144845506Y-82914537D01*
X144955820Y-82973502D01*
X145075518Y-83009812D01*
X145200000Y-83022072D01*
X145764250Y-83019000D01*
X145923000Y-82860250D01*
X145923000Y-81661000D01*
X146177000Y-81661000D01*
X146177000Y-82860250D01*
X146335750Y-83019000D01*
X146900000Y-83022072D01*
X147024482Y-83009812D01*
X147144180Y-82973502D01*
X147254494Y-82914537D01*
X147351185Y-82835185D01*
X147430537Y-82738494D01*
X147489502Y-82628180D01*
X147525812Y-82508482D01*
X147538072Y-82384000D01*
X147535000Y-81819750D01*
X147376250Y-81661000D01*
X146177000Y-81661000D01*
X145923000Y-81661000D01*
X145903000Y-81661000D01*
X145903000Y-81407000D01*
X145923000Y-81407000D01*
X145923000Y-80207750D01*
X146177000Y-80207750D01*
X146177000Y-81407000D01*
X147376250Y-81407000D01*
X147535000Y-81248250D01*
X147538072Y-80684000D01*
X147525812Y-80559518D01*
X147489502Y-80439820D01*
X147430537Y-80329506D01*
X147351185Y-80232815D01*
X147254494Y-80153463D01*
X147144180Y-80094498D01*
X147024482Y-80058188D01*
X146900000Y-80045928D01*
X146335750Y-80049000D01*
X146177000Y-80207750D01*
X145923000Y-80207750D01*
X145764250Y-80049000D01*
X145200000Y-80045928D01*
X145075518Y-80058188D01*
X144955820Y-80094498D01*
X144845506Y-80153463D01*
X144748815Y-80232815D01*
X144669463Y-80329506D01*
X144610498Y-80439820D01*
X144588487Y-80512380D01*
X144456632Y-80380525D01*
X144270000Y-80255822D01*
X144270000Y-79808673D01*
X144303709Y-79798447D01*
X144456164Y-79716958D01*
X144589792Y-79607292D01*
X144699458Y-79473664D01*
X144780947Y-79321209D01*
X144831128Y-79155785D01*
X144848072Y-78983750D01*
X144848072Y-78496250D01*
X144831128Y-78324215D01*
X144780947Y-78158791D01*
X144699458Y-78006336D01*
X144589792Y-77872708D01*
X144504244Y-77802500D01*
X144589792Y-77732292D01*
X144699458Y-77598664D01*
X144780947Y-77446209D01*
X144831128Y-77280785D01*
X144848072Y-77108750D01*
X144848072Y-76621250D01*
X144831128Y-76449215D01*
X144780947Y-76283791D01*
X144699458Y-76131336D01*
X144589792Y-75997708D01*
X144456164Y-75888042D01*
X144303709Y-75806553D01*
X144270000Y-75796327D01*
X144270000Y-75744673D01*
X144303709Y-75734447D01*
X144456164Y-75652958D01*
X144589792Y-75543292D01*
X144699458Y-75409664D01*
X144780947Y-75257209D01*
X144831128Y-75091785D01*
X144848072Y-74919750D01*
X144848072Y-74432250D01*
X144831128Y-74260215D01*
X144780947Y-74094791D01*
X144699458Y-73942336D01*
X144589792Y-73808708D01*
X144583436Y-73803492D01*
X144661185Y-73739685D01*
X144740537Y-73642994D01*
X144799502Y-73532680D01*
X144835812Y-73412982D01*
X144848072Y-73288500D01*
X144845000Y-73086750D01*
X144686250Y-72928000D01*
X143637000Y-72928000D01*
X143637000Y-72948000D01*
X143383000Y-72948000D01*
X143383000Y-72928000D01*
X142333750Y-72928000D01*
X142240000Y-73021750D01*
X142146250Y-72928000D01*
X141097000Y-72928000D01*
X141097000Y-72948000D01*
X140843000Y-72948000D01*
X140843000Y-72928000D01*
X139793750Y-72928000D01*
X139700000Y-73021750D01*
X139606250Y-72928000D01*
X138557000Y-72928000D01*
X138557000Y-72948000D01*
X138303000Y-72948000D01*
X138303000Y-72928000D01*
X137253750Y-72928000D01*
X137160000Y-73021750D01*
X137066250Y-72928000D01*
X136017000Y-72928000D01*
X136017000Y-72948000D01*
X135763000Y-72948000D01*
X135763000Y-72928000D01*
X134713750Y-72928000D01*
X134620000Y-73021750D01*
X134526250Y-72928000D01*
X133477000Y-72928000D01*
X133477000Y-72948000D01*
X133223000Y-72948000D01*
X133223000Y-72928000D01*
X132173750Y-72928000D01*
X132080000Y-73021750D01*
X131986250Y-72928000D01*
X130937000Y-72928000D01*
X130937000Y-72948000D01*
X130683000Y-72948000D01*
X130683000Y-72928000D01*
X129633750Y-72928000D01*
X129540000Y-73021750D01*
X129446250Y-72928000D01*
X128397000Y-72928000D01*
X128397000Y-72948000D01*
X128143000Y-72948000D01*
X128143000Y-72928000D01*
X127093750Y-72928000D01*
X127000000Y-73021750D01*
X126906250Y-72928000D01*
X125857000Y-72928000D01*
X125857000Y-72948000D01*
X125603000Y-72948000D01*
X125603000Y-72928000D01*
X124553750Y-72928000D01*
X124460000Y-73021750D01*
X124366250Y-72928000D01*
X123317000Y-72928000D01*
X123317000Y-72948000D01*
X123063000Y-72948000D01*
X123063000Y-72928000D01*
X122013750Y-72928000D01*
X121920000Y-73021750D01*
X121826250Y-72928000D01*
X120777000Y-72928000D01*
X120777000Y-72948000D01*
X120523000Y-72948000D01*
X120523000Y-72928000D01*
X119473750Y-72928000D01*
X119315000Y-73086750D01*
X119311928Y-73288500D01*
X119324188Y-73412982D01*
X119360498Y-73532680D01*
X119419463Y-73642994D01*
X119498815Y-73739685D01*
X119576564Y-73803492D01*
X119570208Y-73808708D01*
X119460542Y-73942336D01*
X119379053Y-74094791D01*
X119328872Y-74260215D01*
X119311928Y-74432250D01*
X119311928Y-74919750D01*
X119328872Y-75091785D01*
X119379053Y-75257209D01*
X119460542Y-75409664D01*
X119570208Y-75543292D01*
X119703836Y-75652958D01*
X119856291Y-75734447D01*
X119890000Y-75744673D01*
X119890001Y-75796327D01*
X119856291Y-75806553D01*
X119703836Y-75888042D01*
X119570208Y-75997708D01*
X119460542Y-76131336D01*
X119379053Y-76283791D01*
X119328872Y-76449215D01*
X119311928Y-76621250D01*
X119311928Y-77108750D01*
X119328872Y-77280785D01*
X119379053Y-77446209D01*
X119460542Y-77598664D01*
X119570208Y-77732292D01*
X119655756Y-77802500D01*
X119570208Y-77872708D01*
X119460542Y-78006336D01*
X119379053Y-78158791D01*
X119328872Y-78324215D01*
X119311928Y-78496250D01*
X119311928Y-78983750D01*
X119328872Y-79155785D01*
X119379053Y-79321209D01*
X119460542Y-79473664D01*
X119570208Y-79607292D01*
X119703836Y-79716958D01*
X119856291Y-79798447D01*
X119890000Y-79808673D01*
X119890000Y-80255821D01*
X119703368Y-80380525D01*
X119496525Y-80587368D01*
X119334010Y-80830589D01*
X119222068Y-81100842D01*
X119165000Y-81387740D01*
X118770000Y-81387740D01*
X118770000Y-72422279D01*
X118784722Y-72272131D01*
X118818953Y-72158754D01*
X118874555Y-72054181D01*
X118949407Y-71962404D01*
X119040664Y-71886909D01*
X119144844Y-71830581D01*
X119257976Y-71795560D01*
X119406022Y-71780000D01*
X119601049Y-71780000D01*
X119595506Y-71782963D01*
G04 #@! TA.AperFunction,Conductor*
D15*
G36*
X119595506Y-71782963D02*
G01*
X119498815Y-71862315D01*
X119419463Y-71959006D01*
X119360498Y-72069320D01*
X119324188Y-72189018D01*
X119311928Y-72313500D01*
X119315000Y-72515250D01*
X119473750Y-72674000D01*
X120523000Y-72674000D01*
X120523000Y-72654000D01*
X120777000Y-72654000D01*
X120777000Y-72674000D01*
X121826250Y-72674000D01*
X121920000Y-72580250D01*
X122013750Y-72674000D01*
X123063000Y-72674000D01*
X123063000Y-72654000D01*
X123317000Y-72654000D01*
X123317000Y-72674000D01*
X124366250Y-72674000D01*
X124460000Y-72580250D01*
X124553750Y-72674000D01*
X125603000Y-72674000D01*
X125603000Y-72654000D01*
X125857000Y-72654000D01*
X125857000Y-72674000D01*
X126906250Y-72674000D01*
X127000000Y-72580250D01*
X127093750Y-72674000D01*
X128143000Y-72674000D01*
X128143000Y-72654000D01*
X128397000Y-72654000D01*
X128397000Y-72674000D01*
X129446250Y-72674000D01*
X129540000Y-72580250D01*
X129633750Y-72674000D01*
X130683000Y-72674000D01*
X130683000Y-72654000D01*
X130937000Y-72654000D01*
X130937000Y-72674000D01*
X131986250Y-72674000D01*
X132080000Y-72580250D01*
X132173750Y-72674000D01*
X133223000Y-72674000D01*
X133223000Y-72654000D01*
X133477000Y-72654000D01*
X133477000Y-72674000D01*
X134526250Y-72674000D01*
X134620000Y-72580250D01*
X134713750Y-72674000D01*
X135763000Y-72674000D01*
X135763000Y-72654000D01*
X136017000Y-72654000D01*
X136017000Y-72674000D01*
X137066250Y-72674000D01*
X137160000Y-72580250D01*
X137253750Y-72674000D01*
X138303000Y-72674000D01*
X138303000Y-72654000D01*
X138557000Y-72654000D01*
X138557000Y-72674000D01*
X139606250Y-72674000D01*
X139700000Y-72580250D01*
X139793750Y-72674000D01*
X140843000Y-72674000D01*
X140843000Y-72654000D01*
X141097000Y-72654000D01*
X141097000Y-72674000D01*
X142146250Y-72674000D01*
X142240000Y-72580250D01*
X142333750Y-72674000D01*
X143383000Y-72674000D01*
X143383000Y-72654000D01*
X143637000Y-72654000D01*
X143637000Y-72674000D01*
X144686250Y-72674000D01*
X144845000Y-72515250D01*
X144848072Y-72313500D01*
X144835812Y-72189018D01*
X144799502Y-72069320D01*
X144740537Y-71959006D01*
X144661185Y-71862315D01*
X144564494Y-71782963D01*
X144558951Y-71780000D01*
X147287721Y-71780000D01*
X147437869Y-71794722D01*
X147551246Y-71828953D01*
X147655819Y-71884555D01*
X147747596Y-71959407D01*
X147823091Y-72050664D01*
X147879419Y-72154844D01*
X147914440Y-72267976D01*
X147930000Y-72416022D01*
X147930001Y-82517711D01*
X147915278Y-82667869D01*
X147881047Y-82781246D01*
X147825446Y-82885817D01*
X147750594Y-82977595D01*
X147659335Y-83053091D01*
X147555160Y-83109419D01*
X147442024Y-83144440D01*
X147293979Y-83160000D01*
X119412279Y-83160000D01*
X119262131Y-83145278D01*
X119148754Y-83111047D01*
X119044183Y-83055446D01*
X118952405Y-82980594D01*
X118876909Y-82889335D01*
X118820581Y-82785160D01*
X118785560Y-82672024D01*
X118770000Y-82523979D01*
X118770000Y-81387740D01*
X119165000Y-81387740D01*
X119165000Y-81680260D01*
X119222068Y-81967158D01*
X119334010Y-82237411D01*
X119496525Y-82480632D01*
X119703368Y-82687475D01*
X119946589Y-82849990D01*
X120216842Y-82961932D01*
X120503740Y-83019000D01*
X120796260Y-83019000D01*
X121083158Y-82961932D01*
X121353411Y-82849990D01*
X121596632Y-82687475D01*
X121803475Y-82480632D01*
X121920000Y-82306240D01*
X122036525Y-82480632D01*
X122243368Y-82687475D01*
X122486589Y-82849990D01*
X122756842Y-82961932D01*
X123043740Y-83019000D01*
X123336260Y-83019000D01*
X123623158Y-82961932D01*
X123893411Y-82849990D01*
X124136632Y-82687475D01*
X124343475Y-82480632D01*
X124460000Y-82306240D01*
X124576525Y-82480632D01*
X124783368Y-82687475D01*
X125026589Y-82849990D01*
X125296842Y-82961932D01*
X125583740Y-83019000D01*
X125876260Y-83019000D01*
X126163158Y-82961932D01*
X126433411Y-82849990D01*
X126676632Y-82687475D01*
X126883475Y-82480632D01*
X127000000Y-82306240D01*
X127116525Y-82480632D01*
X127323368Y-82687475D01*
X127566589Y-82849990D01*
X127836842Y-82961932D01*
X128123740Y-83019000D01*
X128416260Y-83019000D01*
X128703158Y-82961932D01*
X128973411Y-82849990D01*
X129216632Y-82687475D01*
X129423475Y-82480632D01*
X129540000Y-82306240D01*
X129656525Y-82480632D01*
X129863368Y-82687475D01*
X130106589Y-82849990D01*
X130376842Y-82961932D01*
X130663740Y-83019000D01*
X130956260Y-83019000D01*
X131243158Y-82961932D01*
X131513411Y-82849990D01*
X131756632Y-82687475D01*
X131963475Y-82480632D01*
X132080000Y-82306240D01*
X132196525Y-82480632D01*
X132403368Y-82687475D01*
X132646589Y-82849990D01*
X132916842Y-82961932D01*
X133203740Y-83019000D01*
X133496260Y-83019000D01*
X133783158Y-82961932D01*
X134053411Y-82849990D01*
X134296632Y-82687475D01*
X134503475Y-82480632D01*
X134620000Y-82306240D01*
X134736525Y-82480632D01*
X134943368Y-82687475D01*
X135186589Y-82849990D01*
X135456842Y-82961932D01*
X135743740Y-83019000D01*
X136036260Y-83019000D01*
X136323158Y-82961932D01*
X136593411Y-82849990D01*
X136836632Y-82687475D01*
X137043475Y-82480632D01*
X137160000Y-82306240D01*
X137276525Y-82480632D01*
X137483368Y-82687475D01*
X137726589Y-82849990D01*
X137996842Y-82961932D01*
X138283740Y-83019000D01*
X138576260Y-83019000D01*
X138863158Y-82961932D01*
X139133411Y-82849990D01*
X139376632Y-82687475D01*
X139583475Y-82480632D01*
X139700000Y-82306240D01*
X139816525Y-82480632D01*
X140023368Y-82687475D01*
X140266589Y-82849990D01*
X140536842Y-82961932D01*
X140823740Y-83019000D01*
X141116260Y-83019000D01*
X141403158Y-82961932D01*
X141673411Y-82849990D01*
X141916632Y-82687475D01*
X142123475Y-82480632D01*
X142240000Y-82306240D01*
X142356525Y-82480632D01*
X142563368Y-82687475D01*
X142806589Y-82849990D01*
X143076842Y-82961932D01*
X143363740Y-83019000D01*
X143656260Y-83019000D01*
X143943158Y-82961932D01*
X144213411Y-82849990D01*
X144456632Y-82687475D01*
X144588487Y-82555620D01*
X144610498Y-82628180D01*
X144669463Y-82738494D01*
X144748815Y-82835185D01*
X144845506Y-82914537D01*
X144955820Y-82973502D01*
X145075518Y-83009812D01*
X145200000Y-83022072D01*
X145764250Y-83019000D01*
X145923000Y-82860250D01*
X145923000Y-81661000D01*
X146177000Y-81661000D01*
X146177000Y-82860250D01*
X146335750Y-83019000D01*
X146900000Y-83022072D01*
X147024482Y-83009812D01*
X147144180Y-82973502D01*
X147254494Y-82914537D01*
X147351185Y-82835185D01*
X147430537Y-82738494D01*
X147489502Y-82628180D01*
X147525812Y-82508482D01*
X147538072Y-82384000D01*
X147535000Y-81819750D01*
X147376250Y-81661000D01*
X146177000Y-81661000D01*
X145923000Y-81661000D01*
X145903000Y-81661000D01*
X145903000Y-81407000D01*
X145923000Y-81407000D01*
X145923000Y-80207750D01*
X146177000Y-80207750D01*
X146177000Y-81407000D01*
X147376250Y-81407000D01*
X147535000Y-81248250D01*
X147538072Y-80684000D01*
X147525812Y-80559518D01*
X147489502Y-80439820D01*
X147430537Y-80329506D01*
X147351185Y-80232815D01*
X147254494Y-80153463D01*
X147144180Y-80094498D01*
X147024482Y-80058188D01*
X146900000Y-80045928D01*
X146335750Y-80049000D01*
X146177000Y-80207750D01*
X145923000Y-80207750D01*
X145764250Y-80049000D01*
X145200000Y-80045928D01*
X145075518Y-80058188D01*
X144955820Y-80094498D01*
X144845506Y-80153463D01*
X144748815Y-80232815D01*
X144669463Y-80329506D01*
X144610498Y-80439820D01*
X144588487Y-80512380D01*
X144456632Y-80380525D01*
X144270000Y-80255822D01*
X144270000Y-79808673D01*
X144303709Y-79798447D01*
X144456164Y-79716958D01*
X144589792Y-79607292D01*
X144699458Y-79473664D01*
X144780947Y-79321209D01*
X144831128Y-79155785D01*
X144848072Y-78983750D01*
X144848072Y-78496250D01*
X144831128Y-78324215D01*
X144780947Y-78158791D01*
X144699458Y-78006336D01*
X144589792Y-77872708D01*
X144504244Y-77802500D01*
X144589792Y-77732292D01*
X144699458Y-77598664D01*
X144780947Y-77446209D01*
X144831128Y-77280785D01*
X144848072Y-77108750D01*
X144848072Y-76621250D01*
X144831128Y-76449215D01*
X144780947Y-76283791D01*
X144699458Y-76131336D01*
X144589792Y-75997708D01*
X144456164Y-75888042D01*
X144303709Y-75806553D01*
X144270000Y-75796327D01*
X144270000Y-75744673D01*
X144303709Y-75734447D01*
X144456164Y-75652958D01*
X144589792Y-75543292D01*
X144699458Y-75409664D01*
X144780947Y-75257209D01*
X144831128Y-75091785D01*
X144848072Y-74919750D01*
X144848072Y-74432250D01*
X144831128Y-74260215D01*
X144780947Y-74094791D01*
X144699458Y-73942336D01*
X144589792Y-73808708D01*
X144583436Y-73803492D01*
X144661185Y-73739685D01*
X144740537Y-73642994D01*
X144799502Y-73532680D01*
X144835812Y-73412982D01*
X144848072Y-73288500D01*
X144845000Y-73086750D01*
X144686250Y-72928000D01*
X143637000Y-72928000D01*
X143637000Y-72948000D01*
X143383000Y-72948000D01*
X143383000Y-72928000D01*
X142333750Y-72928000D01*
X142240000Y-73021750D01*
X142146250Y-72928000D01*
X141097000Y-72928000D01*
X141097000Y-72948000D01*
X140843000Y-72948000D01*
X140843000Y-72928000D01*
X139793750Y-72928000D01*
X139700000Y-73021750D01*
X139606250Y-72928000D01*
X138557000Y-72928000D01*
X138557000Y-72948000D01*
X138303000Y-72948000D01*
X138303000Y-72928000D01*
X137253750Y-72928000D01*
X137160000Y-73021750D01*
X137066250Y-72928000D01*
X136017000Y-72928000D01*
X136017000Y-72948000D01*
X135763000Y-72948000D01*
X135763000Y-72928000D01*
X134713750Y-72928000D01*
X134620000Y-73021750D01*
X134526250Y-72928000D01*
X133477000Y-72928000D01*
X133477000Y-72948000D01*
X133223000Y-72948000D01*
X133223000Y-72928000D01*
X132173750Y-72928000D01*
X132080000Y-73021750D01*
X131986250Y-72928000D01*
X130937000Y-72928000D01*
X130937000Y-72948000D01*
X130683000Y-72948000D01*
X130683000Y-72928000D01*
X129633750Y-72928000D01*
X129540000Y-73021750D01*
X129446250Y-72928000D01*
X128397000Y-72928000D01*
X128397000Y-72948000D01*
X128143000Y-72948000D01*
X128143000Y-72928000D01*
X127093750Y-72928000D01*
X127000000Y-73021750D01*
X126906250Y-72928000D01*
X125857000Y-72928000D01*
X125857000Y-72948000D01*
X125603000Y-72948000D01*
X125603000Y-72928000D01*
X124553750Y-72928000D01*
X124460000Y-73021750D01*
X124366250Y-72928000D01*
X123317000Y-72928000D01*
X123317000Y-72948000D01*
X123063000Y-72948000D01*
X123063000Y-72928000D01*
X122013750Y-72928000D01*
X121920000Y-73021750D01*
X121826250Y-72928000D01*
X120777000Y-72928000D01*
X120777000Y-72948000D01*
X120523000Y-72948000D01*
X120523000Y-72928000D01*
X119473750Y-72928000D01*
X119315000Y-73086750D01*
X119311928Y-73288500D01*
X119324188Y-73412982D01*
X119360498Y-73532680D01*
X119419463Y-73642994D01*
X119498815Y-73739685D01*
X119576564Y-73803492D01*
X119570208Y-73808708D01*
X119460542Y-73942336D01*
X119379053Y-74094791D01*
X119328872Y-74260215D01*
X119311928Y-74432250D01*
X119311928Y-74919750D01*
X119328872Y-75091785D01*
X119379053Y-75257209D01*
X119460542Y-75409664D01*
X119570208Y-75543292D01*
X119703836Y-75652958D01*
X119856291Y-75734447D01*
X119890000Y-75744673D01*
X119890001Y-75796327D01*
X119856291Y-75806553D01*
X119703836Y-75888042D01*
X119570208Y-75997708D01*
X119460542Y-76131336D01*
X119379053Y-76283791D01*
X119328872Y-76449215D01*
X119311928Y-76621250D01*
X119311928Y-77108750D01*
X119328872Y-77280785D01*
X119379053Y-77446209D01*
X119460542Y-77598664D01*
X119570208Y-77732292D01*
X119655756Y-77802500D01*
X119570208Y-77872708D01*
X119460542Y-78006336D01*
X119379053Y-78158791D01*
X119328872Y-78324215D01*
X119311928Y-78496250D01*
X119311928Y-78983750D01*
X119328872Y-79155785D01*
X119379053Y-79321209D01*
X119460542Y-79473664D01*
X119570208Y-79607292D01*
X119703836Y-79716958D01*
X119856291Y-79798447D01*
X119890000Y-79808673D01*
X119890000Y-80255821D01*
X119703368Y-80380525D01*
X119496525Y-80587368D01*
X119334010Y-80830589D01*
X119222068Y-81100842D01*
X119165000Y-81387740D01*
X118770000Y-81387740D01*
X118770000Y-72422279D01*
X118784722Y-72272131D01*
X118818953Y-72158754D01*
X118874555Y-72054181D01*
X118949407Y-71962404D01*
X119040664Y-71886909D01*
X119144844Y-71830581D01*
X119257976Y-71795560D01*
X119406022Y-71780000D01*
X119601049Y-71780000D01*
X119595506Y-71782963D01*
G37*
G04 #@! TD.AperFunction*
M02*
