%!PS-Adobe-3.0
%%Creator: PCBNEW
%%CreationDate: Sat Mar 13 23:58:43 2021
%%Title: /home/uli/Documents/KiCad/Boards/LED/LED_SMD_x10_0805/fab/LED_SMD_x10_0805-NPTH-drl_map.ps
%%Pages: 1
%%PageOrder: Ascend
%%BoundingBox: 0 0 596 842
%%DocumentMedia: A4 595 842 0 () ()
%%Orientation: Landscape
%%EndComments
%%BeginProlog
/line { newpath moveto lineto stroke } bind def
/cir0 { newpath 0 360 arc stroke } bind def
/cir1 { newpath 0 360 arc gsave fill grestore stroke } bind def
/cir2 { newpath 0 360 arc gsave fill grestore stroke } bind def
/arc0 { newpath arc stroke } bind def
/arc1 { newpath 4 index 4 index moveto arc closepath gsave fill
    grestore stroke } bind def
/arc2 { newpath 4 index 4 index moveto arc closepath gsave fill
    grestore stroke } bind def
/poly0 { stroke } bind def
/poly1 { closepath gsave fill grestore stroke } bind def
/poly2 { closepath gsave fill grestore stroke } bind def
/rect0 { rectstroke } bind def
/rect1 { rectfill } bind def
/rect2 { rectfill } bind def
/linemode0 { 0 setlinecap 0 setlinejoin 0 setlinewidth } bind def
/linemode1 { 1 setlinecap 1 setlinejoin } bind def
/dashedline { [200] 100 setdash } bind def
/solidline { [] 0 setdash } bind def
/phantomshow { moveto
    /KicadFont findfont 0.000001 scalefont setfont
    show } bind def
/textshow { gsave
    findfont exch scalefont setfont concat 1 scale 0 0 moveto show
    } bind def
/reencodefont {
  findfont dup length dict begin
  { 1 index /FID ne
    { def }
    { pop pop } ifelse
  } forall
  /Encoding ISOLatin1Encoding def
  currentdict
  end } bind def
/KicadFont /Helvetica reencodefont definefont pop
/KicadFont-Bold /Helvetica-Bold reencodefont definefont pop
/KicadFont-Oblique /Helvetica-Oblique reencodefont definefont pop
/KicadFont-BoldOblique /Helvetica-BoldOblique reencodefont definefont pop
%%EndProlog
%%Page: 1 1
%%BeginPageSetup
gsave
0.0072 0.0072 scale
linemode1
82680 0 translate 90 rotate
150 setlinewidth
%%EndPageSetup
0 0 0 setrgbcolor
59.0551 setlinewidth
41965 51876 1500 180 270 arc0
0 0 0 setrgbcolor
41965 63876 1500 90 180 arc0
0 0 0 setrgbcolor
74965 63876 1500 -0 90 arc0
0 0 0 setrgbcolor
74965 51876 1500 -90 -0 arc0
0 0 0 setrgbcolor
newpath
74965 50376 moveto
41965 50376 lineto
stroke
0 0 0 setrgbcolor
newpath
76465 63876 moveto
76465 51876 lineto
stroke
0 0 0 setrgbcolor
newpath
41965 65376 moveto
74965 65376 lineto
stroke
0 0 0 setrgbcolor
newpath
40465 51876 moveto
40465 63876 lineto
stroke
78.7394 setlinewidth
118.11 setlinewidth
0 0 0 setrgbcolor
0 0 0 setrgbcolor
newpath
41563.1 48513 moveto
41563.1 49694.1 lineto
41844.4 49694.1 lineto
42013.1 49637.8 lineto
42125.6 49525.3 lineto
42181.8 49412.8 lineto
42238.1 49187.9 lineto
42238.1 49019.1 lineto
42181.8 48794.2 lineto
42125.6 48681.7 lineto
42013.1 48569.2 lineto
41844.4 48513 lineto
41563.1 48513 lineto
stroke
newpath
42744.2 48513 moveto
42744.2 49300.4 lineto
stroke
newpath
42744.2 49075.4 moveto
42800.5 49187.9 lineto
42856.7 49244.1 lineto
42969.2 49300.4 lineto
43081.7 49300.4 lineto
stroke
newpath
43475.4 48513 moveto
43475.4 49300.4 lineto
stroke
newpath
43475.4 49694.1 moveto
43419.2 49637.8 lineto
43475.4 49581.6 lineto
43531.6 49637.8 lineto
43475.4 49694.1 lineto
43475.4 49581.6 lineto
stroke
newpath
44206.6 48513 moveto
44094.1 48569.2 lineto
44037.8 48681.7 lineto
44037.8 49694.1 lineto
stroke
newpath
44825.2 48513 moveto
44712.7 48569.2 lineto
44656.5 48681.7 lineto
44656.5 49694.1 lineto
stroke
newpath
46175.1 48513 moveto
46175.1 49694.1 lineto
46568.8 48850.4 lineto
46962.5 49694.1 lineto
46962.5 48513 lineto
stroke
newpath
48031.1 48513 moveto
48031.1 49131.6 lineto
47974.8 49244.1 lineto
47862.4 49300.4 lineto
47637.4 49300.4 lineto
47524.9 49244.1 lineto
stroke
newpath
48031.1 48569.2 moveto
47918.6 48513 lineto
47637.4 48513 lineto
47524.9 48569.2 lineto
47468.7 48681.7 lineto
47468.7 48794.2 lineto
47524.9 48906.7 lineto
47637.4 48962.9 lineto
47918.6 48962.9 lineto
48031.1 49019.1 lineto
stroke
newpath
48593.5 49300.4 moveto
48593.5 48119.2 lineto
stroke
newpath
48593.5 49244.1 moveto
48706 49300.4 lineto
48931 49300.4 lineto
49043.5 49244.1 lineto
49099.7 49187.9 lineto
49155.9 49075.4 lineto
49155.9 48737.9 lineto
49099.7 48625.4 lineto
49043.5 48569.2 lineto
48931 48513 lineto
48706 48513 lineto
48593.5 48569.2 lineto
stroke
newpath
49662.1 48625.4 moveto
49718.4 48569.2 lineto
49662.1 48513 lineto
49605.9 48569.2 lineto
49662.1 48625.4 lineto
49662.1 48513 lineto
stroke
newpath
49662.1 49244.1 moveto
49718.4 49187.9 lineto
49662.1 49131.6 lineto
49605.9 49187.9 lineto
49662.1 49244.1 lineto
49662.1 49131.6 lineto
stroke
showpage
grestore
%%EOF
