%!PS-Adobe-3.0
%%Creator: PCBNEW
%%CreationDate: Sat Mar 13 22:51:31 2021
%%Title: /home/uli/Documents/KiCad/Boards/LED/Display7segx4/fab/Display7segx4-PTH-drl_map.ps
%%Pages: 1
%%PageOrder: Ascend
%%BoundingBox: 0 0 596 842
%%DocumentMedia: A4 595 842 0 () ()
%%Orientation: Landscape
%%EndComments
%%BeginProlog
/line { newpath moveto lineto stroke } bind def
/cir0 { newpath 0 360 arc stroke } bind def
/cir1 { newpath 0 360 arc gsave fill grestore stroke } bind def
/cir2 { newpath 0 360 arc gsave fill grestore stroke } bind def
/arc0 { newpath arc stroke } bind def
/arc1 { newpath 4 index 4 index moveto arc closepath gsave fill
    grestore stroke } bind def
/arc2 { newpath 4 index 4 index moveto arc closepath gsave fill
    grestore stroke } bind def
/poly0 { stroke } bind def
/poly1 { closepath gsave fill grestore stroke } bind def
/poly2 { closepath gsave fill grestore stroke } bind def
/rect0 { rectstroke } bind def
/rect1 { rectfill } bind def
/rect2 { rectfill } bind def
/linemode0 { 0 setlinecap 0 setlinejoin 0 setlinewidth } bind def
/linemode1 { 1 setlinecap 1 setlinejoin } bind def
/dashedline { [200] 100 setdash } bind def
/solidline { [] 0 setdash } bind def
/phantomshow { moveto
    /KicadFont findfont 0.000001 scalefont setfont
    show } bind def
/textshow { gsave
    findfont exch scalefont setfont concat 1 scale 0 0 moveto show
    } bind def
/reencodefont {
  findfont dup length dict begin
  { 1 index /FID ne
    { def }
    { pop pop } ifelse
  } forall
  /Encoding ISOLatin1Encoding def
  currentdict
  end } bind def
/KicadFont /Helvetica reencodefont definefont pop
/KicadFont-Bold /Helvetica-Bold reencodefont definefont pop
/KicadFont-Oblique /Helvetica-Oblique reencodefont definefont pop
/KicadFont-BoldOblique /Helvetica-BoldOblique reencodefont definefont pop
%%EndProlog
%%Page: 1 1
%%BeginPageSetup
gsave
0.0072 0.0072 scale
linemode1
82680 0 translate 90 rotate
150 setlinewidth
%%EndPageSetup
0 0 0 setrgbcolor
59.0551 setlinewidth
87715 44001 1500 -90 -0 arc0
0 0 0 setrgbcolor
29215 44001 1500 180 270 arc0
0 0 0 setrgbcolor
29215 71751 1500 90 180 arc0
0 0 0 setrgbcolor
87715 71751 1500 -0 90 arc0
0 0 0 setrgbcolor
newpath
89215 71751 moveto
89215 44001 lineto
stroke
0 0 0 setrgbcolor
newpath
29215 73251 moveto
87715 73251 lineto
stroke
0 0 0 setrgbcolor
newpath
29215 42501 moveto
87715 42501 lineto
stroke
0 0 0 setrgbcolor
newpath
27715 71751 moveto
27715 44001 lineto
stroke
78.7394 setlinewidth
newpath
43775.2 68258.4 moveto
44247.6 67785.9 lineto
stroke
newpath
44247.6 68258.4 moveto
43775.2 67785.9 lineto
stroke
newpath
55228.8 67448.2 moveto
55701.2 66975.8 lineto
stroke
newpath
55701.2 67448.2 moveto
55228.8 66975.8 lineto
stroke
newpath
56802.7 64257 moveto
57275.2 63784.6 lineto
stroke
newpath
57275.2 64257 moveto
56802.7 63784.6 lineto
stroke
newpath
74135.6 64830.3 moveto
74608.1 64357.9 lineto
stroke
newpath
74608.1 64830.3 moveto
74135.6 64357.9 lineto
stroke
newpath
74156.8 53278.1 moveto
74629.2 52805.6 lineto
stroke
newpath
74629.2 53278.1 moveto
74156.8 52805.6 lineto
stroke
newpath
74179.1 71405.8 moveto
74651.5 70933.3 lineto
stroke
newpath
74651.5 71405.8 moveto
74179.1 70933.3 lineto
stroke
newpath
77728.8 66137.2 moveto
78201.2 65664.8 lineto
stroke
newpath
78201.2 66137.2 moveto
77728.8 65664.8 lineto
stroke
29230.4 46851 295.276 cir0
30060.6 48855.4 295.276 cir0
30060.6 44846.6 295.276 cir0
32065 49685.6 295.276 cir0
32065 44016.4 295.276 cir0
34069.4 48855.4 295.276 cir0
34069.4 44846.6 295.276 cir0
34899.6 46851 295.276 cir0
82030.4 46851 295.276 cir0
82860.6 48855.4 295.276 cir0
82860.6 44846.6 295.276 cir0
84865 49685.6 295.276 cir0
84865 44016.4 295.276 cir0
86869.4 48855.4 295.276 cir0
86869.4 44846.6 295.276 cir0
87699.6 46851 295.276 cir0
newpath
50965 70841.6 moveto
50965 69660.4 lineto
stroke
newpath
50374.4 70251 moveto
51555.6 70251 lineto
stroke
newpath
50965 52841.6 moveto
50965 51660.4 lineto
stroke
newpath
50374.4 52251 moveto
51555.6 52251 lineto
stroke
newpath
53965 70841.6 moveto
53965 69660.4 lineto
stroke
newpath
53374.4 70251 moveto
54555.6 70251 lineto
stroke
newpath
53965 52841.6 moveto
53965 51660.4 lineto
stroke
newpath
53374.4 52251 moveto
54555.6 52251 lineto
stroke
newpath
56965 70841.6 moveto
56965 69660.4 lineto
stroke
newpath
56374.4 70251 moveto
57555.6 70251 lineto
stroke
newpath
56965 52841.6 moveto
56965 51660.4 lineto
stroke
newpath
56374.4 52251 moveto
57555.6 52251 lineto
stroke
newpath
59965 70841.6 moveto
59965 69660.4 lineto
stroke
newpath
59374.4 70251 moveto
60555.6 70251 lineto
stroke
newpath
59965 52841.6 moveto
59965 51660.4 lineto
stroke
newpath
59374.4 52251 moveto
60555.6 52251 lineto
stroke
newpath
62965 70841.6 moveto
62965 69660.4 lineto
stroke
newpath
62374.4 70251 moveto
63555.6 70251 lineto
stroke
newpath
62965 52841.6 moveto
62965 51660.4 lineto
stroke
newpath
62374.4 52251 moveto
63555.6 52251 lineto
stroke
newpath
65965 70841.6 moveto
65965 69660.4 lineto
stroke
newpath
65374.4 70251 moveto
66555.6 70251 lineto
stroke
newpath
65965 52841.6 moveto
65965 51660.4 lineto
stroke
newpath
65374.4 52251 moveto
66555.6 52251 lineto
stroke
newpath
41065 45191.6 moveto
41065 44010.4 lineto
stroke
newpath
40474.4 44601 moveto
41655.6 44601 lineto
stroke
newpath
44065 45191.6 moveto
44065 44010.4 lineto
stroke
newpath
43474.4 44601 moveto
44655.6 44601 lineto
stroke
newpath
47065 45191.6 moveto
47065 44010.4 lineto
stroke
newpath
46474.4 44601 moveto
47655.6 44601 lineto
stroke
newpath
50065 45191.6 moveto
50065 44010.4 lineto
stroke
newpath
49474.4 44601 moveto
50655.6 44601 lineto
stroke
newpath
53065 45191.6 moveto
53065 44010.4 lineto
stroke
newpath
52474.4 44601 moveto
53655.6 44601 lineto
stroke
newpath
56065 45191.6 moveto
56065 44010.4 lineto
stroke
newpath
55474.4 44601 moveto
56655.6 44601 lineto
stroke
newpath
59065 45191.6 moveto
59065 44010.4 lineto
stroke
newpath
58474.4 44601 moveto
59655.6 44601 lineto
stroke
newpath
62065 45191.6 moveto
62065 44010.4 lineto
stroke
newpath
61474.4 44601 moveto
62655.6 44601 lineto
stroke
newpath
65065 45191.6 moveto
65065 44010.4 lineto
stroke
newpath
64474.4 44601 moveto
65655.6 44601 lineto
stroke
newpath
68065 45191.6 moveto
68065 44010.4 lineto
stroke
newpath
67474.4 44601 moveto
68655.6 44601 lineto
stroke
newpath
71065 45191.6 moveto
71065 44010.4 lineto
stroke
newpath
70474.4 44601 moveto
71655.6 44601 lineto
stroke
newpath
74065 45191.6 moveto
74065 44010.4 lineto
stroke
newpath
73474.4 44601 moveto
74655.6 44601 lineto
stroke
newpath
77065 45191.6 moveto
77065 44010.4 lineto
stroke
newpath
76474.4 44601 moveto
77655.6 44601 lineto
stroke
newpath
33401.3 45514.7 moveto
33401.3 48187.3 lineto
30728.7 48187.3 lineto
30728.7 45514.7 lineto
33401.3 45514.7 lineto
poly0
newpath
86201.3 45514.7 moveto
86201.3 48187.3 lineto
83528.7 48187.3 lineto
83528.7 45514.7 lineto
86201.3 45514.7 lineto
poly0
118.11 setlinewidth
0 0 0 setrgbcolor
0 0 0 setrgbcolor
newpath
28813.1 40638 moveto
28813.1 41819.1 lineto
29094.4 41819.1 lineto
29263.1 41762.8 lineto
29375.6 41650.3 lineto
29431.8 41537.8 lineto
29488.1 41312.9 lineto
29488.1 41144.1 lineto
29431.8 40919.2 lineto
29375.6 40806.7 lineto
29263.1 40694.2 lineto
29094.4 40638 lineto
28813.1 40638 lineto
stroke
newpath
29994.2 40638 moveto
29994.2 41425.4 lineto
stroke
newpath
29994.2 41200.4 moveto
30050.5 41312.9 lineto
30106.7 41369.1 lineto
30219.2 41425.4 lineto
30331.7 41425.4 lineto
stroke
newpath
30725.4 40638 moveto
30725.4 41425.4 lineto
stroke
newpath
30725.4 41819.1 moveto
30669.2 41762.8 lineto
30725.4 41706.6 lineto
30781.6 41762.8 lineto
30725.4 41819.1 lineto
30725.4 41706.6 lineto
stroke
newpath
31456.6 40638 moveto
31344.1 40694.2 lineto
31287.8 40806.7 lineto
31287.8 41819.1 lineto
stroke
newpath
32075.2 40638 moveto
31962.7 40694.2 lineto
31906.5 40806.7 lineto
31906.5 41819.1 lineto
stroke
newpath
33425.1 40638 moveto
33425.1 41819.1 lineto
33818.8 40975.4 lineto
34212.5 41819.1 lineto
34212.5 40638 lineto
stroke
newpath
35281.1 40638 moveto
35281.1 41256.6 lineto
35224.8 41369.1 lineto
35112.4 41425.4 lineto
34887.4 41425.4 lineto
34774.9 41369.1 lineto
stroke
newpath
35281.1 40694.2 moveto
35168.6 40638 lineto
34887.4 40638 lineto
34774.9 40694.2 lineto
34718.7 40806.7 lineto
34718.7 40919.2 lineto
34774.9 41031.7 lineto
34887.4 41087.9 lineto
35168.6 41087.9 lineto
35281.1 41144.1 lineto
stroke
newpath
35843.5 41425.4 moveto
35843.5 40244.2 lineto
stroke
newpath
35843.5 41369.1 moveto
35956 41425.4 lineto
36181 41425.4 lineto
36293.5 41369.1 lineto
36349.7 41312.9 lineto
36405.9 41200.4 lineto
36405.9 40862.9 lineto
36349.7 40750.4 lineto
36293.5 40694.2 lineto
36181 40638 lineto
35956 40638 lineto
35843.5 40694.2 lineto
stroke
newpath
36912.1 40750.4 moveto
36968.4 40694.2 lineto
36912.1 40638 lineto
36855.9 40694.2 lineto
36912.1 40750.4 lineto
36912.1 40638 lineto
stroke
newpath
36912.1 41369.1 moveto
36968.4 41312.9 lineto
36912.1 41256.6 lineto
36855.9 41312.9 lineto
36912.1 41369.1 lineto
36912.1 41256.6 lineto
stroke
newpath
27213 38928.2 moveto
27685.5 38455.7 lineto
stroke
newpath
27685.5 38928.2 moveto
27213 38455.7 lineto
stroke
0 0 0 setrgbcolor
0 0 0 setrgbcolor
newpath
29038.1 39338.7 moveto
29150.6 39338.7 lineto
29263.1 39282.5 lineto
29319.3 39226.3 lineto
29375.6 39113.8 lineto
29431.8 38888.8 lineto
29431.8 38607.6 lineto
29375.6 38382.6 lineto
29319.3 38270.1 lineto
29263.1 38213.9 lineto
29150.6 38157.6 lineto
29038.1 38157.6 lineto
28925.6 38213.9 lineto
28869.4 38270.1 lineto
28813.1 38382.6 lineto
28756.9 38607.6 lineto
28756.9 38888.8 lineto
28813.1 39113.8 lineto
28869.4 39226.3 lineto
28925.6 39282.5 lineto
29038.1 39338.7 lineto
stroke
newpath
29938 38270.1 moveto
29994.2 38213.9 lineto
29938 38157.6 lineto
29881.8 38213.9 lineto
29938 38270.1 lineto
29938 38157.6 lineto
stroke
newpath
31006.6 38945 moveto
31006.6 38157.6 lineto
stroke
newpath
30725.4 39395 moveto
30444.2 38551.3 lineto
31175.3 38551.3 lineto
stroke
newpath
31850.3 39338.7 moveto
31962.7 39338.7 lineto
32075.2 39282.5 lineto
32131.5 39226.3 lineto
32187.7 39113.8 lineto
32244 38888.8 lineto
32244 38607.6 lineto
32187.7 38382.6 lineto
32131.5 38270.1 lineto
32075.2 38213.9 lineto
31962.7 38157.6 lineto
31850.3 38157.6 lineto
31737.8 38213.9 lineto
31681.5 38270.1 lineto
31625.3 38382.6 lineto
31569 38607.6 lineto
31569 38888.8 lineto
31625.3 39113.8 lineto
31681.5 39226.3 lineto
31737.8 39282.5 lineto
31850.3 39338.7 lineto
stroke
newpath
32750.2 38157.6 moveto
32750.2 38945 lineto
stroke
newpath
32750.2 38832.6 moveto
32806.4 38888.8 lineto
32918.9 38945 lineto
33087.6 38945 lineto
33200.1 38888.8 lineto
33256.3 38776.3 lineto
33256.3 38157.6 lineto
stroke
newpath
33256.3 38776.3 moveto
33312.6 38888.8 lineto
33425.1 38945 lineto
33593.8 38945 lineto
33706.3 38888.8 lineto
33762.5 38776.3 lineto
33762.5 38157.6 lineto
stroke
newpath
34325 38157.6 moveto
34325 38945 lineto
stroke
newpath
34325 38832.6 moveto
34381.2 38888.8 lineto
34493.7 38945 lineto
34662.4 38945 lineto
34774.9 38888.8 lineto
34831.1 38776.3 lineto
34831.1 38157.6 lineto
stroke
newpath
34831.1 38776.3 moveto
34887.4 38888.8 lineto
34999.9 38945 lineto
35168.6 38945 lineto
35281.1 38888.8 lineto
35337.3 38776.3 lineto
35337.3 38157.6 lineto
stroke
newpath
37643.3 39395 moveto
36630.9 37876.4 lineto
stroke
newpath
39161.8 39338.7 moveto
39274.3 39338.7 lineto
39386.8 39282.5 lineto
39443.1 39226.3 lineto
39499.3 39113.8 lineto
39555.6 38888.8 lineto
39555.6 38607.6 lineto
39499.3 38382.6 lineto
39443.1 38270.1 lineto
39386.8 38213.9 lineto
39274.3 38157.6 lineto
39161.8 38157.6 lineto
39049.4 38213.9 lineto
38993.1 38270.1 lineto
38936.9 38382.6 lineto
38880.6 38607.6 lineto
38880.6 38888.8 lineto
38936.9 39113.8 lineto
38993.1 39226.3 lineto
39049.4 39282.5 lineto
39161.8 39338.7 lineto
stroke
newpath
40061.7 38270.1 moveto
40118 38213.9 lineto
40061.7 38157.6 lineto
40005.5 38213.9 lineto
40061.7 38270.1 lineto
40061.7 38157.6 lineto
stroke
newpath
40849.1 39338.7 moveto
40961.6 39338.7 lineto
41074.1 39282.5 lineto
41130.4 39226.3 lineto
41186.6 39113.8 lineto
41242.8 38888.8 lineto
41242.8 38607.6 lineto
41186.6 38382.6 lineto
41130.4 38270.1 lineto
41074.1 38213.9 lineto
40961.6 38157.6 lineto
40849.1 38157.6 lineto
40736.7 38213.9 lineto
40680.4 38270.1 lineto
40624.2 38382.6 lineto
40567.9 38607.6 lineto
40567.9 38888.8 lineto
40624.2 39113.8 lineto
40680.4 39226.3 lineto
40736.7 39282.5 lineto
40849.1 39338.7 lineto
stroke
newpath
42367.7 38157.6 moveto
41692.8 38157.6 lineto
stroke
newpath
42030.2 38157.6 moveto
42030.2 39338.7 lineto
41917.8 39170 lineto
41805.3 39057.5 lineto
41692.8 39001.3 lineto
stroke
newpath
43380.1 39338.7 moveto
43155.1 39338.7 lineto
43042.6 39282.5 lineto
42986.4 39226.3 lineto
42873.9 39057.5 lineto
42817.6 38832.6 lineto
42817.6 38382.6 lineto
42873.9 38270.1 lineto
42930.1 38213.9 lineto
43042.6 38157.6 lineto
43267.6 38157.6 lineto
43380.1 38213.9 lineto
43436.3 38270.1 lineto
43492.6 38382.6 lineto
43492.6 38663.8 lineto
43436.3 38776.3 lineto
43380.1 38832.6 lineto
43267.6 38888.8 lineto
43042.6 38888.8 lineto
42930.1 38832.6 lineto
42873.9 38776.3 lineto
42817.6 38663.8 lineto
stroke
newpath
43942.5 39338.7 moveto
43942.5 39113.8 lineto
stroke
newpath
44392.4 39338.7 moveto
44392.4 39113.8 lineto
stroke
newpath
46136 37707.7 moveto
46079.7 37763.9 lineto
45967.2 37932.7 lineto
45911 38045.1 lineto
45854.8 38213.9 lineto
45798.5 38495.1 lineto
45798.5 38720.1 lineto
45854.8 39001.3 lineto
45911 39170 lineto
45967.2 39282.5 lineto
46079.7 39451.2 lineto
46136 39507.5 lineto
stroke
newpath
46473.4 39338.7 moveto
47260.8 39338.7 lineto
46754.7 38157.6 lineto
stroke
newpath
48610.7 38157.6 moveto
48610.7 39338.7 lineto
stroke
newpath
49116.9 38157.6 moveto
49116.9 38776.3 lineto
49060.6 38888.8 lineto
48948.1 38945 lineto
48779.4 38945 lineto
48666.9 38888.8 lineto
48610.7 38832.6 lineto
stroke
newpath
49848 38157.6 moveto
49735.5 38213.9 lineto
49679.3 38270.1 lineto
49623 38382.6 lineto
49623 38720.1 lineto
49679.3 38832.6 lineto
49735.5 38888.8 lineto
49848 38945 lineto
50016.7 38945 lineto
50129.2 38888.8 lineto
50185.5 38832.6 lineto
50241.7 38720.1 lineto
50241.7 38382.6 lineto
50185.5 38270.1 lineto
50129.2 38213.9 lineto
50016.7 38157.6 lineto
49848 38157.6 lineto
stroke
newpath
50916.6 38157.6 moveto
50804.1 38213.9 lineto
50747.9 38326.4 lineto
50747.9 39338.7 lineto
stroke
newpath
51816.5 38213.9 moveto
51704 38157.6 lineto
51479.1 38157.6 lineto
51366.6 38213.9 lineto
51310.3 38326.4 lineto
51310.3 38776.3 lineto
51366.6 38888.8 lineto
51479.1 38945 lineto
51704 38945 lineto
51816.5 38888.8 lineto
51872.8 38776.3 lineto
51872.8 38663.8 lineto
51310.3 38551.3 lineto
stroke
newpath
52322.7 38213.9 moveto
52435.2 38157.6 lineto
52660.2 38157.6 lineto
52772.6 38213.9 lineto
52828.9 38326.4 lineto
52828.9 38382.6 lineto
52772.6 38495.1 lineto
52660.2 38551.3 lineto
52491.4 38551.3 lineto
52378.9 38607.6 lineto
52322.7 38720.1 lineto
52322.7 38776.3 lineto
52378.9 38888.8 lineto
52491.4 38945 lineto
52660.2 38945 lineto
52772.6 38888.8 lineto
stroke
newpath
53222.6 37707.7 moveto
53278.8 37763.9 lineto
53391.3 37932.7 lineto
53447.6 38045.1 lineto
53503.8 38213.9 lineto
53560 38495.1 lineto
53560 38720.1 lineto
53503.8 39001.3 lineto
53447.6 39170 lineto
53391.3 39282.5 lineto
53278.8 39451.2 lineto
53222.6 39507.5 lineto
stroke
27390.2 37132.9 295.276 cir0
0 0 0 setrgbcolor
0 0 0 setrgbcolor
newpath
29038.1 37779.7 moveto
29150.6 37779.7 lineto
29263.1 37723.4 lineto
29319.3 37667.2 lineto
29375.6 37554.7 lineto
29431.8 37329.7 lineto
29431.8 37048.5 lineto
29375.6 36823.6 lineto
29319.3 36711.1 lineto
29263.1 36654.8 lineto
29150.6 36598.6 lineto
29038.1 36598.6 lineto
28925.6 36654.8 lineto
28869.4 36711.1 lineto
28813.1 36823.6 lineto
28756.9 37048.5 lineto
28756.9 37329.7 lineto
28813.1 37554.7 lineto
28869.4 37667.2 lineto
28925.6 37723.4 lineto
29038.1 37779.7 lineto
stroke
newpath
29938 36711.1 moveto
29994.2 36654.8 lineto
29938 36598.6 lineto
29881.8 36654.8 lineto
29938 36711.1 lineto
29938 36598.6 lineto
stroke
newpath
31062.9 37779.7 moveto
30500.4 37779.7 lineto
30444.2 37217.3 lineto
30500.4 37273.5 lineto
30612.9 37329.7 lineto
30894.1 37329.7 lineto
31006.6 37273.5 lineto
31062.9 37217.3 lineto
31119.1 37104.8 lineto
31119.1 36823.6 lineto
31062.9 36711.1 lineto
31006.6 36654.8 lineto
30894.1 36598.6 lineto
30612.9 36598.6 lineto
30500.4 36654.8 lineto
30444.2 36711.1 lineto
stroke
newpath
31850.3 37779.7 moveto
31962.7 37779.7 lineto
32075.2 37723.4 lineto
32131.5 37667.2 lineto
32187.7 37554.7 lineto
32244 37329.7 lineto
32244 37048.5 lineto
32187.7 36823.6 lineto
32131.5 36711.1 lineto
32075.2 36654.8 lineto
31962.7 36598.6 lineto
31850.3 36598.6 lineto
31737.8 36654.8 lineto
31681.5 36711.1 lineto
31625.3 36823.6 lineto
31569 37048.5 lineto
31569 37329.7 lineto
31625.3 37554.7 lineto
31681.5 37667.2 lineto
31737.8 37723.4 lineto
31850.3 37779.7 lineto
stroke
newpath
32750.2 36598.6 moveto
32750.2 37386 lineto
stroke
newpath
32750.2 37273.5 moveto
32806.4 37329.7 lineto
32918.9 37386 lineto
33087.6 37386 lineto
33200.1 37329.7 lineto
33256.3 37217.3 lineto
33256.3 36598.6 lineto
stroke
newpath
33256.3 37217.3 moveto
33312.6 37329.7 lineto
33425.1 37386 lineto
33593.8 37386 lineto
33706.3 37329.7 lineto
33762.5 37217.3 lineto
33762.5 36598.6 lineto
stroke
newpath
34325 36598.6 moveto
34325 37386 lineto
stroke
newpath
34325 37273.5 moveto
34381.2 37329.7 lineto
34493.7 37386 lineto
34662.4 37386 lineto
34774.9 37329.7 lineto
34831.1 37217.3 lineto
34831.1 36598.6 lineto
stroke
newpath
34831.1 37217.3 moveto
34887.4 37329.7 lineto
34999.9 37386 lineto
35168.6 37386 lineto
35281.1 37329.7 lineto
35337.3 37217.3 lineto
35337.3 36598.6 lineto
stroke
newpath
37643.3 37835.9 moveto
36630.9 36317.4 lineto
stroke
newpath
39161.8 37779.7 moveto
39274.3 37779.7 lineto
39386.8 37723.4 lineto
39443.1 37667.2 lineto
39499.3 37554.7 lineto
39555.6 37329.7 lineto
39555.6 37048.5 lineto
39499.3 36823.6 lineto
39443.1 36711.1 lineto
39386.8 36654.8 lineto
39274.3 36598.6 lineto
39161.8 36598.6 lineto
39049.4 36654.8 lineto
38993.1 36711.1 lineto
38936.9 36823.6 lineto
38880.6 37048.5 lineto
38880.6 37329.7 lineto
38936.9 37554.7 lineto
38993.1 37667.2 lineto
39049.4 37723.4 lineto
39161.8 37779.7 lineto
stroke
newpath
40061.7 36711.1 moveto
40118 36654.8 lineto
40061.7 36598.6 lineto
40005.5 36654.8 lineto
40061.7 36711.1 lineto
40061.7 36598.6 lineto
stroke
newpath
40849.1 37779.7 moveto
40961.6 37779.7 lineto
41074.1 37723.4 lineto
41130.4 37667.2 lineto
41186.6 37554.7 lineto
41242.8 37329.7 lineto
41242.8 37048.5 lineto
41186.6 36823.6 lineto
41130.4 36711.1 lineto
41074.1 36654.8 lineto
40961.6 36598.6 lineto
40849.1 36598.6 lineto
40736.7 36654.8 lineto
40680.4 36711.1 lineto
40624.2 36823.6 lineto
40567.9 37048.5 lineto
40567.9 37329.7 lineto
40624.2 37554.7 lineto
40680.4 37667.2 lineto
40736.7 37723.4 lineto
40849.1 37779.7 lineto
stroke
newpath
41692.8 37667.2 moveto
41749 37723.4 lineto
41861.5 37779.7 lineto
42142.7 37779.7 lineto
42255.2 37723.4 lineto
42311.5 37667.2 lineto
42367.7 37554.7 lineto
42367.7 37442.2 lineto
42311.5 37273.5 lineto
41636.5 36598.6 lineto
42367.7 36598.6 lineto
stroke
newpath
43098.9 37779.7 moveto
43211.3 37779.7 lineto
43323.8 37723.4 lineto
43380.1 37667.2 lineto
43436.3 37554.7 lineto
43492.6 37329.7 lineto
43492.6 37048.5 lineto
43436.3 36823.6 lineto
43380.1 36711.1 lineto
43323.8 36654.8 lineto
43211.3 36598.6 lineto
43098.9 36598.6 lineto
42986.4 36654.8 lineto
42930.1 36711.1 lineto
42873.9 36823.6 lineto
42817.6 37048.5 lineto
42817.6 37329.7 lineto
42873.9 37554.7 lineto
42930.1 37667.2 lineto
42986.4 37723.4 lineto
43098.9 37779.7 lineto
stroke
newpath
43942.5 37779.7 moveto
43942.5 37554.7 lineto
stroke
newpath
44392.4 37779.7 moveto
44392.4 37554.7 lineto
stroke
newpath
46136 36148.6 moveto
46079.7 36204.9 lineto
45967.2 36373.6 lineto
45911 36486.1 lineto
45854.8 36654.8 lineto
45798.5 36936 lineto
45798.5 37161 lineto
45854.8 37442.2 lineto
45911 37611 lineto
45967.2 37723.4 lineto
46079.7 37892.2 lineto
46136 37948.4 lineto
stroke
newpath
47204.6 36598.6 moveto
46529.7 36598.6 lineto
stroke
newpath
46867.1 36598.6 moveto
46867.1 37779.7 lineto
46754.7 37611 lineto
46642.2 37498.5 lineto
46529.7 37442.2 lineto
stroke
newpath
48217 37779.7 moveto
47992 37779.7 lineto
47879.5 37723.4 lineto
47823.3 37667.2 lineto
47710.8 37498.5 lineto
47654.5 37273.5 lineto
47654.5 36823.6 lineto
47710.8 36711.1 lineto
47767 36654.8 lineto
47879.5 36598.6 lineto
48104.5 36598.6 lineto
48217 36654.8 lineto
48273.2 36711.1 lineto
48329.5 36823.6 lineto
48329.5 37104.8 lineto
48273.2 37217.3 lineto
48217 37273.5 lineto
48104.5 37329.7 lineto
47879.5 37329.7 lineto
47767 37273.5 lineto
47710.8 37217.3 lineto
47654.5 37104.8 lineto
stroke
newpath
49735.5 36598.6 moveto
49735.5 37779.7 lineto
stroke
newpath
50241.7 36598.6 moveto
50241.7 37217.3 lineto
50185.5 37329.7 lineto
50073 37386 lineto
49904.3 37386 lineto
49791.8 37329.7 lineto
49735.5 37273.5 lineto
stroke
newpath
50972.9 36598.6 moveto
50860.4 36654.8 lineto
50804.1 36711.1 lineto
50747.9 36823.6 lineto
50747.9 37161 lineto
50804.1 37273.5 lineto
50860.4 37329.7 lineto
50972.9 37386 lineto
51141.6 37386 lineto
51254.1 37329.7 lineto
51310.3 37273.5 lineto
51366.6 37161 lineto
51366.6 36823.6 lineto
51310.3 36711.1 lineto
51254.1 36654.8 lineto
51141.6 36598.6 lineto
50972.9 36598.6 lineto
stroke
newpath
52041.5 36598.6 moveto
51929 36654.8 lineto
51872.8 36767.3 lineto
51872.8 37779.7 lineto
stroke
newpath
52941.4 36654.8 moveto
52828.9 36598.6 lineto
52603.9 36598.6 lineto
52491.4 36654.8 lineto
52435.2 36767.3 lineto
52435.2 37217.3 lineto
52491.4 37329.7 lineto
52603.9 37386 lineto
52828.9 37386 lineto
52941.4 37329.7 lineto
52997.6 37217.3 lineto
52997.6 37104.8 lineto
52435.2 36992.3 lineto
stroke
newpath
53447.6 36654.8 moveto
53560 36598.6 lineto
53785 36598.6 lineto
53897.5 36654.8 lineto
53953.8 36767.3 lineto
53953.8 36823.6 lineto
53897.5 36936 lineto
53785 36992.3 lineto
53616.3 36992.3 lineto
53503.8 37048.5 lineto
53447.6 37161 lineto
53447.6 37217.3 lineto
53503.8 37329.7 lineto
53616.3 37386 lineto
53785 37386 lineto
53897.5 37329.7 lineto
stroke
newpath
54347.5 36148.6 moveto
54403.7 36204.9 lineto
54516.2 36373.6 lineto
54572.4 36486.1 lineto
54628.7 36654.8 lineto
54684.9 36936 lineto
54684.9 37161 lineto
54628.7 37442.2 lineto
54572.4 37611 lineto
54516.2 37723.4 lineto
54403.7 37892.2 lineto
54347.5 37948.4 lineto
stroke
newpath
27094.9 36164.4 moveto
27094.9 34983.3 lineto
stroke
newpath
26504.4 35573.8 moveto
27685.5 35573.8 lineto
stroke
0 0 0 setrgbcolor
0 0 0 setrgbcolor
newpath
29431.8 35039.5 moveto
28756.9 35039.5 lineto
stroke
newpath
29094.4 35039.5 moveto
29094.4 36220.6 lineto
28981.9 36051.9 lineto
28869.4 35939.4 lineto
28756.9 35883.2 lineto
stroke
newpath
29938 35152 moveto
29994.2 35095.8 lineto
29938 35039.5 lineto
29881.8 35095.8 lineto
29938 35152 lineto
29938 35039.5 lineto
stroke
newpath
30725.4 36220.6 moveto
30837.9 36220.6 lineto
30950.4 36164.4 lineto
31006.6 36108.1 lineto
31062.9 35995.7 lineto
31119.1 35770.7 lineto
31119.1 35489.5 lineto
31062.9 35264.5 lineto
31006.6 35152 lineto
30950.4 35095.8 lineto
30837.9 35039.5 lineto
30725.4 35039.5 lineto
30612.9 35095.8 lineto
30556.7 35152 lineto
30500.4 35264.5 lineto
30444.2 35489.5 lineto
30444.2 35770.7 lineto
30500.4 35995.7 lineto
30556.7 36108.1 lineto
30612.9 36164.4 lineto
30725.4 36220.6 lineto
stroke
newpath
31850.3 36220.6 moveto
31962.7 36220.6 lineto
32075.2 36164.4 lineto
32131.5 36108.1 lineto
32187.7 35995.7 lineto
32244 35770.7 lineto
32244 35489.5 lineto
32187.7 35264.5 lineto
32131.5 35152 lineto
32075.2 35095.8 lineto
31962.7 35039.5 lineto
31850.3 35039.5 lineto
31737.8 35095.8 lineto
31681.5 35152 lineto
31625.3 35264.5 lineto
31569 35489.5 lineto
31569 35770.7 lineto
31625.3 35995.7 lineto
31681.5 36108.1 lineto
31737.8 36164.4 lineto
31850.3 36220.6 lineto
stroke
newpath
32750.2 35039.5 moveto
32750.2 35826.9 lineto
stroke
newpath
32750.2 35714.4 moveto
32806.4 35770.7 lineto
32918.9 35826.9 lineto
33087.6 35826.9 lineto
33200.1 35770.7 lineto
33256.3 35658.2 lineto
33256.3 35039.5 lineto
stroke
newpath
33256.3 35658.2 moveto
33312.6 35770.7 lineto
33425.1 35826.9 lineto
33593.8 35826.9 lineto
33706.3 35770.7 lineto
33762.5 35658.2 lineto
33762.5 35039.5 lineto
stroke
newpath
34325 35039.5 moveto
34325 35826.9 lineto
stroke
newpath
34325 35714.4 moveto
34381.2 35770.7 lineto
34493.7 35826.9 lineto
34662.4 35826.9 lineto
34774.9 35770.7 lineto
34831.1 35658.2 lineto
34831.1 35039.5 lineto
stroke
newpath
34831.1 35658.2 moveto
34887.4 35770.7 lineto
34999.9 35826.9 lineto
35168.6 35826.9 lineto
35281.1 35770.7 lineto
35337.3 35658.2 lineto
35337.3 35039.5 lineto
stroke
newpath
37643.3 36276.9 moveto
36630.9 34758.3 lineto
stroke
newpath
39161.8 36220.6 moveto
39274.3 36220.6 lineto
39386.8 36164.4 lineto
39443.1 36108.1 lineto
39499.3 35995.7 lineto
39555.6 35770.7 lineto
39555.6 35489.5 lineto
39499.3 35264.5 lineto
39443.1 35152 lineto
39386.8 35095.8 lineto
39274.3 35039.5 lineto
39161.8 35039.5 lineto
39049.4 35095.8 lineto
38993.1 35152 lineto
38936.9 35264.5 lineto
38880.6 35489.5 lineto
38880.6 35770.7 lineto
38936.9 35995.7 lineto
38993.1 36108.1 lineto
39049.4 36164.4 lineto
39161.8 36220.6 lineto
stroke
newpath
40061.7 35152 moveto
40118 35095.8 lineto
40061.7 35039.5 lineto
40005.5 35095.8 lineto
40061.7 35152 lineto
40061.7 35039.5 lineto
stroke
newpath
40849.1 36220.6 moveto
40961.6 36220.6 lineto
41074.1 36164.4 lineto
41130.4 36108.1 lineto
41186.6 35995.7 lineto
41242.8 35770.7 lineto
41242.8 35489.5 lineto
41186.6 35264.5 lineto
41130.4 35152 lineto
41074.1 35095.8 lineto
40961.6 35039.5 lineto
40849.1 35039.5 lineto
40736.7 35095.8 lineto
40680.4 35152 lineto
40624.2 35264.5 lineto
40567.9 35489.5 lineto
40567.9 35770.7 lineto
40624.2 35995.7 lineto
40680.4 36108.1 lineto
40736.7 36164.4 lineto
40849.1 36220.6 lineto
stroke
newpath
41636.5 36220.6 moveto
42367.7 36220.6 lineto
41974 35770.7 lineto
42142.7 35770.7 lineto
42255.2 35714.4 lineto
42311.5 35658.2 lineto
42367.7 35545.7 lineto
42367.7 35264.5 lineto
42311.5 35152 lineto
42255.2 35095.8 lineto
42142.7 35039.5 lineto
41805.3 35039.5 lineto
41692.8 35095.8 lineto
41636.5 35152 lineto
stroke
newpath
42930.1 35039.5 moveto
43155.1 35039.5 lineto
43267.6 35095.8 lineto
43323.8 35152 lineto
43436.3 35320.7 lineto
43492.6 35545.7 lineto
43492.6 35995.7 lineto
43436.3 36108.1 lineto
43380.1 36164.4 lineto
43267.6 36220.6 lineto
43042.6 36220.6 lineto
42930.1 36164.4 lineto
42873.9 36108.1 lineto
42817.6 35995.7 lineto
42817.6 35714.4 lineto
42873.9 35602 lineto
42930.1 35545.7 lineto
43042.6 35489.5 lineto
43267.6 35489.5 lineto
43380.1 35545.7 lineto
43436.3 35602 lineto
43492.6 35714.4 lineto
stroke
newpath
43942.5 36220.6 moveto
43942.5 35995.7 lineto
stroke
newpath
44392.4 36220.6 moveto
44392.4 35995.7 lineto
stroke
newpath
46136 34589.6 moveto
46079.7 34645.8 lineto
45967.2 34814.6 lineto
45911 34927 lineto
45854.8 35095.8 lineto
45798.5 35377 lineto
45798.5 35602 lineto
45854.8 35883.2 lineto
45911 36051.9 lineto
45967.2 36164.4 lineto
46079.7 36333.1 lineto
46136 36389.4 lineto
stroke
newpath
46529.7 36108.1 moveto
46585.9 36164.4 lineto
46698.4 36220.6 lineto
46979.6 36220.6 lineto
47092.1 36164.4 lineto
47148.4 36108.1 lineto
47204.6 35995.7 lineto
47204.6 35883.2 lineto
47148.4 35714.4 lineto
46473.4 35039.5 lineto
47204.6 35039.5 lineto
stroke
newpath
48273.2 36220.6 moveto
47710.8 36220.6 lineto
47654.5 35658.2 lineto
47710.8 35714.4 lineto
47823.3 35770.7 lineto
48104.5 35770.7 lineto
48217 35714.4 lineto
48273.2 35658.2 lineto
48329.5 35545.7 lineto
48329.5 35264.5 lineto
48273.2 35152 lineto
48217 35095.8 lineto
48104.5 35039.5 lineto
47823.3 35039.5 lineto
47710.8 35095.8 lineto
47654.5 35152 lineto
stroke
newpath
49735.5 35039.5 moveto
49735.5 36220.6 lineto
stroke
newpath
50241.7 35039.5 moveto
50241.7 35658.2 lineto
50185.5 35770.7 lineto
50073 35826.9 lineto
49904.3 35826.9 lineto
49791.8 35770.7 lineto
49735.5 35714.4 lineto
stroke
newpath
50972.9 35039.5 moveto
50860.4 35095.8 lineto
50804.1 35152 lineto
50747.9 35264.5 lineto
50747.9 35602 lineto
50804.1 35714.4 lineto
50860.4 35770.7 lineto
50972.9 35826.9 lineto
51141.6 35826.9 lineto
51254.1 35770.7 lineto
51310.3 35714.4 lineto
51366.6 35602 lineto
51366.6 35264.5 lineto
51310.3 35152 lineto
51254.1 35095.8 lineto
51141.6 35039.5 lineto
50972.9 35039.5 lineto
stroke
newpath
52041.5 35039.5 moveto
51929 35095.8 lineto
51872.8 35208.3 lineto
51872.8 36220.6 lineto
stroke
newpath
52941.4 35095.8 moveto
52828.9 35039.5 lineto
52603.9 35039.5 lineto
52491.4 35095.8 lineto
52435.2 35208.3 lineto
52435.2 35658.2 lineto
52491.4 35770.7 lineto
52603.9 35826.9 lineto
52828.9 35826.9 lineto
52941.4 35770.7 lineto
52997.6 35658.2 lineto
52997.6 35545.7 lineto
52435.2 35433.2 lineto
stroke
newpath
53447.6 35095.8 moveto
53560 35039.5 lineto
53785 35039.5 lineto
53897.5 35095.8 lineto
53953.8 35208.3 lineto
53953.8 35264.5 lineto
53897.5 35377 lineto
53785 35433.2 lineto
53616.3 35433.2 lineto
53503.8 35489.5 lineto
53447.6 35602 lineto
53447.6 35658.2 lineto
53503.8 35770.7 lineto
53616.3 35826.9 lineto
53785 35826.9 lineto
53897.5 35770.7 lineto
stroke
newpath
54347.5 34589.6 moveto
54403.7 34645.8 lineto
54516.2 34814.6 lineto
54572.4 34927 lineto
54628.7 35095.8 lineto
54684.9 35377 lineto
54684.9 35602 lineto
54628.7 35883.2 lineto
54572.4 36051.9 lineto
54516.2 36164.4 lineto
54403.7 36333.1 lineto
54347.5 36389.4 lineto
stroke
newpath
27132 32544.6 moveto
27132 35217.2 lineto
24459.4 35217.2 lineto
24459.4 32544.6 lineto
27132 32544.6 lineto
poly0
0 0 0 setrgbcolor
0 0 0 setrgbcolor
newpath
28700.7 34527.7 moveto
29431.8 34527.7 lineto
29038.1 34077.8 lineto
29206.8 34077.8 lineto
29319.3 34021.5 lineto
29375.6 33965.3 lineto
29431.8 33852.8 lineto
29431.8 33571.6 lineto
29375.6 33459.1 lineto
29319.3 33402.9 lineto
29206.8 33346.6 lineto
28869.4 33346.6 lineto
28756.9 33402.9 lineto
28700.7 33459.1 lineto
stroke
newpath
29938 33459.1 moveto
29994.2 33402.9 lineto
29938 33346.6 lineto
29881.8 33402.9 lineto
29938 33459.1 lineto
29938 33346.6 lineto
stroke
newpath
30444.2 34415.2 moveto
30500.4 34471.5 lineto
30612.9 34527.7 lineto
30894.1 34527.7 lineto
31006.6 34471.5 lineto
31062.9 34415.2 lineto
31119.1 34302.7 lineto
31119.1 34190.3 lineto
31062.9 34021.5 lineto
30387.9 33346.6 lineto
31119.1 33346.6 lineto
stroke
newpath
31850.3 34527.7 moveto
31962.7 34527.7 lineto
32075.2 34471.5 lineto
32131.5 34415.2 lineto
32187.7 34302.7 lineto
32244 34077.8 lineto
32244 33796.6 lineto
32187.7 33571.6 lineto
32131.5 33459.1 lineto
32075.2 33402.9 lineto
31962.7 33346.6 lineto
31850.3 33346.6 lineto
31737.8 33402.9 lineto
31681.5 33459.1 lineto
31625.3 33571.6 lineto
31569 33796.6 lineto
31569 34077.8 lineto
31625.3 34302.7 lineto
31681.5 34415.2 lineto
31737.8 34471.5 lineto
31850.3 34527.7 lineto
stroke
newpath
32750.2 33346.6 moveto
32750.2 34134 lineto
stroke
newpath
32750.2 34021.5 moveto
32806.4 34077.8 lineto
32918.9 34134 lineto
33087.6 34134 lineto
33200.1 34077.8 lineto
33256.3 33965.3 lineto
33256.3 33346.6 lineto
stroke
newpath
33256.3 33965.3 moveto
33312.6 34077.8 lineto
33425.1 34134 lineto
33593.8 34134 lineto
33706.3 34077.8 lineto
33762.5 33965.3 lineto
33762.5 33346.6 lineto
stroke
newpath
34325 33346.6 moveto
34325 34134 lineto
stroke
newpath
34325 34021.5 moveto
34381.2 34077.8 lineto
34493.7 34134 lineto
34662.4 34134 lineto
34774.9 34077.8 lineto
34831.1 33965.3 lineto
34831.1 33346.6 lineto
stroke
newpath
34831.1 33965.3 moveto
34887.4 34077.8 lineto
34999.9 34134 lineto
35168.6 34134 lineto
35281.1 34077.8 lineto
35337.3 33965.3 lineto
35337.3 33346.6 lineto
stroke
newpath
37643.3 34584 moveto
36630.9 33065.4 lineto
stroke
newpath
39161.8 34527.7 moveto
39274.3 34527.7 lineto
39386.8 34471.5 lineto
39443.1 34415.2 lineto
39499.3 34302.7 lineto
39555.6 34077.8 lineto
39555.6 33796.6 lineto
39499.3 33571.6 lineto
39443.1 33459.1 lineto
39386.8 33402.9 lineto
39274.3 33346.6 lineto
39161.8 33346.6 lineto
39049.4 33402.9 lineto
38993.1 33459.1 lineto
38936.9 33571.6 lineto
38880.6 33796.6 lineto
38880.6 34077.8 lineto
38936.9 34302.7 lineto
38993.1 34415.2 lineto
39049.4 34471.5 lineto
39161.8 34527.7 lineto
stroke
newpath
40061.7 33459.1 moveto
40118 33402.9 lineto
40061.7 33346.6 lineto
40005.5 33402.9 lineto
40061.7 33459.1 lineto
40061.7 33346.6 lineto
stroke
newpath
41242.8 33346.6 moveto
40567.9 33346.6 lineto
stroke
newpath
40905.4 33346.6 moveto
40905.4 34527.7 lineto
40792.9 34359 lineto
40680.4 34246.5 lineto
40567.9 34190.3 lineto
stroke
newpath
41692.8 34415.2 moveto
41749 34471.5 lineto
41861.5 34527.7 lineto
42142.7 34527.7 lineto
42255.2 34471.5 lineto
42311.5 34415.2 lineto
42367.7 34302.7 lineto
42367.7 34190.3 lineto
42311.5 34021.5 lineto
41636.5 33346.6 lineto
42367.7 33346.6 lineto
stroke
newpath
43380.1 34527.7 moveto
43155.1 34527.7 lineto
43042.6 34471.5 lineto
42986.4 34415.2 lineto
42873.9 34246.5 lineto
42817.6 34021.5 lineto
42817.6 33571.6 lineto
42873.9 33459.1 lineto
42930.1 33402.9 lineto
43042.6 33346.6 lineto
43267.6 33346.6 lineto
43380.1 33402.9 lineto
43436.3 33459.1 lineto
43492.6 33571.6 lineto
43492.6 33852.8 lineto
43436.3 33965.3 lineto
43380.1 34021.5 lineto
43267.6 34077.8 lineto
43042.6 34077.8 lineto
42930.1 34021.5 lineto
42873.9 33965.3 lineto
42817.6 33852.8 lineto
stroke
newpath
43942.5 34527.7 moveto
43942.5 34302.7 lineto
stroke
newpath
44392.4 34527.7 moveto
44392.4 34302.7 lineto
stroke
newpath
46136 32896.7 moveto
46079.7 32952.9 lineto
45967.2 33121.6 lineto
45911 33234.1 lineto
45854.8 33402.9 lineto
45798.5 33684.1 lineto
45798.5 33909 lineto
45854.8 34190.3 lineto
45911 34359 lineto
45967.2 34471.5 lineto
46079.7 34640.2 lineto
46136 34696.4 lineto
stroke
newpath
46529.7 34415.2 moveto
46585.9 34471.5 lineto
46698.4 34527.7 lineto
46979.6 34527.7 lineto
47092.1 34471.5 lineto
47148.4 34415.2 lineto
47204.6 34302.7 lineto
47204.6 34190.3 lineto
47148.4 34021.5 lineto
46473.4 33346.6 lineto
47204.6 33346.6 lineto
stroke
newpath
48610.7 33346.6 moveto
48610.7 34527.7 lineto
stroke
newpath
49116.9 33346.6 moveto
49116.9 33965.3 lineto
49060.6 34077.8 lineto
48948.1 34134 lineto
48779.4 34134 lineto
48666.9 34077.8 lineto
48610.7 34021.5 lineto
stroke
newpath
49848 33346.6 moveto
49735.5 33402.9 lineto
49679.3 33459.1 lineto
49623 33571.6 lineto
49623 33909 lineto
49679.3 34021.5 lineto
49735.5 34077.8 lineto
49848 34134 lineto
50016.7 34134 lineto
50129.2 34077.8 lineto
50185.5 34021.5 lineto
50241.7 33909 lineto
50241.7 33571.6 lineto
50185.5 33459.1 lineto
50129.2 33402.9 lineto
50016.7 33346.6 lineto
49848 33346.6 lineto
stroke
newpath
50916.6 33346.6 moveto
50804.1 33402.9 lineto
50747.9 33515.3 lineto
50747.9 34527.7 lineto
stroke
newpath
51816.5 33402.9 moveto
51704 33346.6 lineto
51479.1 33346.6 lineto
51366.6 33402.9 lineto
51310.3 33515.3 lineto
51310.3 33965.3 lineto
51366.6 34077.8 lineto
51479.1 34134 lineto
51704 34134 lineto
51816.5 34077.8 lineto
51872.8 33965.3 lineto
51872.8 33852.8 lineto
51310.3 33740.3 lineto
stroke
newpath
52322.7 33402.9 moveto
52435.2 33346.6 lineto
52660.2 33346.6 lineto
52772.6 33402.9 lineto
52828.9 33515.3 lineto
52828.9 33571.6 lineto
52772.6 33684.1 lineto
52660.2 33740.3 lineto
52491.4 33740.3 lineto
52378.9 33796.6 lineto
52322.7 33909 lineto
52322.7 33965.3 lineto
52378.9 34077.8 lineto
52491.4 34134 lineto
52660.2 34134 lineto
52772.6 34077.8 lineto
stroke
newpath
53222.6 32896.7 moveto
53278.8 32952.9 lineto
53391.3 33121.6 lineto
53447.6 33234.1 lineto
53503.8 33402.9 lineto
53560 33684.1 lineto
53560 33909 lineto
53503.8 34190.3 lineto
53447.6 34359 lineto
53391.3 34471.5 lineto
53278.8 34640.2 lineto
53222.6 34696.4 lineto
stroke
showpage
grestore
%%EOF
