M48
; DRILL file {KiCad 5.1.7-a382d34a8~88~ubuntu20.04.1} date Sat Mar 13 23:47:17 2021
; FORMAT={-:-/ absolute / inch / decimal}
; #@! TF.CreationDate,2021-03-13T23:47:17-06:00
; #@! TF.GenerationSoftware,Kicad,Pcbnew,5.1.7-a382d34a8~88~ubuntu20.04.1
; #@! TF.FileFunction,Plated,1,2,PTH
FMAT,2
INCH
T1C0.0394
%
G90
G05
T1
X5.675Y-3.073
X5.775Y-3.073
X5.875Y-3.073
X5.975Y-3.073
X6.075Y-3.073
X6.175Y-3.073
X6.275Y-3.073
X6.375Y-3.073
X6.475Y-3.073
X6.575Y-3.073
X6.675Y-3.073
T0
M30
