%!PS-Adobe-3.0
%%Creator: PCBNEW
%%CreationDate: Sat Mar 13 23:47:17 2021
%%Title: /home/uli/Documents/KiCad/Boards/LED/LED_SMD_x10/Gerber/LED_SMD_x10-NPTH-drl_map.ps
%%Pages: 1
%%PageOrder: Ascend
%%BoundingBox: 0 0 596 842
%%DocumentMedia: A4 595 842 0 () ()
%%Orientation: Landscape
%%EndComments
%%BeginProlog
/line { newpath moveto lineto stroke } bind def
/cir0 { newpath 0 360 arc stroke } bind def
/cir1 { newpath 0 360 arc gsave fill grestore stroke } bind def
/cir2 { newpath 0 360 arc gsave fill grestore stroke } bind def
/arc0 { newpath arc stroke } bind def
/arc1 { newpath 4 index 4 index moveto arc closepath gsave fill
    grestore stroke } bind def
/arc2 { newpath 4 index 4 index moveto arc closepath gsave fill
    grestore stroke } bind def
/poly0 { stroke } bind def
/poly1 { closepath gsave fill grestore stroke } bind def
/poly2 { closepath gsave fill grestore stroke } bind def
/rect0 { rectstroke } bind def
/rect1 { rectfill } bind def
/rect2 { rectfill } bind def
/linemode0 { 0 setlinecap 0 setlinejoin 0 setlinewidth } bind def
/linemode1 { 1 setlinecap 1 setlinejoin } bind def
/dashedline { [200] 100 setdash } bind def
/solidline { [] 0 setdash } bind def
/phantomshow { moveto
    /KicadFont findfont 0.000001 scalefont setfont
    show } bind def
/textshow { gsave
    findfont exch scalefont setfont concat 1 scale 0 0 moveto show
    } bind def
/reencodefont {
  findfont dup length dict begin
  { 1 index /FID ne
    { def }
    { pop pop } ifelse
  } forall
  /Encoding ISOLatin1Encoding def
  currentdict
  end } bind def
/KicadFont /Helvetica reencodefont definefont pop
/KicadFont-Bold /Helvetica-Bold reencodefont definefont pop
/KicadFont-Oblique /Helvetica-Oblique reencodefont definefont pop
/KicadFont-BoldOblique /Helvetica-BoldOblique reencodefont definefont pop
%%EndProlog
%%Page: 1 1
%%BeginPageSetup
gsave
0.0072 0.0072 scale
linemode1
82680 0 translate 90 rotate
150 setlinewidth
%%EndPageSetup
0 0 0 setrgbcolor
59.0551 setlinewidth
newpath
41365 63276 moveto
41365 52476 lineto
stroke
0 0 0 setrgbcolor
newpath
74965 63876 moveto
41965 63876 lineto
stroke
0 0 0 setrgbcolor
newpath
75565 52476 moveto
75565 63276 lineto
stroke
0 0 0 setrgbcolor
newpath
41965 51876 moveto
74965 51876 lineto
stroke
0 0 0 setrgbcolor
41965 63276 600 90 180 arc0
0 0 0 setrgbcolor
74965 63276 600 -0 90 arc0
0 0 0 setrgbcolor
74965 52476 600 -90 -0 arc0
0 0 0 setrgbcolor
41965 52476 600 180 270 arc0
78.7394 setlinewidth
118.11 setlinewidth
0 0 0 setrgbcolor
0 0 0 setrgbcolor
newpath
42463.1 50013 moveto
42463.1 51194.1 lineto
42744.4 51194.1 lineto
42913.1 51137.8 lineto
43025.6 51025.3 lineto
43081.8 50912.8 lineto
43138.1 50687.9 lineto
43138.1 50519.1 lineto
43081.8 50294.2 lineto
43025.6 50181.7 lineto
42913.1 50069.2 lineto
42744.4 50013 lineto
42463.1 50013 lineto
stroke
newpath
43644.2 50013 moveto
43644.2 50800.4 lineto
stroke
newpath
43644.2 50575.4 moveto
43700.5 50687.9 lineto
43756.7 50744.1 lineto
43869.2 50800.4 lineto
43981.7 50800.4 lineto
stroke
newpath
44375.4 50013 moveto
44375.4 50800.4 lineto
stroke
newpath
44375.4 51194.1 moveto
44319.2 51137.8 lineto
44375.4 51081.6 lineto
44431.6 51137.8 lineto
44375.4 51194.1 lineto
44375.4 51081.6 lineto
stroke
newpath
45106.6 50013 moveto
44994.1 50069.2 lineto
44937.8 50181.7 lineto
44937.8 51194.1 lineto
stroke
newpath
45725.2 50013 moveto
45612.7 50069.2 lineto
45556.5 50181.7 lineto
45556.5 51194.1 lineto
stroke
newpath
47075.1 50013 moveto
47075.1 51194.1 lineto
47468.8 50350.4 lineto
47862.5 51194.1 lineto
47862.5 50013 lineto
stroke
newpath
48931.1 50013 moveto
48931.1 50631.6 lineto
48874.8 50744.1 lineto
48762.4 50800.4 lineto
48537.4 50800.4 lineto
48424.9 50744.1 lineto
stroke
newpath
48931.1 50069.2 moveto
48818.6 50013 lineto
48537.4 50013 lineto
48424.9 50069.2 lineto
48368.7 50181.7 lineto
48368.7 50294.2 lineto
48424.9 50406.7 lineto
48537.4 50462.9 lineto
48818.6 50462.9 lineto
48931.1 50519.1 lineto
stroke
newpath
49493.5 50800.4 moveto
49493.5 49619.2 lineto
stroke
newpath
49493.5 50744.1 moveto
49606 50800.4 lineto
49831 50800.4 lineto
49943.5 50744.1 lineto
49999.7 50687.9 lineto
50055.9 50575.4 lineto
50055.9 50237.9 lineto
49999.7 50125.4 lineto
49943.5 50069.2 lineto
49831 50013 lineto
49606 50013 lineto
49493.5 50069.2 lineto
stroke
newpath
50562.1 50125.4 moveto
50618.4 50069.2 lineto
50562.1 50013 lineto
50505.9 50069.2 lineto
50562.1 50125.4 lineto
50562.1 50013 lineto
stroke
newpath
50562.1 50744.1 moveto
50618.4 50687.9 lineto
50562.1 50631.6 lineto
50505.9 50687.9 lineto
50562.1 50744.1 lineto
50562.1 50631.6 lineto
stroke
showpage
grestore
%%EOF
