(module LOGO (layer F.Cu)
  (at 0 0)
 (fp_text reference "G***" (at 0 0) (layer F.SilkS) hide
  (effects (font (thickness 0.3)))
  )
  (fp_text value "LOGO" (at 0.75 0) (layer F.SilkS) hide
  (effects (font (thickness 0.3)))
  )
  (fp_poly (pts (xy -3.342867 -0.468956) (xy -3.302000 -0.421445) (xy -3.302000 0.103385) (xy -3.302213 0.262505) (xy -3.303226 0.391234) (xy -3.305603 0.493046) (xy -3.309906 0.571417) (xy -3.316697 0.629821)
     (xy -3.326540 0.671732) (xy -3.339997 0.700626) (xy -3.357631 0.719976) (xy -3.380004 0.733259) (xy -3.405613 0.743230) (xy -3.439025 0.748811) (xy -3.500958 0.753439) (xy -3.586079 0.757115)
     (xy -3.689057 0.759837) (xy -3.804560 0.761607) (xy -3.927256 0.762423) (xy -4.051812 0.762285) (xy -4.172897 0.761193) (xy -4.285180 0.759147) (xy -4.383327 0.756146) (xy -4.462008 0.752190)
     (xy -4.515890 0.747280) (xy -4.535964 0.743285) (xy -4.578295 0.721289) (xy -4.605891 0.694205) (xy -4.606224 0.693598) (xy -4.611393 0.667443) (xy -4.615880 0.612931) (xy -4.619440 0.535569)
     (xy -4.621825 0.440863) (xy -4.622791 0.334320) (xy -4.622794 0.330200) (xy -4.199467 0.330200) (xy -4.197313 0.401542) (xy -4.189411 0.449507) (xy -4.173595 0.484397) (xy -4.164371 0.497249)
     (xy -4.117329 0.533275) (xy -4.061992 0.540740) (xy -4.008866 0.518973) (xy -3.996267 0.507999) (xy -3.978945 0.485273) (xy -3.968631 0.454175) (xy -3.963668 0.406191) (xy -3.962400 0.333967)
     (xy -3.965963 0.242084) (xy -3.978150 0.179055) (xy -4.001204 0.140476) (xy -4.037373 0.121941) (xy -4.072198 0.118533) (xy -4.128556 0.129465) (xy -4.167526 0.163927) (xy -4.190610 0.224418)
     (xy -4.199309 0.313434) (xy -4.199467 0.330200) (xy -4.622794 0.330200) (xy -4.622800 0.322846) (xy -4.622581 0.206579) (xy -4.621642 0.119381) (xy -4.619559 0.056458) (xy -4.615908 0.013014)
     (xy -4.610266 -0.015746) (xy -4.602210 -0.034619) (xy -4.591315 -0.048398) (xy -4.589878 -0.049856) (xy -4.567357 -0.068074) (xy -4.538091 -0.081736) (xy -4.497555 -0.091328) (xy -4.441221 -0.097336)
     (xy -4.364563 -0.100248) (xy -4.263053 -0.100550) (xy -4.134709 -0.098775) (xy -4.011742 -0.096661) (xy -3.918377 -0.093023) (xy -3.850413 -0.084249) (xy -3.803651 -0.066723) (xy -3.773889 -0.036831)
     (xy -3.756927 0.009040) (xy -3.748565 0.074505) (xy -3.744603 0.163179) (xy -3.742267 0.238911) (xy -3.738561 0.338312) (xy -3.734569 0.409322) (xy -3.729480 0.457413) (xy -3.722482 0.488057)
     (xy -3.712765 0.506726) (xy -3.700930 0.517881) (xy -3.649080 0.539063) (xy -3.594125 0.536571) (xy -3.550307 0.511064) (xy -3.550158 0.510899) (xy -3.540956 0.496989) (xy -3.533978 0.475369)
     (xy -3.528931 0.441689) (xy -3.525518 0.391596) (xy -3.523444 0.320740) (xy -3.522414 0.224769) (xy -3.522134 0.099331) (xy -3.522133 0.097845) (xy -3.522387 -0.027103) (xy -3.523334 -0.122269)
     (xy -3.525254 -0.191735) (xy -3.528424 -0.239583) (xy -3.533123 -0.269895) (xy -3.539630 -0.286754) (xy -3.548224 -0.294241) (xy -3.548918 -0.294522) (xy -3.571499 -0.296869) (xy -3.623987 -0.299028)
     (xy -3.702424 -0.300936) (xy -3.802849 -0.302530) (xy -3.921304 -0.303747) (xy -4.053830 -0.304525) (xy -4.196468 -0.304800) (xy -4.197465 -0.304801) (xy -4.372205 -0.304487) (xy -4.515371 -0.303498)
     (xy -4.629250 -0.301761) (xy -4.716130 -0.299205) (xy -4.778297 -0.295755) (xy -4.818040 -0.291341) (xy -4.837645 -0.285889) (xy -4.839547 -0.284480) (xy -4.845257 -0.262204) (xy -4.850104 -0.210831)
     (xy -4.854087 -0.135122) (xy -4.857207 -0.039837) (xy -4.859463 0.070266) (xy -4.860856 0.190427) (xy -4.861386 0.315886) (xy -4.861051 0.441883) (xy -4.859854 0.563659) (xy -4.857793 0.676454)
     (xy -4.854868 0.775508) (xy -4.851081 0.856063) (xy -4.846429 0.913357) (xy -4.840914 0.942633) (xy -4.839547 0.944880) (xy -4.824961 0.950219) (xy -4.791383 0.954645) (xy -4.736631 0.958219)
     (xy -4.658521 0.961002) (xy -4.554873 0.963056) (xy -4.423505 0.964442) (xy -4.262233 0.965221) (xy -4.107180 0.965449) (xy -3.923066 0.965657) (xy -3.769913 0.966316) (xy -3.644815 0.967694)
     (xy -3.544867 0.970056) (xy -3.467164 0.973668) (xy -3.408799 0.978797) (xy -3.366868 0.985709) (xy -3.338465 0.994669) (xy -3.320685 1.005943) (xy -3.310622 1.019799) (xy -3.305371 1.036502)
     (xy -3.304884 1.038931) (xy -3.306968 1.099527) (xy -3.334954 1.147295) (xy -3.361658 1.165496) (xy -3.389849 1.170618) (xy -3.447545 1.175020) (xy -3.530535 1.178706) (xy -3.634606 1.181683)
     (xy -3.755545 1.183955) (xy -3.889141 1.185526) (xy -4.031181 1.186402) (xy -4.177453 1.186589) (xy -4.323744 1.186089) (xy -4.465843 1.184910) (xy -4.599536 1.183055) (xy -4.720613 1.180529)
     (xy -4.824859 1.177338) (xy -4.908064 1.173486) (xy -4.966015 1.168978) (xy -4.994499 1.163820) (xy -4.995000 1.163583) (xy -5.014645 1.153000) (xy -5.031001 1.140904) (xy -5.044350 1.124318)
     (xy -5.054973 1.100264) (xy -5.063151 1.065764) (xy -5.069168 1.017839) (xy -5.073304 0.953512) (xy -5.075841 0.869805) (xy -5.077061 0.763739) (xy -5.077246 0.632338) (xy -5.076676 0.472622)
     (xy -5.075794 0.309490) (xy -5.071533 -0.439353) (xy -4.994393 -0.516467) (xy -3.383735 -0.516467) (xy -3.342867 -0.468956) )(layer F.SilkS) (width  0.010000)
  )
  (fp_poly (pts (xy -2.932680 -1.157429) (xy -2.927109 -1.152999) (xy -2.912695 -1.140070) (xy -2.902125 -1.124631) (xy -2.894683 -1.101484) (xy -2.889654 -1.065431) (xy -2.886323 -1.011274) (xy -2.883974 -0.933814)
     (xy -2.881892 -0.827853) (xy -2.881822 -0.823978) (xy -2.878686 -0.701467) (xy -2.874146 -0.610770) (xy -2.868033 -0.549860) (xy -2.860180 -0.516706) (xy -2.855826 -0.510124) (xy -2.832513 -0.504405)
     (xy -2.779394 -0.499113) (xy -2.700529 -0.494479) (xy -2.599980 -0.490730) (xy -2.481806 -0.488098) (xy -2.460297 -0.487779) (xy -2.338350 -0.485995) (xy -2.245619 -0.484119) (xy -2.177454 -0.481635)
     (xy -2.129208 -0.478031) (xy -2.096230 -0.472793) (xy -2.073873 -0.465408) (xy -2.057487 -0.455362) (xy -2.042424 -0.442141) (xy -2.041793 -0.441549) (xy -1.998133 -0.400497) (xy -1.998133 0.162858)
     (xy -1.998172 0.315688) (xy -1.998439 0.438201) (xy -1.999160 0.533945) (xy -2.000562 0.606468) (xy -2.002872 0.659319) (xy -2.006315 0.696048) (xy -2.011119 0.720202) (xy -2.017510 0.735331)
     (xy -2.025714 0.744982) (xy -2.035768 0.752573) (xy -2.089593 0.776612) (xy -2.138004 0.767777) (xy -2.167467 0.745066) (xy -2.177487 0.733514) (xy -2.185312 0.718606) (xy -2.191210 0.696343)
     (xy -2.195455 0.662723) (xy -2.198315 0.613745) (xy -2.200061 0.545408) (xy -2.200965 0.453712) (xy -2.201297 0.334654) (xy -2.201333 0.244420) (xy -2.201984 0.096404) (xy -2.203875 -0.029185)
     (xy -2.206917 -0.129797) (xy -2.211022 -0.202881) (xy -2.216098 -0.245887) (xy -2.218863 -0.255114) (xy -2.229658 -0.269408) (xy -2.247993 -0.278844) (xy -2.280167 -0.284408) (xy -2.332482 -0.287083)
     (xy -2.411237 -0.287855) (xy -2.428456 -0.287867) (xy -2.523672 -0.286403) (xy -2.588563 -0.281771) (xy -2.626557 -0.273613) (xy -2.638743 -0.265909) (xy -2.644989 -0.241204) (xy -2.650430 -0.183895)
     (xy -2.655009 -0.095236) (xy -2.658665 0.023517) (xy -2.661339 0.171110) (xy -2.661983 0.224714) (xy -2.663539 0.362898) (xy -2.665127 0.471242) (xy -2.667089 0.553770) (xy -2.669767 0.614508)
     (xy -2.673503 0.657480) (xy -2.678638 0.686712) (xy -2.685515 0.706227) (xy -2.694475 0.720052) (xy -2.705012 0.731364) (xy -2.734034 0.753363) (xy -2.772828 0.766180) (xy -2.831687 0.772692)
     (xy -2.857412 0.773954) (xy -2.921744 0.774085) (xy -2.976762 0.769885) (xy -3.008088 0.763028) (xy -3.027516 0.754613) (xy -3.043952 0.745534) (xy -3.057646 0.733077) (xy -3.068848 0.714523)
     (xy -3.077809 0.687156) (xy -3.084778 0.648258) (xy -3.090006 0.595113) (xy -3.093742 0.525002) (xy -3.096236 0.435210) (xy -3.097740 0.323019) (xy -3.098501 0.185712) (xy -3.098772 0.020572)
     (xy -3.098801 -0.175118) (xy -3.098800 -0.222673) (xy -3.098800 -1.115142) (xy -3.054183 -1.150238) (xy -3.009490 -1.178797) (xy -2.973205 -1.181102) (xy -2.932680 -1.157429) )(layer F.SilkS) (width  0.010000)
  )
  (fp_poly (pts (xy -1.320220 -0.490159) (xy -1.222316 -0.487614) (xy -1.141692 -0.483702) (xy -1.084065 -0.478693) (xy -1.056583 -0.473468) (xy -1.030350 -0.462590) (xy -1.009753 -0.449603) (xy -0.994087 -0.430574)
     (xy -0.982645 -0.401570) (xy -0.974722 -0.358658) (xy -0.969613 -0.297904) (xy -0.966611 -0.215377) (xy -0.965012 -0.107144) (xy -0.964110 0.030730) (xy -0.964051 0.042333) (xy -0.963009 0.163232)
     (xy -0.961233 0.274710) (xy -0.958868 0.371737) (xy -0.956058 0.449287) (xy -0.952950 0.502329) (xy -0.950144 0.524529) (xy -0.933569 0.554630) (xy -0.898553 0.572951) (xy -0.867235 0.580545)
     (xy -0.804673 0.604079) (xy -0.771221 0.643487) (xy -0.767848 0.697538) (xy -0.769500 0.704909) (xy -0.792690 0.742343) (xy -0.822842 0.762598) (xy -0.852010 0.767219) (xy -0.909148 0.770988)
     (xy -0.988511 0.773906) (xy -1.084355 0.775970) (xy -1.190937 0.777180) (xy -1.302512 0.777534) (xy -1.413337 0.777031) (xy -1.517667 0.775668) (xy -1.609760 0.773446) (xy -1.683870 0.770362)
     (xy -1.734254 0.766416) (xy -1.753188 0.762820) (xy -1.782381 0.748634) (xy -1.804045 0.729819) (xy -1.819437 0.701408) (xy -1.829816 0.658433) (xy -1.836438 0.595925) (xy -1.840562 0.508917)
     (xy -1.843136 0.407464) (xy -1.843602 0.355600) (xy -1.405467 0.355600) (xy -1.398971 0.452895) (xy -1.378788 0.520706) (xy -1.343879 0.560965) (xy -1.293203 0.575603) (xy -1.286934 0.575733)
     (xy -1.233471 0.559459) (xy -1.203496 0.531116) (xy -1.184149 0.499369) (xy -1.173296 0.459153) (xy -1.168860 0.400384) (xy -1.168400 0.360669) (xy -1.172977 0.265402) (xy -1.188064 0.199157)
     (xy -1.215695 0.158169) (xy -1.257907 0.138672) (xy -1.289938 0.135725) (xy -1.341386 0.148367) (xy -1.377297 0.187907) (xy -1.398411 0.255752) (xy -1.405464 0.353306) (xy -1.405467 0.355600)
     (xy -1.843602 0.355600) (xy -1.844291 0.279172) (xy -1.842068 0.174134) (xy -1.836610 0.096017) (xy -1.829438 0.053170) (xy -1.814004 0.010687) (xy -1.790678 -0.020723) (xy -1.754700 -0.042652)
     (xy -1.701316 -0.056692) (xy -1.625766 -0.064436) (xy -1.523294 -0.067476) (xy -1.468229 -0.067734) (xy -1.376260 -0.068060) (xy -1.311878 -0.069661) (xy -1.268804 -0.073474) (xy -1.240759 -0.080434)
     (xy -1.221466 -0.091476) (xy -1.205219 -0.106925) (xy -1.174611 -0.150907) (xy -1.173547 -0.192500) (xy -1.201908 -0.241218) (xy -1.203496 -0.243250) (xy -1.238592 -0.287867) (xy -1.497546 -0.287867)
     (xy -1.597885 -0.288229) (xy -1.670291 -0.289771) (xy -1.720693 -0.293178) (xy -1.755022 -0.299137) (xy -1.779206 -0.308333) (xy -1.799177 -0.321451) (xy -1.801117 -0.322963) (xy -1.832025 -0.356085)
     (xy -1.845697 -0.388169) (xy -1.845734 -0.389467) (xy -1.833219 -0.421069) (xy -1.802920 -0.454527) (xy -1.801117 -0.455971) (xy -1.783556 -0.468160) (xy -1.762934 -0.477154) (xy -1.734155 -0.483436)
     (xy -1.692126 -0.487486) (xy -1.631749 -0.489788) (xy -1.547930 -0.490821) (xy -1.435573 -0.491067) (xy -1.429686 -0.491067) (xy -1.320220 -0.490159) )(layer F.SilkS) (width  0.010000)
  )
  (fp_poly (pts (xy -0.150094 -0.482603) (xy -0.141997 -0.482600) (xy 0.273865 -0.482600) (xy 0.314733 -0.435090) (xy 0.336031 -0.405963) (xy 0.348405 -0.373544) (xy 0.354159 -0.327746) (xy 0.355599 -0.258485)
     (xy 0.355600 -0.256293) (xy 0.352548 -0.173332) (xy 0.341605 -0.117665) (xy 0.320086 -0.083121) (xy 0.285309 -0.063532) (xy 0.269863 -0.059152) (xy 0.216563 -0.061263) (xy 0.174004 -0.093021)
     (xy 0.145474 -0.151037) (xy 0.136504 -0.196631) (xy 0.127000 -0.279401) (xy -0.124706 -0.284098) (xy -0.238789 -0.285041) (xy -0.321301 -0.282917) (xy -0.374408 -0.277604) (xy -0.400278 -0.268984)
     (xy -0.400516 -0.268791) (xy -0.413246 -0.247850) (xy -0.419696 -0.207717) (xy -0.420612 -0.142293) (xy -0.419743 -0.111694) (xy -0.414867 0.025400) (xy -0.076200 0.034332) (xy 0.028933 0.037707)
     (xy 0.123559 0.041880) (xy 0.202050 0.046512) (xy 0.258779 0.051263) (xy 0.288118 0.055792) (xy 0.289806 0.056431) (xy 0.313849 0.074295) (xy 0.331525 0.104404) (xy 0.343684 0.151272)
     (xy 0.351174 0.219413) (xy 0.354844 0.313340) (xy 0.355600 0.406399) (xy 0.354522 0.521148) (xy 0.350480 0.606874) (xy 0.342263 0.668377) (xy 0.328660 0.710454) (xy 0.308460 0.737906)
     (xy 0.280452 0.755531) (xy 0.266072 0.761157) (xy 0.233279 0.766596) (xy 0.173344 0.770961) (xy 0.092524 0.774243) (xy -0.002927 0.776435) (xy -0.106755 0.777529) (xy -0.212704 0.777519)
     (xy -0.314519 0.776395) (xy -0.405947 0.774152) (xy -0.480732 0.770781) (xy -0.532620 0.766275) (xy -0.552755 0.762142) (xy -0.596283 0.734765) (xy -0.624405 0.690898) (xy -0.639374 0.625004)
     (xy -0.643467 0.539308) (xy -0.640886 0.460882) (xy -0.632555 0.410564) (xy -0.617967 0.383318) (xy -0.565992 0.349978) (xy -0.511780 0.348939) (xy -0.482562 0.362534) (xy -0.458923 0.383770)
     (xy -0.442051 0.415974) (xy -0.429170 0.466829) (xy -0.417785 0.541866) (xy -0.400577 0.554917) (xy -0.358848 0.565034) (xy -0.301851 0.571751) (xy -0.238842 0.574603) (xy -0.179076 0.573122)
     (xy -0.131807 0.566845) (xy -0.108426 0.557437) (xy -0.095950 0.530278) (xy -0.087835 0.480139) (xy -0.084202 0.417642) (xy -0.085174 0.353409) (xy -0.090872 0.298061) (xy -0.101417 0.262219)
     (xy -0.104987 0.257386) (xy -0.134126 0.246796) (xy -0.195970 0.240024) (xy -0.289564 0.237162) (xy -0.314127 0.237066) (xy -0.396326 0.235463) (xy -0.470892 0.231130) (xy -0.528322 0.224777)
     (xy -0.554674 0.219034) (xy -0.586955 0.203679) (xy -0.610668 0.180247) (xy -0.626898 0.144062) (xy -0.636734 0.090451) (xy -0.641261 0.014742) (xy -0.641565 -0.087739) (xy -0.640483 -0.150036)
     (xy -0.638977 -0.246115) (xy -0.636626 -0.321750) (xy -0.629786 -0.379373) (xy -0.614813 -0.421414) (xy -0.588062 -0.450305) (xy -0.545889 -0.468477) (xy -0.484650 -0.478362) (xy -0.400701 -0.482390)
     (xy -0.290397 -0.482993) (xy -0.150094 -0.482603) )(layer F.SilkS) (width  0.010000)
  )
  (fp_poly (pts (xy 1.342720 -0.482993) (xy 1.439239 -0.480580) (xy 1.511936 -0.473847) (xy 1.564147 -0.460857) (xy 1.599208 -0.439675) (xy 1.620458 -0.408365) (xy 1.631233 -0.364992) (xy 1.634870 -0.307618)
     (xy 1.634706 -0.234309) (xy 1.634066 -0.152400) (xy 1.634057 -0.042587) (xy 1.631183 0.039665) (xy 1.621176 0.098430) (xy 1.599766 0.137787) (xy 1.562685 0.161810) (xy 1.505663 0.174577)
     (xy 1.424432 0.180162) (xy 1.314722 0.182644) (xy 1.282541 0.183253) (xy 1.182073 0.186299) (xy 1.096962 0.190932) (xy 1.032544 0.196733) (xy 0.994155 0.203283) (xy 0.986632 0.206493)
     (xy 0.975174 0.232896) (xy 0.967753 0.283279) (xy 0.964309 0.348005) (xy 0.964785 0.417435) (xy 0.969121 0.481932) (xy 0.977259 0.531858) (xy 0.988768 0.557279) (xy 1.019945 0.566974)
     (xy 1.084508 0.572105) (xy 1.182284 0.572660) (xy 1.213135 0.572053) (xy 1.413933 0.567266) (xy 1.423898 0.492590) (xy 1.443919 0.423226) (xy 1.472341 0.386757) (xy 1.516225 0.360320)
     (xy 1.554673 0.362321) (xy 1.597379 0.393668) (xy 1.602768 0.398962) (xy 1.625069 0.424112) (xy 1.637409 0.450173) (xy 1.641960 0.487074) (xy 1.640895 0.544749) (xy 1.639777 0.568146)
     (xy 1.634327 0.638643) (xy 1.624909 0.684883) (xy 1.608919 0.716448) (xy 1.595201 0.732217) (xy 1.583071 0.743484) (xy 1.569164 0.752324) (xy 1.549459 0.759067) (xy 1.519934 0.764044)
     (xy 1.476568 0.767587) (xy 1.415337 0.770028) (xy 1.332221 0.771696) (xy 1.223197 0.772923) (xy 1.087522 0.774016) (xy 0.963103 0.774420) (xy 0.848436 0.773769) (xy 0.748282 0.772174)
     (xy 0.667401 0.769742) (xy 0.610552 0.766581) (xy 0.582495 0.762798) (xy 0.581778 0.762532) (xy 0.557538 0.751488) (xy 0.538051 0.738187) (xy 0.522798 0.719079) (xy 0.511261 0.690614)
     (xy 0.502923 0.649243) (xy 0.497264 0.591416) (xy 0.493768 0.513585) (xy 0.491915 0.412198) (xy 0.491187 0.283706) (xy 0.491067 0.141109) (xy 0.491067 -0.124094) (xy 0.969193 -0.124094)
     (xy 0.994834 -0.072218) (xy 0.999067 -0.067734) (xy 1.019879 -0.051474) (xy 1.047956 -0.041342) (xy 1.091088 -0.035974) (xy 1.157064 -0.034007) (xy 1.192571 -0.033867) (xy 1.267611 -0.034410)
     (xy 1.316657 -0.037241) (xy 1.347579 -0.044164) (xy 1.368244 -0.056980) (xy 1.386524 -0.077494) (xy 1.387304 -0.078484) (xy 1.412040 -0.120971) (xy 1.422400 -0.160703) (xy 1.422400 -0.160867)
     (xy 1.412141 -0.200528) (xy 1.387456 -0.243057) (xy 1.387304 -0.243250) (xy 1.368878 -0.264172) (xy 1.348351 -0.277271) (xy 1.317810 -0.284369) (xy 1.269340 -0.287293) (xy 1.195029 -0.287867)
     (xy 1.193800 -0.287867) (xy 1.119081 -0.287313) (xy 1.070312 -0.284433) (xy 1.039580 -0.277404) (xy 1.018969 -0.264400) (xy 1.000568 -0.243596) (xy 1.000296 -0.243250) (xy 0.971037 -0.184479)
     (xy 0.969193 -0.124094) (xy 0.491067 -0.124094) (xy 0.491067 -0.387579) (xy 0.531934 -0.435090) (xy 0.572801 -0.482600) (xy 1.064863 -0.482600) (xy 1.219040 -0.483021) (xy 1.342720 -0.482993) )(layer F.SilkS) (width  0.010000)
  )
  (fp_poly (pts (xy 2.736199 -0.435090) (xy 2.757942 -0.405129) (xy 2.770357 -0.371583) (xy 2.775906 -0.323991) (xy 2.777066 -0.261523) (xy 2.774182 -0.180564) (xy 2.761927 -0.125764) (xy 2.734896 -0.092118)
     (xy 2.687685 -0.074626) (xy 2.614888 -0.068286) (xy 2.567683 -0.067734) (xy 2.469758 -0.072952) (xy 2.401070 -0.089737) (xy 2.358461 -0.119782) (xy 2.338774 -0.164782) (xy 2.336541 -0.191730)
     (xy 2.333969 -0.235476) (xy 2.322791 -0.263589) (xy 2.297048 -0.279153) (xy 2.250785 -0.285249) (xy 2.178043 -0.284959) (xy 2.157568 -0.284334) (xy 2.006600 -0.279401) (xy 2.006600 0.567266)
     (xy 2.548466 0.567266) (xy 2.558432 0.492590) (xy 2.578450 0.424817) (xy 2.614812 0.379641) (xy 2.663053 0.361381) (xy 2.691329 0.363951) (xy 2.732323 0.380667) (xy 2.758389 0.411192)
     (xy 2.772342 0.461719) (xy 2.776996 0.538442) (xy 2.777066 0.552625) (xy 2.775433 0.620765) (xy 2.768820 0.665836) (xy 2.754659 0.698550) (xy 2.736228 0.722955) (xy 2.695389 0.770466)
     (xy 2.300194 0.774074) (xy 2.185964 0.774473) (xy 2.081525 0.773623) (xy 1.992160 0.771665) (xy 1.923152 0.768738) (xy 1.879785 0.764983) (xy 1.868712 0.762589) (xy 1.844470 0.751509)
     (xy 1.824982 0.738184) (xy 1.809729 0.719064) (xy 1.798192 0.690597) (xy 1.789854 0.649234) (xy 1.784196 0.591422) (xy 1.780700 0.513613) (xy 1.778848 0.412254) (xy 1.778120 0.283795)
     (xy 1.778000 0.141109) (xy 1.778000 -0.387579) (xy 1.818867 -0.435090) (xy 1.859734 -0.482600) (xy 2.695332 -0.482600) (xy 2.736199 -0.435090) )(layer F.SilkS) (width  0.010000)
  )
  (fp_poly (pts (xy 3.083033 -0.457349) (xy 3.091103 -0.449504) (xy 3.110438 -0.427557) (xy 3.122639 -0.403243) (xy 3.129329 -0.368522) (xy 3.132130 -0.315356) (xy 3.132666 -0.243508) (xy 3.132666 -0.079077)
     (xy 3.233332 0.025756) (xy 3.281081 0.079076) (xy 3.319463 0.128606) (xy 3.341994 0.165756) (xy 3.344714 0.173290) (xy 3.348241 0.205430) (xy 3.350458 0.263859) (xy 3.351226 0.341019)
     (xy 3.350407 0.429351) (xy 3.349883 0.454707) (xy 3.347296 0.550046) (xy 3.344069 0.617617) (xy 3.339241 0.663516) (xy 3.331853 0.693839) (xy 3.320945 0.714684) (xy 3.306321 0.731386)
     (xy 3.277280 0.753378) (xy 3.238445 0.766191) (xy 3.179524 0.772699) (xy 3.153921 0.773954) (xy 3.089589 0.774085) (xy 3.034571 0.769885) (xy 3.003245 0.763028) (xy 2.979302 0.751868)
     (xy 2.959991 0.738670) (xy 2.944814 0.719932) (xy 2.933274 0.692149) (xy 2.924873 0.651820) (xy 2.919113 0.595440) (xy 2.915496 0.519508) (xy 2.913526 0.420520) (xy 2.912705 0.294973)
     (xy 2.912534 0.139363) (xy 2.912533 0.124461) (xy 2.912533 -0.420876) (xy 2.957150 -0.455971) (xy 3.003966 -0.484962) (xy 3.042317 -0.485595) (xy 3.083033 -0.457349) )(layer F.SilkS) (width  0.010000)
  )
  (fp_poly (pts (xy 3.658766 -1.151616) (xy 3.666836 -1.143770) (xy 3.708400 -1.102207) (xy 3.708400 -0.085342) (xy 3.809436 0.026147) (xy 3.868273 0.097093) (xy 3.906903 0.156843) (xy 3.920900 0.193221)
     (xy 3.924439 0.231132) (xy 3.926550 0.294374) (xy 3.927086 0.374433) (xy 3.925900 0.462797) (xy 3.925697 0.471113) (xy 3.922935 0.562875) (xy 3.919385 0.627164) (xy 3.913977 0.670370)
     (xy 3.905638 0.698885) (xy 3.893297 0.719101) (xy 3.882055 0.731386) (xy 3.853014 0.753377) (xy 3.814179 0.766190) (xy 3.755258 0.772699) (xy 3.729655 0.773954) (xy 3.665322 0.774085)
     (xy 3.610305 0.769885) (xy 3.578978 0.763028) (xy 3.559551 0.754613) (xy 3.543115 0.745534) (xy 3.529421 0.733077) (xy 3.518218 0.714523) (xy 3.509258 0.687156) (xy 3.502289 0.648258)
     (xy 3.497061 0.595113) (xy 3.493325 0.525002) (xy 3.490830 0.435210) (xy 3.489327 0.323019) (xy 3.488565 0.185712) (xy 3.488295 0.020572) (xy 3.488265 -0.175118) (xy 3.488267 -0.222673)
     (xy 3.488267 -1.115142) (xy 3.532883 -1.150238) (xy 3.579700 -1.179228) (xy 3.618051 -1.179862) (xy 3.658766 -1.151616) )(layer F.SilkS) (width  0.010000)
  )
  (fp_poly (pts (xy 4.234499 -0.457349) (xy 4.242570 -0.449504) (xy 4.261783 -0.427735) (xy 4.273959 -0.403648) (xy 4.280685 -0.369290) (xy 4.283548 -0.316708) (xy 4.284133 -0.241159) (xy 4.284133 -0.074377)
     (xy 4.345502 -0.016022) (xy 4.395131 0.035610) (xy 4.443729 0.092894) (xy 4.455569 0.108373) (xy 4.477305 0.139747) (xy 4.491381 0.168618) (xy 4.499456 0.203373) (xy 4.503186 0.252398)
     (xy 4.504229 0.324079) (xy 4.504267 0.354753) (xy 4.506345 0.451489) (xy 4.512471 0.518022) (xy 4.522484 0.552759) (xy 4.524587 0.555413) (xy 4.551478 0.565520) (xy 4.601514 0.572151)
     (xy 4.664137 0.575176) (xy 4.728789 0.574462) (xy 4.784915 0.569877) (xy 4.821955 0.561290) (xy 4.826000 0.559173) (xy 4.833536 0.549968) (xy 4.839616 0.530532) (xy 4.844454 0.497341)
     (xy 4.848265 0.446868) (xy 4.851264 0.375587) (xy 4.853666 0.279974) (xy 4.855687 0.156503) (xy 4.856997 0.050929) (xy 4.862594 -0.441273) (xy 4.901770 -0.466943) (xy 4.951180 -0.483212)
     (xy 5.002185 -0.476062) (xy 5.041036 -0.448103) (xy 5.046580 -0.439433) (xy 5.051605 -0.413115) (xy 5.055731 -0.358018) (xy 5.058971 -0.279215) (xy 5.061337 -0.181780) (xy 5.062842 -0.070789)
     (xy 5.063498 0.048684) (xy 5.063317 0.171565) (xy 5.062312 0.292780) (xy 5.060495 0.407254) (xy 5.057878 0.509913) (xy 5.054474 0.595682) (xy 5.050295 0.659487) (xy 5.045354 0.696254)
     (xy 5.043799 0.701093) (xy 5.014129 0.737098) (xy 4.973539 0.761157) (xy 4.940745 0.766596) (xy 4.880811 0.770961) (xy 4.799991 0.774243) (xy 4.704540 0.776435) (xy 4.600712 0.777529)
     (xy 4.494763 0.777519) (xy 4.392947 0.776395) (xy 4.301519 0.774152) (xy 4.226734 0.770781) (xy 4.174847 0.766275) (xy 4.154712 0.762142) (xy 4.130791 0.751538) (xy 4.111492 0.738706)
     (xy 4.096320 0.720160) (xy 4.084779 0.692415) (xy 4.076372 0.651982) (xy 4.070604 0.595377) (xy 4.066979 0.519113) (xy 4.065001 0.419703) (xy 4.064173 0.293661) (xy 4.064000 0.137501)
     (xy 4.064000 -0.420876) (xy 4.108617 -0.455971) (xy 4.155433 -0.484962) (xy 4.193784 -0.485595) (xy 4.234499 -0.457349) )(layer F.SilkS) (width  0.010000)
  )
  (fp_poly (pts (xy 3.077427 -0.919738) (xy 3.089481 -0.908325) (xy 3.124386 -0.862964) (xy 3.128095 -0.822712) (xy 3.100701 -0.779713) (xy 3.091103 -0.769697) (xy 3.048882 -0.736408) (xy 3.010896 -0.732089)
     (xy 2.966316 -0.756216) (xy 2.957150 -0.763230) (xy 2.921022 -0.808544) (xy 2.914393 -0.857783) (xy 2.935208 -0.902565) (xy 2.981416 -0.934508) (xy 3.000581 -0.940496) (xy 3.040612 -0.941783)
     (xy 3.077427 -0.919738) )(layer F.SilkS) (width  0.010000)
  )
)
