EESchema Schematic File Version 4
EELAYER 30 0
EELAYER END
$Descr A4 11693 8268
encoding utf-8
Sheet 1 1
Title "LED board"
Date "2021-03-13"
Rev "1.1"
Comp "hasecilu"
Comment1 "0805 version"
Comment2 ""
Comment3 ""
Comment4 ""
$EndDescr
$Comp
L Connector_Generic:Conn_01x11 J1
U 1 1 5D29429E
P 5275 3575
F 0 "J1" H 5193 2850 50  0000 C CNN
F 1 "Conn_01x11" H 5193 2941 50  0000 C CNN
F 2 "Connector_PinHeader_2.54mm:PinHeader_1x11_P2.54mm_Vertical" H 5275 3575 50  0001 C CNN
F 3 "~" H 5275 3575 50  0001 C CNN
	1    5275 3575
	-1   0    0    1   
$EndComp
$Comp
L Device:R R1
U 1 1 5D2949BC
P 5975 3075
F 0 "R1" V 5925 3225 50  0000 C CNN
F 1 "R" V 5859 3075 50  0001 C CNN
F 2 "Resistor_SMD:R_0805_2012Metric" V 5905 3075 50  0001 C CNN
F 3 "~" H 5975 3075 50  0001 C CNN
	1    5975 3075
	0    1    1    0   
$EndComp
$Comp
L Device:LED D1
U 1 1 5D294EAC
P 6575 3075
F 0 "D1" H 6325 3025 50  0000 C CNN
F 1 "LED" H 6568 2911 50  0001 C CNN
F 2 "LED_SMD:LED_0805_2012Metric" H 6575 3075 50  0001 C CNN
F 3 "~" H 6575 3075 50  0001 C CNN
	1    6575 3075
	-1   0    0    1   
$EndComp
$Comp
L power:GND #PWR01
U 1 1 5D2950C7
P 6825 4125
F 0 "#PWR01" H 6825 3875 50  0001 C CNN
F 1 "GND" H 6830 3952 50  0000 C CNN
F 2 "" H 6825 4125 50  0001 C CNN
F 3 "" H 6825 4125 50  0001 C CNN
	1    6825 4125
	1    0    0    -1  
$EndComp
Wire Wire Line
	6125 3075 6425 3075
Wire Wire Line
	5475 3075 5825 3075
$Comp
L Device:R R2
U 1 1 5D29852A
P 5975 3175
F 0 "R2" V 5925 3325 50  0000 C CNN
F 1 "R" V 5859 3175 50  0001 C CNN
F 2 "Resistor_SMD:R_0805_2012Metric" V 5905 3175 50  0001 C CNN
F 3 "~" H 5975 3175 50  0001 C CNN
	1    5975 3175
	0    1    1    0   
$EndComp
$Comp
L Device:LED D2
U 1 1 5D298530
P 6575 3175
F 0 "D2" H 6325 3125 50  0000 C CNN
F 1 "LED" H 6568 3011 50  0001 C CNN
F 2 "LED_SMD:LED_0805_2012Metric" H 6575 3175 50  0001 C CNN
F 3 "~" H 6575 3175 50  0001 C CNN
	1    6575 3175
	-1   0    0    1   
$EndComp
Wire Wire Line
	6125 3175 6425 3175
Wire Wire Line
	5475 3175 5825 3175
$Comp
L Device:R R3
U 1 1 5D29A7DD
P 5975 3275
F 0 "R3" V 5925 3425 50  0000 C CNN
F 1 "R" V 5859 3275 50  0001 C CNN
F 2 "Resistor_SMD:R_0805_2012Metric" V 5905 3275 50  0001 C CNN
F 3 "~" H 5975 3275 50  0001 C CNN
	1    5975 3275
	0    1    1    0   
$EndComp
$Comp
L Device:LED D3
U 1 1 5D29A7E3
P 6575 3275
F 0 "D3" H 6325 3225 50  0000 C CNN
F 1 "LED" H 6568 3111 50  0001 C CNN
F 2 "LED_SMD:LED_0805_2012Metric" H 6575 3275 50  0001 C CNN
F 3 "~" H 6575 3275 50  0001 C CNN
	1    6575 3275
	-1   0    0    1   
$EndComp
Wire Wire Line
	6125 3275 6425 3275
Wire Wire Line
	5475 3275 5825 3275
$Comp
L Device:R R4
U 1 1 5D29A7EB
P 5975 3375
F 0 "R4" V 5925 3525 50  0000 C CNN
F 1 "R" V 5859 3375 50  0001 C CNN
F 2 "Resistor_SMD:R_0805_2012Metric" V 5905 3375 50  0001 C CNN
F 3 "~" H 5975 3375 50  0001 C CNN
	1    5975 3375
	0    1    1    0   
$EndComp
$Comp
L Device:LED D4
U 1 1 5D29A7F1
P 6575 3375
F 0 "D4" H 6325 3325 50  0000 C CNN
F 1 "LED" H 6568 3211 50  0001 C CNN
F 2 "LED_SMD:LED_0805_2012Metric" H 6575 3375 50  0001 C CNN
F 3 "~" H 6575 3375 50  0001 C CNN
	1    6575 3375
	-1   0    0    1   
$EndComp
Wire Wire Line
	6125 3375 6425 3375
Wire Wire Line
	5475 3375 5825 3375
$Comp
L Device:R R5
U 1 1 5D29C445
P 5975 3475
F 0 "R5" V 5925 3625 50  0000 C CNN
F 1 "R" V 5859 3475 50  0001 C CNN
F 2 "Resistor_SMD:R_0805_2012Metric" V 5905 3475 50  0001 C CNN
F 3 "~" H 5975 3475 50  0001 C CNN
	1    5975 3475
	0    1    1    0   
$EndComp
$Comp
L Device:LED D5
U 1 1 5D29C44B
P 6575 3475
F 0 "D5" H 6325 3425 50  0000 C CNN
F 1 "LED" H 6568 3311 50  0001 C CNN
F 2 "LED_SMD:LED_0805_2012Metric" H 6575 3475 50  0001 C CNN
F 3 "~" H 6575 3475 50  0001 C CNN
	1    6575 3475
	-1   0    0    1   
$EndComp
Wire Wire Line
	6125 3475 6425 3475
Wire Wire Line
	5475 3475 5825 3475
$Comp
L Device:R R6
U 1 1 5D29C453
P 5975 3575
F 0 "R6" V 5925 3725 50  0000 C CNN
F 1 "R" V 5859 3575 50  0001 C CNN
F 2 "Resistor_SMD:R_0805_2012Metric" V 5905 3575 50  0001 C CNN
F 3 "~" H 5975 3575 50  0001 C CNN
	1    5975 3575
	0    1    1    0   
$EndComp
$Comp
L Device:LED D6
U 1 1 5D29C459
P 6575 3575
F 0 "D6" H 6325 3525 50  0000 C CNN
F 1 "LED" H 6568 3411 50  0001 C CNN
F 2 "LED_SMD:LED_0805_2012Metric" H 6575 3575 50  0001 C CNN
F 3 "~" H 6575 3575 50  0001 C CNN
	1    6575 3575
	-1   0    0    1   
$EndComp
Wire Wire Line
	6125 3575 6425 3575
Wire Wire Line
	5475 3575 5825 3575
$Comp
L Device:R R7
U 1 1 5D29C461
P 5975 3675
F 0 "R7" V 5925 3825 50  0000 C CNN
F 1 "R" V 5859 3675 50  0001 C CNN
F 2 "Resistor_SMD:R_0805_2012Metric" V 5905 3675 50  0001 C CNN
F 3 "~" H 5975 3675 50  0001 C CNN
	1    5975 3675
	0    1    1    0   
$EndComp
$Comp
L Device:LED D7
U 1 1 5D29C467
P 6575 3675
F 0 "D7" H 6325 3625 50  0000 C CNN
F 1 "LED" H 6568 3511 50  0001 C CNN
F 2 "LED_SMD:LED_0805_2012Metric" H 6575 3675 50  0001 C CNN
F 3 "~" H 6575 3675 50  0001 C CNN
	1    6575 3675
	-1   0    0    1   
$EndComp
Wire Wire Line
	6125 3675 6425 3675
Wire Wire Line
	5475 3675 5825 3675
$Comp
L Device:R R8
U 1 1 5D29C46F
P 5975 3775
F 0 "R8" V 5925 3925 50  0000 C CNN
F 1 "R" V 5859 3775 50  0001 C CNN
F 2 "Resistor_SMD:R_0805_2012Metric" V 5905 3775 50  0001 C CNN
F 3 "~" H 5975 3775 50  0001 C CNN
	1    5975 3775
	0    1    1    0   
$EndComp
$Comp
L Device:LED D8
U 1 1 5D29C475
P 6575 3775
F 0 "D8" H 6325 3725 50  0000 C CNN
F 1 "LED" H 6568 3611 50  0001 C CNN
F 2 "LED_SMD:LED_0805_2012Metric" H 6575 3775 50  0001 C CNN
F 3 "~" H 6575 3775 50  0001 C CNN
	1    6575 3775
	-1   0    0    1   
$EndComp
Wire Wire Line
	6125 3775 6425 3775
Wire Wire Line
	5475 3775 5825 3775
$Comp
L Device:R R9
U 1 1 5D29D493
P 5975 3875
F 0 "R9" V 5925 4025 50  0000 C CNN
F 1 "R" V 5859 3875 50  0001 C CNN
F 2 "Resistor_SMD:R_0805_2012Metric" V 5905 3875 50  0001 C CNN
F 3 "~" H 5975 3875 50  0001 C CNN
	1    5975 3875
	0    1    1    0   
$EndComp
$Comp
L Device:LED D9
U 1 1 5D29D499
P 6575 3875
F 0 "D9" H 6325 3825 50  0000 C CNN
F 1 "LED" H 6568 3711 50  0001 C CNN
F 2 "LED_SMD:LED_0805_2012Metric" H 6575 3875 50  0001 C CNN
F 3 "~" H 6575 3875 50  0001 C CNN
	1    6575 3875
	-1   0    0    1   
$EndComp
Wire Wire Line
	6125 3875 6425 3875
Wire Wire Line
	5475 3875 5825 3875
$Comp
L Device:R R10
U 1 1 5D29D4A1
P 5975 3975
F 0 "R10" V 5925 4125 50  0000 C CNN
F 1 "R" V 5859 3975 50  0001 C CNN
F 2 "Resistor_SMD:R_0805_2012Metric" V 5905 3975 50  0001 C CNN
F 3 "~" H 5975 3975 50  0001 C CNN
	1    5975 3975
	0    1    1    0   
$EndComp
$Comp
L Device:LED D10
U 1 1 5D29D4A7
P 6575 3975
F 0 "D10" H 6325 3925 50  0000 C CNN
F 1 "LED" H 6568 3811 50  0001 C CNN
F 2 "LED_SMD:LED_0805_2012Metric" H 6575 3975 50  0001 C CNN
F 3 "~" H 6575 3975 50  0001 C CNN
	1    6575 3975
	-1   0    0    1   
$EndComp
Wire Wire Line
	6125 3975 6425 3975
Wire Wire Line
	5475 3975 5825 3975
Wire Wire Line
	5475 4075 6825 4075
Wire Wire Line
	6825 4075 6825 4125
Wire Wire Line
	6725 3075 6825 3075
Wire Wire Line
	6825 3075 6825 3175
Connection ~ 6825 4075
Wire Wire Line
	6725 3175 6825 3175
Connection ~ 6825 3175
Wire Wire Line
	6725 3275 6825 3275
Wire Wire Line
	6725 3375 6825 3375
Wire Wire Line
	6725 3475 6825 3475
Wire Wire Line
	6725 3575 6825 3575
Wire Wire Line
	6725 3675 6825 3675
Wire Wire Line
	6725 3775 6825 3775
Wire Wire Line
	6725 3875 6825 3875
Wire Wire Line
	6725 3975 6825 3975
Wire Wire Line
	6825 3175 6825 3275
Connection ~ 6825 3975
Wire Wire Line
	6825 3975 6825 4075
Connection ~ 6825 3275
Wire Wire Line
	6825 3275 6825 3375
Connection ~ 6825 3375
Wire Wire Line
	6825 3375 6825 3475
Connection ~ 6825 3475
Wire Wire Line
	6825 3475 6825 3575
Connection ~ 6825 3575
Wire Wire Line
	6825 3575 6825 3675
Connection ~ 6825 3675
Wire Wire Line
	6825 3675 6825 3775
Connection ~ 6825 3775
Wire Wire Line
	6825 3775 6825 3875
Connection ~ 6825 3875
Wire Wire Line
	6825 3875 6825 3975
$Comp
L power:PWR_FLAG #FLG0101
U 1 1 604E545F
P 7175 4125
F 0 "#FLG0101" H 7175 4200 50  0001 C CNN
F 1 "PWR_FLAG" H 7175 4298 50  0000 C CNN
F 2 "" H 7175 4125 50  0001 C CNN
F 3 "~" H 7175 4125 50  0001 C CNN
	1    7175 4125
	-1   0    0    1   
$EndComp
Wire Wire Line
	7175 4125 7175 4075
Wire Wire Line
	7175 4075 6825 4075
$EndSCHEMATC
